,SANGER_SAMPLE_ID,SUPPLIER_SAMPLE_NAME,PLATE,COMMON_NAME,CELL_NAME,AGE,SEX
1,SLX-18811i701-i502,F_T-cell_Pl1_A1 ,Pl1 3107 A1 ,femur T-cell A1 ,SLX-18811i701-i502,17 pcw,male
2,SLX-18811i702-i502,F_T-cell_Pl1_A2,Pl1 3107 A2,femur T-cell A2,SLX-18811i702-i502,17 pcw,male
3,SLX-18811i703-i502,F_T-cell_Pl1_A3,Pl1 3107 A3,femur T-cell A3,SLX-18811i703-i502,17 pcw,male
4,SLX-18811i704-i502,F_T-cell_Pl1_A4,Pl1 3107 A4,femur T-cell A4,SLX-18811i704-i502,17 pcw,male
5,SLX-18811i705-i502,F_T-cell_Pl1_A5,Pl1 3107 A5,femur T-cell A5,SLX-18811i705-i502,17 pcw,male
6,SLX-18811i706-i502,F_T-cell_Pl1_A6,Pl1 3107 A6,femur T-cell A6,SLX-18811i706-i502,17 pcw,male
7,SLX-18811i707-i502,F_T-cell_Pl1_A7,Pl1 3107 A7,femur T-cell A7,SLX-18811i707-i502,17 pcw,male
8,SLX-18811i710-i502,F_T-cell_Pl1_A8,Pl1 3107 A8,femur T-cell A8,SLX-18811i710-i502,17 pcw,male
9,SLX-18811i711-i502,F_T-cell_Pl1_A9,Pl1 3107 A9,femur T-cell A9,SLX-18811i711-i502,17 pcw,male
10,SLX-18811i712-i502,F_T-cell_Pl1_A10,Pl1 3107 A10,femur T-cell A10,SLX-18811i712-i502,17 pcw,male
11,SLX-18811i714-i502,F_T-cell_Pl1_A11,Pl1 3107 A11,femur T-cell A11,SLX-18811i714-i502,17 pcw,male
12,SLX-18811i715-i502,F_T-cell_Pl1_A12,Pl1 3107 A12,femur T-cell A12,SLX-18811i715-i502,17 pcw,male
13,SLX-18811i701-i503,F_T-cell_Pl1_B1,Pl1 3107 B1,femur T-cell B1,SLX-18811i701-i503,17 pcw,male
14,SLX-18811i702-i503,F_T-cell_Pl1_B2,Pl1 3107 B2,femur T-cell B2,SLX-18811i702-i503,17 pcw,male
15,SLX-18811i703-i503,F_T-cell_Pl1_B3,Pl1 3107 B3,femur T-cell B3,SLX-18811i703-i503,17 pcw,male
16,SLX-18811i704-i503,F_T-cell_Pl1_B4,Pl1 3107 B4,femur T-cell B4,SLX-18811i704-i503,17 pcw,male
17,SLX-18811i705-i503,F_T-cell_Pl1_B5,Pl1 3107 B5,femur T-cell B5,SLX-18811i705-i503,17 pcw,male
18,SLX-18811i706-i503,F_T-cell_Pl1_B6,Pl1 3107 B6,femur T-cell B6,SLX-18811i706-i503,17 pcw,male
19,SLX-18811i707-i503,F_T-cell_Pl1_B7,Pl1 3107 B7,femur T-cell B7,SLX-18811i707-i503,17 pcw,male
20,SLX-18811i710-i503,F_T-cell_Pl1_B8,Pl1 3107 B8,femur T-cell B8,SLX-18811i710-i503,17 pcw,male
21,SLX-18811i711-i503,F_T-cell_Pl1_B9,Pl1 3107 B9,femur T-cell B9,SLX-18811i711-i503,17 pcw,male
22,SLX-18811i712-i503,F_T-cell_Pl1_B10,Pl1 3107 B10,femur T-cell B10,SLX-18811i712-i503,17 pcw,male
23,SLX-18811i714-i503,F_T-cell_Pl1_B11,Pl1 3107 B11,femur T-cell B11,SLX-18811i714-i503,17 pcw,male
24,SLX-18811i715-i503,F_T-cell_Pl1_B12,Pl1 3107 B12,femur T-cell B12,SLX-18811i715-i503,17 pcw,male
25,SLX-18811i701-i505,F_T-cell_Pl1_C1,Pl1 3107 C1,femur T-cell C1,SLX-18811i701-i505,17 pcw,male
26,SLX-18811i702-i505,F_T-cell_Pl1_C2,Pl1 3107 C2,femur T-cell C2,SLX-18811i702-i505,17 pcw,male
27,SLX-18811i703-i505,F_T-cell_Pl1_C3,Pl1 3107 C3,femur T-cell C3,SLX-18811i703-i505,17 pcw,male
28,SLX-18811i704-i505,F_T-cell_Pl1_C4,Pl1 3107 C4,femur T-cell C4,SLX-18811i704-i505,17 pcw,male
29,SLX-18811i705-i505,F_T-cell_Pl1_C5,Pl1 3107 C5,femur T-cell C5,SLX-18811i705-i505,17 pcw,male
30,SLX-18811i706-i505,F_T-cell_Pl1_C6,Pl1 3107 C6,femur T-cell C6,SLX-18811i706-i505,17 pcw,male
31,SLX-18811i707-i505,F_T-cell_Pl1_C7,Pl1 3107 C7,femur T-cell C7,SLX-18811i707-i505,17 pcw,male
32,SLX-18811i710-i505,F_T-cell_Pl1_C8,Pl1 3107 C8,femur T-cell C8,SLX-18811i710-i505,17 pcw,male
33,SLX-18811i711-i505,F_T-cell_Pl1_C9,Pl1 3107 C9,femur T-cell C9,SLX-18811i711-i505,17 pcw,male
34,SLX-18811i712-i505,F_T-cell_Pl1_C10,Pl1 3107 C10,femur T-cell C10,SLX-18811i712-i505,17 pcw,male
35,SLX-18811i714-i505,F_T-cell_Pl1_C11,Pl1 3107 C11,femur T-cell C11,SLX-18811i714-i505,17 pcw,male
36,SLX-18811i715-i505,F_T-cell_Pl1_C12,Pl1 3107 C12,femur T-cell C12,SLX-18811i715-i505,17 pcw,male
37,SLX-18811i701-i506,F_T-cell_Pl1_D1,Pl1 3107 D1,femur T-cell D1,SLX-18811i701-i506,17 pcw,male
38,SLX-18811i702-i506,F_T-cell_Pl1_D2,Pl1 3107 D2,femur T-cell D2,SLX-18811i702-i506,17 pcw,male
39,SLX-18811i703-i506,F_T-cell_Pl1_D3,Pl1 3107 D3,femur T-cell D3,SLX-18811i703-i506,17 pcw,male
40,SLX-18811i704-i506,F_T-cell_Pl1_D4,Pl1 3107 D4,femur T-cell D4,SLX-18811i704-i506,17 pcw,male
41,SLX-18811i705-i506,F_T-cell_Pl1_D5,Pl1 3107 D5,femur T-cell D5,SLX-18811i705-i506,17 pcw,male
42,SLX-18811i706-i506,F_T-cell_Pl1_D6,Pl1 3107 D6,femur T-cell D6,SLX-18811i706-i506,17 pcw,male
43,SLX-18811i707-i506,F_T-cell_Pl1_D7,Pl1 3107 D7,femur T-cell D7,SLX-18811i707-i506,17 pcw,male
44,SLX-18811i710-i506,F_T-cell_Pl1_D8,Pl1 3107 D8,femur T-cell D8,SLX-18811i710-i506,17 pcw,male
45,SLX-18811i711-i506,F_T-cell_Pl1_D9,Pl1 3107 D9,femur T-cell D9,SLX-18811i711-i506,17 pcw,male
46,SLX-18811i712-i506,F_T-cell_Pl1_D10,Pl1 3107 D10,femur T-cell D10,SLX-18811i712-i506,17 pcw,male
47,SLX-18811i714-i506,F_T-cell_Pl1_D11,Pl1 3107 D11,femur T-cell D11,SLX-18811i714-i506,17 pcw,male
48,SLX-18811i715-i506,F_T-cell_Pl1_D12,Pl1 3107 D12,femur T-cell D12,SLX-18811i715-i506,17 pcw,male
49,SLX-18811i701-i507,F_T-cell_Pl1_E1,Pl1 3107 E1,femur T-cell E1,SLX-18811i701-i507,17 pcw,male
50,SLX-18811i702-i507,F_T-cell_Pl1_E2,Pl1 3107 E2,femur T-cell E2,SLX-18811i702-i507,17 pcw,male
51,SLX-18811i703-i507,F_T-cell_Pl1_E3,Pl1 3107 E3,femur T-cell E3,SLX-18811i703-i507,17 pcw,male
52,SLX-18811i704-i507,F_T-cell_Pl1_E4,Pl1 3107 E4,femur T-cell E4,SLX-18811i704-i507,17 pcw,male
53,SLX-18811i705-i507,F_T-cell_Pl1_E5,Pl1 3107 E5,femur T-cell E5,SLX-18811i705-i507,17 pcw,male
54,SLX-18811i706-i507,F_T-cell_Pl1_E6,Pl1 3107 E6,femur T-cell E6,SLX-18811i706-i507,17 pcw,male
55,SLX-18811i707-i507,F_T-cell_Pl1_E7,Pl1 3107 E7,femur T-cell E7,SLX-18811i707-i507,17 pcw,male
56,SLX-18811i710-i507,F_T-cell_Pl1_E8,Pl1 3107 E8,femur T-cell E8,SLX-18811i710-i507,17 pcw,male
57,SLX-18811i711-i507,F_T-cell_Pl1_E9,Pl1 3107 E9,femur T-cell E9,SLX-18811i711-i507,17 pcw,male
58,SLX-18811i712-i507,F_T-cell_Pl1_E10,Pl1 3107 E10,femur T-cell E10,SLX-18811i712-i507,17 pcw,male
59,SLX-18811i714-i507,F_T-cell_Pl1_E11,Pl1 3107 E11,femur T-cell E11,SLX-18811i714-i507,17 pcw,male
60,SLX-18811i715-i507,F_T-cell_Pl1_E12,Pl1 3107 E12,femur T-cell E12,SLX-18811i715-i507,17 pcw,male
61,SLX-18811i701-i508,F_T-cell_Pl1_F1,Pl1 3107 F1,femur T-cell F1,SLX-18811i701-i508,17 pcw,male
62,SLX-18811i702-i508,F_T-cell_Pl1_F2,Pl1 3107 F2,femur T-cell F2,SLX-18811i702-i508,17 pcw,male
63,SLX-18811i703-i508,F_T-cell_Pl1_F3,Pl1 3107 F3,femur T-cell F3,SLX-18811i703-i508,17 pcw,male
64,SLX-18811i704-i508,F_T-cell_Pl1_F4,Pl1 3107 F4,femur T-cell F4,SLX-18811i704-i508,17 pcw,male
65,SLX-18811i705-i508,F_T-cell_Pl1_F5,Pl1 3107 F5,femur T-cell F5,SLX-18811i705-i508,17 pcw,male
66,SLX-18811i706-i508,F_T-cell_Pl1_F6,Pl1 3107 F6,femur T-cell F6,SLX-18811i706-i508,17 pcw,male
67,SLX-18811i707-i508,F_T-cell_Pl1_F7,Pl1 3107 F7,femur T-cell F7,SLX-18811i707-i508,17 pcw,male
68,SLX-18811i710-i508,F_T-cell_Pl1_F8,Pl1 3107 F8,femur T-cell F8,SLX-18811i710-i508,17 pcw,male
69,SLX-18811i711-i508,F_T-cell_Pl1_F9,Pl1 3107 F9,femur T-cell F9,SLX-18811i711-i508,17 pcw,male
70,SLX-18811i712-i508,F_T-cell_Pl1_F10,Pl1 3107 F10,femur T-cell F10,SLX-18811i712-i508,17 pcw,male
71,SLX-18811i714-i508,F_T-cell_Pl1_F11,Pl1 3107 F11,femur T-cell F11,SLX-18811i714-i508,17 pcw,male
72,SLX-18811i715-i508,F_T-cell_Pl1_F12,Pl1 3107 F12,femur T-cell F12,SLX-18811i715-i508,17 pcw,male
73,SLX-18811i701-i510,F_T-cell_Pl1_G1,Pl1 3107 G1,femur T-cell G1,SLX-18811i701-i510,17 pcw,male
74,SLX-18811i702-i510,F_T-cell_Pl1_G2,Pl1 3107 G2,femur T-cell G2,SLX-18811i702-i510,17 pcw,male
75,SLX-18811i703-i510,F_T-cell_Pl1_G3,Pl1 3107 G3,femur T-cell G3,SLX-18811i703-i510,17 pcw,male
76,SLX-18811i704-i510,F_T-cell_Pl1_G4,Pl1 3107 G4,femur T-cell G4,SLX-18811i704-i510,17 pcw,male
77,SLX-18811i705-i510,F_T-cell_Pl1_G5,Pl1 3107 G5,femur T-cell G5,SLX-18811i705-i510,17 pcw,male
78,SLX-18811i706-i510,F_T-cell_Pl1_G6,Pl1 3107 G6,femur T-cell G6,SLX-18811i706-i510,17 pcw,male
79,SLX-18811i707-i510,F_T-cell_Pl1_G7,Pl1 3107 G7,femur T-cell G7,SLX-18811i707-i510,17 pcw,male
80,SLX-18811i710-i510,F_T-cell_Pl1_G8,Pl1 3107 G8,femur T-cell G8,SLX-18811i710-i510,17 pcw,male
81,SLX-18811i711-i510,F_T-cell_Pl1_G9,Pl1 3107 G9,femur T-cell G9,SLX-18811i711-i510,17 pcw,male
82,SLX-18811i712-i510,F_T-cell_Pl1_G10,Pl1 3107 G10,femur T-cell G10,SLX-18811i712-i510,17 pcw,male
83,SLX-18811i714-i510,F_T-cell_Pl1_G11,Pl1 3107 G11,femur T-cell G11,SLX-18811i714-i510,17 pcw,male
84,SLX-18811i715-i510,F_T-cell_Pl1_G12,Pl1 3107 G12,femur T-cell G12,SLX-18811i715-i510,17 pcw,male
85,SLX-18811i701-i511,F_T-cell_Pl1_H1,Pl1 3107 H1,femur T-cell H1,SLX-18811i701-i511,17 pcw,male
86,SLX-18811i702-i511,F_T-cell_Pl1_H2,Pl1 3107 H2,femur T-cell H2,SLX-18811i702-i511,17 pcw,male
87,SLX-18811i703-i511,F_T-cell_Pl1_H3,Pl1 3107 H3,femur T-cell H3,SLX-18811i703-i511,17 pcw,male
88,SLX-18811i704-i511,F_T-cell_Pl1_H4,Pl1 3107 H4,femur T-cell H4,SLX-18811i704-i511,17 pcw,male
89,SLX-18811i705-i511,F_T-cell_Pl1_H5,Pl1 3107 H5,femur T-cell H5,SLX-18811i705-i511,17 pcw,male
90,SLX-18811i706-i511,F_T-cell_Pl1_H6,Pl1 3107 H6,femur T-cell H6,SLX-18811i706-i511,17 pcw,male
91,SLX-18811i707-i511,F_T-cell_Pl1_H7,Pl1 3107 H7,femur T-cell H7,SLX-18811i707-i511,17 pcw,male
92,SLX-18811i710-i511,F_T-cell_Pl1_H8,Pl1 3107 H8,femur T-cell H8,SLX-18811i710-i511,17 pcw,male
93,SLX-18811i716-i502,L_Lin-ILC_Pl5_A1,Pl5 3107 A1,liver Lin-ILC A1,SLX-18811i716-i502,17 pcw,male
94,SLX-18811i718-i502,L_Lin-ILC_Pl5_A2,Pl5 3107 A2,liver Lin-ILC A2,SLX-18811i718-i502,17 pcw,male
95,SLX-18811i719-i502,L_Lin-ILC_Pl5_A3,Pl5 3107 A3,liver Lin-ILC A3,SLX-18811i719-i502,17 pcw,male
96,SLX-18811i720-i502,L_Lin-ILC_Pl5_A4,Pl5 3107 A4,liver Lin-ILC A4,SLX-18811i720-i502,17 pcw,male
97,SLX-18811i721-i502,L_Lin-ILC_Pl5_A5,Pl5 3107 A5,liver Lin-ILC A5,SLX-18811i721-i502,17 pcw,male
98,SLX-18811i722-i502,L_Lin-ILC_Pl5_A6,Pl5 3107 A6,liver Lin-ILC A6,SLX-18811i722-i502,17 pcw,male
99,SLX-18811i723-i502,L_Lin-ILC_Pl5_A7,Pl5 3107 A7,liver Lin-ILC A7,SLX-18811i723-i502,17 pcw,male
100,SLX-18811i724-i502,L_Lin-ILC_Pl5_A8,Pl5 3107 A8,liver Lin-ILC A8,SLX-18811i724-i502,17 pcw,male
101,SLX-18811i726-i502,L_Lin-ILC_Pl5_A9,Pl5 3107 A9,liver Lin-ILC A9,SLX-18811i726-i502,17 pcw,male
102,SLX-18811i727-i502,L_Lin-ILC_Pl5_A10,Pl5 3107 A10,liver Lin-ILC A10,SLX-18811i727-i502,17 pcw,male
103,SLX-18811i728-i502,L_Lin-ILC_Pl5_A11,Pl5 3107 A11,liver Lin-ILC A11,SLX-18811i728-i502,17 pcw,male
104,SLX-18811i729-i502,L_Lin-ILC_Pl5_A12,Pl5 3107 A12,liver Lin-ILC A12,SLX-18811i729-i502,17 pcw,male
105,SLX-18811i716-i503,L_Lin-ILC_Pl5_B1,Pl5 3107 B1,liver Lin-ILC B1,SLX-18811i716-i503,17 pcw,male
106,SLX-18811i718-i503,L_Lin-ILC_Pl5_B2,Pl5 3107 B2,liver Lin-ILC B2,SLX-18811i718-i503,17 pcw,male
107,SLX-18811i719-i503,L_Lin-ILC_Pl5_B3,Pl5 3107 B3,liver Lin-ILC B3,SLX-18811i719-i503,17 pcw,male
108,SLX-18811i720-i503,L_Lin-ILC_Pl5_B4,Pl5 3107 B4,liver Lin-ILC B4,SLX-18811i720-i503,17 pcw,male
109,SLX-18811i721-i503,L_Lin-ILC_Pl5_B5,Pl5 3107 B5,liver Lin-ILC B5,SLX-18811i721-i503,17 pcw,male
110,SLX-18811i722-i503,L_Lin-ILC_Pl5_B6,Pl5 3107 B6,liver Lin-ILC B6,SLX-18811i722-i503,17 pcw,male
111,SLX-18811i723-i503,L_Lin-ILC_Pl5_B7,Pl5 3107 B7,liver Lin-ILC B7,SLX-18811i723-i503,17 pcw,male
112,SLX-18811i724-i503,L_Lin-ILC_Pl5_B8,Pl5 3107 B8,liver Lin-ILC B8,SLX-18811i724-i503,17 pcw,male
113,SLX-18811i726-i503,L_Lin-ILC_Pl5_B9,Pl5 3107 B9,liver Lin-ILC B9,SLX-18811i726-i503,17 pcw,male
114,SLX-18811i727-i503,L_Lin-ILC_Pl5_B10,Pl5 3107 B10,liver Lin-ILC B10,SLX-18811i727-i503,17 pcw,male
115,SLX-18811i728-i503,L_Lin-ILC_Pl5_B11,Pl5 3107 B11,liver Lin-ILC B11,SLX-18811i728-i503,17 pcw,male
116,SLX-18811i729-i503,L_Lin-ILC_Pl5_B12,Pl5 3107 B12,liver Lin-ILC B12,SLX-18811i729-i503,17 pcw,male
117,SLX-18811i716-i505,L_Lin-ILC_Pl5_C1,Pl5 3107 C1,liver Lin-ILC C1,SLX-18811i716-i505,17 pcw,male
118,SLX-18811i718-i505,L_Lin-ILC_Pl5_C2,Pl5 3107 C2,liver Lin-ILC C2,SLX-18811i718-i505,17 pcw,male
119,SLX-18811i719-i505,L_Lin-ILC_Pl5_C3,Pl5 3107 C3,liver Lin-ILC C3,SLX-18811i719-i505,17 pcw,male
120,SLX-18811i720-i505,L_Lin-ILC_Pl5_C4,Pl5 3107 C4,liver Lin-ILC C4,SLX-18811i720-i505,17 pcw,male
121,SLX-18811i721-i505,L_Lin-ILC_Pl5_C5,Pl5 3107 C5,liver Lin-ILC C5,SLX-18811i721-i505,17 pcw,male
122,SLX-18811i722-i505,L_Lin-ILC_Pl5_C6,Pl5 3107 C6,liver Lin-ILC C6,SLX-18811i722-i505,17 pcw,male
123,SLX-18811i723-i505,L_Lin-ILC_Pl5_C7,Pl5 3107 C7,liver Lin-ILC C7,SLX-18811i723-i505,17 pcw,male
124,SLX-18811i724-i505,L_Lin-ILC_Pl5_C8,Pl5 3107 C8,liver Lin-ILC C8,SLX-18811i724-i505,17 pcw,male
125,SLX-18811i726-i505,L_Lin-ILC_Pl5_C9,Pl5 3107 C9,liver Lin-ILC C9,SLX-18811i726-i505,17 pcw,male
126,SLX-18811i727-i505,L_Lin-ILC_Pl5_C10,Pl5 3107 C10,liver Lin-ILC C10,SLX-18811i727-i505,17 pcw,male
127,SLX-18811i728-i505,L_Lin-ILC_Pl5_C11,Pl5 3107 C11,liver Lin-ILC C11,SLX-18811i728-i505,17 pcw,male
128,SLX-18811i729-i505,L_Lin-ILC_Pl5_C12,Pl5 3107 C12,liver Lin-ILC C12,SLX-18811i729-i505,17 pcw,male
129,SLX-18811i716-i506,L_Lin-ILC_Pl5_D1,Pl5 3107 D1,liver Lin-ILC D1,SLX-18811i716-i506,17 pcw,male
130,SLX-18811i718-i506,L_Lin-ILC_Pl5_D2,Pl5 3107 D2,liver Lin-ILC D2,SLX-18811i718-i506,17 pcw,male
131,SLX-18811i719-i506,L_Lin-ILC_Pl5_D3,Pl5 3107 D3,liver Lin-ILC D3,SLX-18811i719-i506,17 pcw,male
132,SLX-18811i720-i506,L_Lin-ILC_Pl5_D4,Pl5 3107 D4,liver Lin-ILC D4,SLX-18811i720-i506,17 pcw,male
133,SLX-18811i721-i506,L_Lin-ILC_Pl5_D5,Pl5 3107 D5,liver Lin-ILC D5,SLX-18811i721-i506,17 pcw,male
134,SLX-18811i722-i506,L_Lin-ILC_Pl5_D6,Pl5 3107 D6,liver Lin-ILC D6,SLX-18811i722-i506,17 pcw,male
135,SLX-18811i723-i506,L_Lin-ILC_Pl5_D7,Pl5 3107 D7,liver Lin-ILC D7,SLX-18811i723-i506,17 pcw,male
136,SLX-18811i724-i506,L_Lin-ILC_Pl5_D8,Pl5 3107 D8,liver Lin-ILC D8,SLX-18811i724-i506,17 pcw,male
137,SLX-18811i726-i506,L_Lin-ILC_Pl5_D9,Pl5 3107 D9,liver Lin-ILC D9,SLX-18811i726-i506,17 pcw,male
138,SLX-18811i727-i506,L_Lin-ILC_Pl5_D10,Pl5 3107 D10,liver Lin-ILC D10,SLX-18811i727-i506,17 pcw,male
139,SLX-18811i728-i506,L_Lin-ILC_Pl5_D11,Pl5 3107 D11,liver Lin-ILC D11,SLX-18811i728-i506,17 pcw,male
140,SLX-18811i729-i506,L_Lin-ILC_Pl5_D12,Pl5 3107 D12,liver Lin-ILC D12,SLX-18811i729-i506,17 pcw,male
141,SLX-18811i716-i507,L_Lin+ILC_Pl5_E1,Pl5 3107 E1,liver Lin+ILC E1,SLX-18811i716-i507,17 pcw,male
142,SLX-18811i718-i507,L_Lin+ILC_Pl5_E2,Pl5 3107 E2,liver Lin+ILC E2,SLX-18811i718-i507,17 pcw,male
143,SLX-18811i719-i507,L_Lin+ILC_Pl5_E3,Pl5 3107 E3,liver Lin+ILC E3,SLX-18811i719-i507,17 pcw,male
144,SLX-18811i720-i507,L_Lin+ILC_Pl5_E4,Pl5 3107 E4,liver Lin+ILC E4,SLX-18811i720-i507,17 pcw,male
145,SLX-18811i721-i507,L_Lin+ILC_Pl5_E5,Pl5 3107 E5,liver Lin+ILC E5,SLX-18811i721-i507,17 pcw,male
146,SLX-18811i722-i507,L_Lin+ILC_Pl5_E6,Pl5 3107 E6,liver Lin+ILC E6,SLX-18811i722-i507,17 pcw,male
147,SLX-18811i723-i507,L_Lin+ILC_Pl5_E7,Pl5 3107 E7,liver Lin+ILC E7,SLX-18811i723-i507,17 pcw,male
148,SLX-18811i724-i507,L_Lin+ILC_Pl5_E8,Pl5 3107 E8,liver Lin+ILC E8,SLX-18811i724-i507,17 pcw,male
149,SLX-18811i726-i507,L_Lin+ILC_Pl5_E9,Pl5 3107 E9,liver Lin+ILC E9,SLX-18811i726-i507,17 pcw,male
150,SLX-18811i727-i507,L_Lin+ILC_Pl5_E10,Pl5 3107 E10,liver Lin+ILC E10,SLX-18811i727-i507,17 pcw,male
151,SLX-18811i728-i507,L_Lin+ILC_Pl5_E11,Pl5 3107 E11,liver Lin+ILC E11,SLX-18811i728-i507,17 pcw,male
152,SLX-18811i729-i507,L_Lin+ILC_Pl5_E12,Pl5 3107 E12,liver Lin+ILC E12,SLX-18811i729-i507,17 pcw,male
153,SLX-18811i716-i508,L_Lin+ILC_Pl5_F1,Pl5 3107 F1,liver Lin+ILC F1,SLX-18811i716-i508,17 pcw,male
154,SLX-18811i718-i508,L_Lin+ILC_Pl5_F2,Pl5 3107 F2,liver Lin+ILC F2,SLX-18811i718-i508,17 pcw,male
155,SLX-18811i719-i508,L_Lin+ILC_Pl5_F3,Pl5 3107 F3,liver Lin+ILC F3,SLX-18811i719-i508,17 pcw,male
156,SLX-18811i720-i508,L_Lin+ILC_Pl5_F4,Pl5 3107 F4,liver Lin+ILC F4,SLX-18811i720-i508,17 pcw,male
157,SLX-18811i721-i508,L_Lin+ILC_Pl5_F5,Pl5 3107 F5,liver Lin+ILC F5,SLX-18811i721-i508,17 pcw,male
158,SLX-18811i722-i508,L_Lin+ILC_Pl5_F6,Pl5 3107 F6,liver Lin+ILC F6,SLX-18811i722-i508,17 pcw,male
159,SLX-18811i723-i508,L_Lin+ILC_Pl5_F7,Pl5 3107 F7,liver Lin+ILC F7,SLX-18811i723-i508,17 pcw,male
160,SLX-18811i724-i508,L_Lin+ILC_Pl5_F8,Pl5 3107 F8,liver Lin+ILC F8,SLX-18811i724-i508,17 pcw,male
161,SLX-18811i726-i508,L_Lin+ILC_Pl5_F9,Pl5 3107 F9,liver Lin+ILC F9,SLX-18811i726-i508,17 pcw,male
162,SLX-18811i727-i508,L_Lin+ILC_Pl5_F10,Pl5 3107 F10,liver Lin+ILC F10,SLX-18811i727-i508,17 pcw,male
163,SLX-18811i728-i508,L_Lin+ILC_Pl5_F11,Pl5 3107 F11,liver Lin+ILC F11,SLX-18811i728-i508,17 pcw,male
164,SLX-18811i729-i508,L_Lin+ILC_Pl5_F12,Pl5 3107 F12,liver Lin+ILC F12,SLX-18811i729-i508,17 pcw,male
165,SLX-18811i716-i510,L_Lin+ILC_Pl5_G1,Pl5 3107 G1,liver Lin+ILC G1,SLX-18811i716-i510,17 pcw,male
166,SLX-18811i718-i510,L_Lin+ILC_Pl5_G2,Pl5 3107 G2,liver Lin+ILC G2,SLX-18811i718-i510,17 pcw,male
167,SLX-18811i719-i510,L_Lin+ILC_Pl5_G3,Pl5 3107 G3,liver Lin+ILC G3,SLX-18811i719-i510,17 pcw,male
168,SLX-18811i720-i510,L_Lin+ILC_Pl5_G4,Pl5 3107 G4,liver Lin+ILC G4,SLX-18811i720-i510,17 pcw,male
169,SLX-18811i721-i510,L_Lin+ILC_Pl5_G5,Pl5 3107 G5,liver Lin+ILC G5,SLX-18811i721-i510,17 pcw,male
170,SLX-18811i722-i510,L_Lin+ILC_Pl5_G6,Pl5 3107 G6,liver Lin+ILC G6,SLX-18811i722-i510,17 pcw,male
171,SLX-18811i723-i510,L_Lin+ILC_Pl5_G7,Pl5 3107 G7,liver Lin+ILC G7,SLX-18811i723-i510,17 pcw,male
172,SLX-18811i724-i510,L_Lin+ILC_Pl5_G8,Pl5 3107 G8,liver Lin+ILC G8,SLX-18811i724-i510,17 pcw,male
173,SLX-18811i726-i510,L_Lin+ILC_Pl5_G9,Pl5 3107 G9,liver Lin+ILC G9,SLX-18811i726-i510,17 pcw,male
174,SLX-18811i727-i510,L_Lin+ILC_Pl5_G10,Pl5 3107 G10,liver Lin+ILC G10,SLX-18811i727-i510,17 pcw,male
175,SLX-18811i728-i510,L_Lin+ILC_Pl5_G11,Pl5 3107 G11,liver Lin+ILC G11,SLX-18811i728-i510,17 pcw,male
176,SLX-18811i729-i510,L_Lin+ILC_Pl5_G12,Pl5 3107 G12,liver Lin+ILC G12,SLX-18811i729-i510,17 pcw,male
177,SLX-18811i716-i511,L_Lin+ILC_Pl5_H1,Pl5 3107 H1,liver Lin+ILC H1,SLX-18811i716-i511,17 pcw,male
178,SLX-18811i718-i511,L_Lin+ILC_Pl5_H2,Pl5 3107 H2,liver Lin+ILC H2,SLX-18811i718-i511,17 pcw,male
179,SLX-18811i719-i511,L_Lin+ILC_Pl5_H3,Pl5 3107 H3,liver Lin+ILC H3,SLX-18811i719-i511,17 pcw,male
180,SLX-18811i720-i511,L_Lin+ILC_Pl5_H4,Pl5 3107 H4,liver Lin+ILC H4,SLX-18811i720-i511,17 pcw,male
181,SLX-18811i721-i511,L_Lin+ILC_Pl5_H5,Pl5 3107 H5,liver Lin+ILC H5,SLX-18811i721-i511,17 pcw,male
182,SLX-18811i722-i511,L_Lin+ILC_Pl5_H6,Pl5 3107 H6,liver Lin+ILC H6,SLX-18811i722-i511,17 pcw,male
183,SLX-18811i723-i511,L_Lin+ILC_Pl5_H7,Pl5 3107 H7,liver Lin+ILC H7,SLX-18811i723-i511,17 pcw,male
184,SLX-18811i724-i511,L_Lin+ILC_Pl5_H8,Pl5 3107 H8,liver Lin+ILC H8,SLX-18811i724-i511,17 pcw,male
185,SLX-18811i701-i513,F_neutrophils_Pl3_A1,Pl3 1209 A1,femur neutrophils A1,SLX-18811i701-i513,19 pcw,female
186,SLX-18811i702-i513,F_neutrophils_Pl3_A2,Pl3 1209 A2,femur neutrophils A2,SLX-18811i702-i513,19 pcw,female
187,SLX-18811i703-i513,F_neutrophils_Pl3_A3,Pl3 1209 A3,femur neutrophils A3,SLX-18811i703-i513,19 pcw,female
188,SLX-18811i704-i513,F_neutrophils_Pl3_A4,Pl3 1209 A4,femur neutrophils A4,SLX-18811i704-i513,19 pcw,female
189,SLX-18811i705-i513,F_neutrophils_Pl3_A5,Pl3 1209 A5,femur neutrophils A5,SLX-18811i705-i513,19 pcw,female
190,SLX-18811i706-i513,F_neutrophils_Pl3_A6,Pl3 1209 A6,femur neutrophils A6,SLX-18811i706-i513,19 pcw,female
191,SLX-18811i707-i513,F_neutrophils_Pl3_A7,Pl3 1209 A7,femur neutrophils A7,SLX-18811i707-i513,19 pcw,female
192,SLX-18811i710-i513,F_neutrophils_Pl3_A8,Pl3 1209 A8,femur neutrophils A8,SLX-18811i710-i513,19 pcw,female
193,SLX-18811i711-i513,F_neutrophils_Pl3_A9,Pl3 1209 A9,femur neutrophils A9,SLX-18811i711-i513,19 pcw,female
194,SLX-18811i712-i513,F_neutrophils_Pl3_A10,Pl3 1209 A10,femur neutrophils A10,SLX-18811i712-i513,19 pcw,female
195,SLX-18811i714-i513,F_neutrophils_Pl3_A11,Pl3 1209 A11,femur neutrophils A11,SLX-18811i714-i513,19 pcw,female
196,SLX-18811i715-i513,F_neutrophils_Pl3_A12,Pl3 1209 A12,femur neutrophils A12,SLX-18811i715-i513,19 pcw,female
197,SLX-18811i701-i515,F_neutrophils_Pl3_B1,Pl3 1209 B1,femur neutrophils B1,SLX-18811i701-i515,19 pcw,female
198,SLX-18811i702-i515,F_neutrophils_Pl3_B2,Pl3 1209 B2,femur neutrophils B2,SLX-18811i702-i515,19 pcw,female
199,SLX-18811i703-i515,F_neutrophils_Pl3_B3,Pl3 1209 B3,femur neutrophils B3,SLX-18811i703-i515,19 pcw,female
200,SLX-18811i704-i515,F_neutrophils_Pl3_B4,Pl3 1209 B4,femur neutrophils B4,SLX-18811i704-i515,19 pcw,female
201,SLX-18811i705-i515,F_neutrophils_Pl3_B5,Pl3 1209 B5,femur neutrophils B5,SLX-18811i705-i515,19 pcw,female
202,SLX-18811i706-i515,F_neutrophils_Pl3_B6,Pl3 1209 B6,femur neutrophils B6,SLX-18811i706-i515,19 pcw,female
203,SLX-18811i707-i515,F_neutrophils_Pl3_B7,Pl3 1209 B7,femur neutrophils B7,SLX-18811i707-i515,19 pcw,female
204,SLX-18811i710-i515,F_neutrophils_Pl3_B8,Pl3 1209 B8,femur neutrophils B8,SLX-18811i710-i515,19 pcw,female
205,SLX-18811i711-i515,F_neutrophils_Pl3_B9,Pl3 1209 B9,femur neutrophils B9,SLX-18811i711-i515,19 pcw,female
206,SLX-18811i712-i515,F_neutrophils_Pl3_B10,Pl3 1209 B10,femur neutrophils B10,SLX-18811i712-i515,19 pcw,female
207,SLX-18811i714-i515,F_neutrophils_Pl3_B11,Pl3 1209 B11,femur neutrophils B11,SLX-18811i714-i515,19 pcw,female
208,SLX-18811i715-i515,F_neutrophils_Pl3_B12,Pl3 1209 B12,femur neutrophils B12,SLX-18811i715-i515,19 pcw,female
209,SLX-18811i701-i516,F_neutrophils_Pl3_C1,Pl3 1209 C1,femur neutrophils C1,SLX-18811i701-i516,19 pcw,female
210,SLX-18811i702-i516,F_neutrophils_Pl3_C2,Pl3 1209 C2,femur neutrophils C2,SLX-18811i702-i516,19 pcw,female
211,SLX-18811i703-i516,F_neutrophils_Pl3_C3,Pl3 1209 C3,femur neutrophils C3,SLX-18811i703-i516,19 pcw,female
212,SLX-18811i704-i516,F_neutrophils_Pl3_C4,Pl3 1209 C4,femur neutrophils C4,SLX-18811i704-i516,19 pcw,female
213,SLX-18811i705-i516,F_neutrophils_Pl3_C5,Pl3 1209 C5,femur neutrophils C5,SLX-18811i705-i516,19 pcw,female
214,SLX-18811i706-i516,F_neutrophils_Pl3_C6,Pl3 1209 C6,femur neutrophils C6,SLX-18811i706-i516,19 pcw,female
215,SLX-18811i707-i516,F_neutrophils_Pl3_C7,Pl3 1209 C7,femur neutrophils C7,SLX-18811i707-i516,19 pcw,female
216,SLX-18811i710-i516,F_neutrophils_Pl3_C8,Pl3 1209 C8,femur neutrophils C8,SLX-18811i710-i516,19 pcw,female
217,SLX-18811i711-i516,F_neutrophils_Pl3_C9,Pl3 1209 C9,femur neutrophils C9,SLX-18811i711-i516,19 pcw,female
218,SLX-18811i712-i516,F_neutrophils_Pl3_C10,Pl3 1209 C10,femur neutrophils C10,SLX-18811i712-i516,19 pcw,female
219,SLX-18811i714-i516,F_neutrophils_Pl3_C11,Pl3 1209 C11,femur neutrophils C11,SLX-18811i714-i516,19 pcw,female
220,SLX-18811i715-i516,F_neutrophils_Pl3_C12,Pl3 1209 C12,femur neutrophils C12,SLX-18811i715-i516,19 pcw,female
221,SLX-18811i701-i517,F_neutrophils_Pl3_D1,Pl3 1209 D1,femur neutrophils D1,SLX-18811i701-i517,19 pcw,female
222,SLX-18811i702-i517,F_neutrophils_Pl3_D2,Pl3 1209 D2,femur neutrophils D2,SLX-18811i702-i517,19 pcw,female
223,SLX-18811i703-i517,F_neutrophils_Pl3_D3,Pl3 1209 D3,femur neutrophils D3,SLX-18811i703-i517,19 pcw,female
224,SLX-18811i704-i517,F_neutrophils_Pl3_D4,Pl3 1209 D4,femur neutrophils D4,SLX-18811i704-i517,19 pcw,female
225,SLX-18811i705-i517,F_neutrophils_Pl3_D5,Pl3 1209 D5,femur neutrophils D5,SLX-18811i705-i517,19 pcw,female
226,SLX-18811i706-i517,F_neutrophils_Pl3_D6,Pl3 1209 D6,femur neutrophils D6,SLX-18811i706-i517,19 pcw,female
227,SLX-18811i707-i517,F_neutrophils_Pl3_D7,Pl3 1209 D7,femur neutrophils D7,SLX-18811i707-i517,19 pcw,female
228,SLX-18811i710-i517,F_neutrophils_Pl3_D8,Pl3 1209 D8,femur neutrophils D8,SLX-18811i710-i517,19 pcw,female
229,SLX-18811i711-i517,F_neutrophils_Pl3_D9,Pl3 1209 D9,femur neutrophils D9,SLX-18811i711-i517,19 pcw,female
230,SLX-18811i712-i517,F_neutrophils_Pl3_D10,Pl3 1209 D10,femur neutrophils D10,SLX-18811i712-i517,19 pcw,female
231,SLX-18811i714-i517,F_neutrophils_Pl3_D11,Pl3 1209 D11,femur neutrophils D11,SLX-18811i714-i517,19 pcw,female
232,SLX-18811i715-i517,F_neutrophils_Pl3_D12,Pl3 1209 D12,femur neutrophils D12,SLX-18811i715-i517,19 pcw,female
233,SLX-18811i701-i518,F_eosinophils_Pl3_E1,Pl3 1209 E1,femur eosinophils E1,SLX-18811i701-i518,19 pcw,female
234,SLX-18811i702-i518,F_eosinophils_Pl3_E2,Pl3 1209 E2,femur eosinophils E2,SLX-18811i702-i518,19 pcw,female
235,SLX-18811i703-i518,F_eosinophils_Pl3_E3,Pl3 1209 E3,femur eosinophils E3,SLX-18811i703-i518,19 pcw,female
236,SLX-18811i704-i518,F_eosinophils_Pl3_E4,Pl3 1209 E4,femur eosinophils E4,SLX-18811i704-i518,19 pcw,female
237,SLX-18811i705-i518,F_eosinophils_Pl3_E5,Pl3 1209 E5,femur eosinophils E5,SLX-18811i705-i518,19 pcw,female
238,SLX-18811i706-i518,F_eosinophils_Pl3_E6,Pl3 1209 E6,femur eosinophils E6,SLX-18811i706-i518,19 pcw,female
239,SLX-18811i707-i518,F_eosinophils_Pl3_E7,Pl3 1209 E7,femur eosinophils E7,SLX-18811i707-i518,19 pcw,female
240,SLX-18811i710-i518,F_eosinophils_Pl3_E8,Pl3 1209 E8,femur eosinophils E8,SLX-18811i710-i518,19 pcw,female
241,SLX-18811i711-i518,F_eosinophils_Pl3_E9,Pl3 1209 E9,femur eosinophils E9,SLX-18811i711-i518,19 pcw,female
242,SLX-18811i712-i518,F_eosinophils_Pl3_E10,Pl3 1209 E10,femur eosinophils E10,SLX-18811i712-i518,19 pcw,female
243,SLX-18811i714-i518,F_eosinophils_Pl3_E11,Pl3 1209 E11,femur eosinophils E11,SLX-18811i714-i518,19 pcw,female
244,SLX-18811i715-i518,F_eosinophils_Pl3_E12,Pl3 1209 E12,femur eosinophils E12,SLX-18811i715-i518,19 pcw,female
245,SLX-18811i701-i520,F_eosinophils_Pl3_F1,Pl3 1209 F1,femur eosinophils F1,SLX-18811i701-i520,19 pcw,female
246,SLX-18811i702-i520,F_eosinophils_Pl3_F2,Pl3 1209 F2,femur eosinophils F2,SLX-18811i702-i520,19 pcw,female
247,SLX-18811i703-i520,F_eosinophils_Pl3_F3,Pl3 1209 F3,femur eosinophils F3,SLX-18811i703-i520,19 pcw,female
248,SLX-18811i704-i520,F_eosinophils_Pl3_F4,Pl3 1209 F4,femur eosinophils F4,SLX-18811i704-i520,19 pcw,female
249,SLX-18811i705-i520,F_eosinophils_Pl3_F5,Pl3 1209 F5,femur eosinophils F5,SLX-18811i705-i520,19 pcw,female
250,SLX-18811i706-i520,F_eosinophils_Pl3_F6,Pl3 1209 F6,femur eosinophils F6,SLX-18811i706-i520,19 pcw,female
251,SLX-18811i707-i520,F_eosinophils_Pl3_F7,Pl3 1209 F7,femur eosinophils F7,SLX-18811i707-i520,19 pcw,female
252,SLX-18811i710-i520,F_eosinophils_Pl3_F8,Pl3 1209 F8,femur eosinophils F8,SLX-18811i710-i520,19 pcw,female
253,SLX-18811i711-i520,F_eosinophils_Pl3_F9,Pl3 1209 F9,femur eosinophils F9,SLX-18811i711-i520,19 pcw,female
254,SLX-18811i712-i520,F_eosinophils_Pl3_F10,Pl3 1209 F10,femur eosinophils F10,SLX-18811i712-i520,19 pcw,female
255,SLX-18811i714-i520,F_eosinophils_Pl3_F11,Pl3 1209 F11,femur eosinophils F11,SLX-18811i714-i520,19 pcw,female
256,SLX-18811i715-i520,F_eosinophils_Pl3_F12,Pl3 1209 F12,femur eosinophils F12,SLX-18811i715-i520,19 pcw,female
257,SLX-18811i701-i521,F_eosinophils_Pl3_G1,Pl3 1209 G1,femur eosinophils G1,SLX-18811i701-i521,19 pcw,female
258,SLX-18811i702-i521,F_eosinophils_Pl3_G2,Pl3 1209 G2,femur eosinophils G2,SLX-18811i702-i521,19 pcw,female
259,SLX-18811i703-i521,F_eosinophils_Pl3_G3,Pl3 1209 G3,femur eosinophils G3,SLX-18811i703-i521,19 pcw,female
260,SLX-18811i704-i521,F_eosinophils_Pl3_G4,Pl3 1209 G4,femur eosinophils G4,SLX-18811i704-i521,19 pcw,female
261,SLX-18811i705-i521,F_eosinophils_Pl3_G5,Pl3 1209 G5,femur eosinophils G5,SLX-18811i705-i521,19 pcw,female
262,SLX-18811i706-i521,F_eosinophils_Pl3_G6,Pl3 1209 G6,femur eosinophils G6,SLX-18811i706-i521,19 pcw,female
263,SLX-18811i707-i521,F_eosinophils_Pl3_G7,Pl3 1209 G7,femur eosinophils G7,SLX-18811i707-i521,19 pcw,female
264,SLX-18811i710-i521,F_eosinophils_Pl3_G8,Pl3 1209 G8,femur eosinophils G8,SLX-18811i710-i521,19 pcw,female
265,SLX-18811i711-i521,F_eosinophils_Pl3_G9,Pl3 1209 G9,femur eosinophils G9,SLX-18811i711-i521,19 pcw,female
266,SLX-18811i712-i521,F_eosinophils_Pl3_G10,Pl3 1209 G10,femur eosinophils G10,SLX-18811i712-i521,19 pcw,female
267,SLX-18811i714-i521,F_eosinophils_Pl3_G11,Pl3 1209 G11,femur eosinophils G11,SLX-18811i714-i521,19 pcw,female
268,SLX-18811i715-i521,F_eosinophils_Pl3_G12,Pl3 1209 G12,femur eosinophils G12,SLX-18811i715-i521,19 pcw,female
269,SLX-18811i701-i522,F_eosinophils_Pl3_H1,Pl3 1209 H1,femur eosinophils H1,SLX-18811i701-i522,19 pcw,female
270,SLX-18811i702-i522,F_eosinophils_Pl3_H2,Pl3 1209 H2,femur eosinophils H2,SLX-18811i702-i522,19 pcw,female
271,SLX-18811i703-i522,F_eosinophils_Pl3_H3,Pl3 1209 H3,femur eosinophils H3,SLX-18811i703-i522,19 pcw,female
272,SLX-18811i704-i522,F_eosinophils_Pl3_H4,Pl3 1209 H4,femur eosinophils H4,SLX-18811i704-i522,19 pcw,female
273,SLX-18811i705-i522,F_eosinophils_Pl3_H5,Pl3 1209 H5,femur eosinophils H5,SLX-18811i705-i522,19 pcw,female
274,SLX-18811i706-i522,F_eosinophils_Pl3_H6,Pl3 1209 H6,femur eosinophils H6,SLX-18811i706-i522,19 pcw,female
275,SLX-18811i707-i522,F_eosinophils_Pl3_H7,Pl3 1209 H7,femur eosinophils H7,SLX-18811i707-i522,19 pcw,female
276,SLX-18811i710-i522,F_eosinophils_Pl3_H8,Pl3 1209 H8,femur eosinophils H8,SLX-18811i710-i522,19 pcw,female
277,SLX-18811i711-i522,F_eosinophils_Pl3_H9,Pl3 1209 H9,femur eosinophils H9,SLX-18811i711-i522,19 pcw,female
278,SLX-18811i712-i522,F_eosinophils_Pl3_H10,Pl3 1209 H10,femur eosinophils H10,SLX-18811i712-i522,19 pcw,female
279,SLX-18811i716-i513,L_basophils_Pl5_A1,Pl5 0910 A1,liver basophils A1,SLX-18811i716-i513,20 pcw,female
280,SLX-18811i718-i513,L_basophils_Pl5_A2,Pl5 0910 A2,liver basophils A2,SLX-18811i718-i513,20 pcw,female
281,SLX-18811i719-i513,L_basophils_Pl5_A3,Pl5 0910 A3,liver basophils A3,SLX-18811i719-i513,20 pcw,female
282,SLX-18811i720-i513,L_basophils_Pl5_A4,Pl5 0910 A4,liver basophils A4,SLX-18811i720-i513,20 pcw,female
283,SLX-18811i721-i513,L_basophils_Pl5_A5,Pl5 0910 A5,liver basophils A5,SLX-18811i721-i513,20 pcw,female
284,SLX-18811i722-i513,L_basophils_Pl5_A6,Pl5 0910 A6,liver basophils A6,SLX-18811i722-i513,20 pcw,female
285,SLX-18811i723-i513,L_basophils_Pl5_A7,Pl5 0910 A7,liver basophils A7,SLX-18811i723-i513,20 pcw,female
286,SLX-18811i724-i513,L_basophils_Pl5_A8,Pl5 0910 A8,liver basophils A8,SLX-18811i724-i513,20 pcw,female
287,SLX-18811i726-i513,L_basophils_Pl5_A9,Pl5 0910 A9,liver basophils A9,SLX-18811i726-i513,20 pcw,female
288,SLX-18811i727-i513,L_basophils_Pl5_A10,Pl5 0910 A10,liver basophils A10,SLX-18811i727-i513,20 pcw,female
289,SLX-18811i728-i513,L_basophils_Pl5_A11,Pl5 0910 A11,liver basophils A11,SLX-18811i728-i513,20 pcw,female
290,SLX-18811i729-i513,L_basophils_Pl5_A12,Pl5 0910 A12,liver basophils A12,SLX-18811i729-i513,20 pcw,female
291,SLX-18811i716-i515,L_basophils_Pl5_B1,Pl5 0910 B1,liver basophils B1,SLX-18811i716-i515,20 pcw,female
292,SLX-18811i718-i515,L_basophils_Pl5_B2,Pl5 0910 B2,liver basophils B2,SLX-18811i718-i515,20 pcw,female
293,SLX-18811i719-i515,L_basophils_Pl5_B3,Pl5 0910 B3,liver basophils B3,SLX-18811i719-i515,20 pcw,female
294,SLX-18811i720-i515,L_basophils_Pl5_B4,Pl5 0910 B4,liver basophils B4,SLX-18811i720-i515,20 pcw,female
295,SLX-18811i721-i515,L_basophils_Pl5_B5,Pl5 0910 B5,liver basophils B5,SLX-18811i721-i515,20 pcw,female
296,SLX-18811i722-i515,L_basophils_Pl5_B6,Pl5 0910 B6,liver basophils B6,SLX-18811i722-i515,20 pcw,female
297,SLX-18811i723-i515,L_basophils_Pl5_B7,Pl5 0910 B7,liver basophils B7,SLX-18811i723-i515,20 pcw,female
298,SLX-18811i724-i515,L_basophils_Pl5_B8,Pl5 0910 B8,liver basophils B8,SLX-18811i724-i515,20 pcw,female
299,SLX-18811i726-i515,L_basophils_Pl5_B9,Pl5 0910 B9,liver basophils B9,SLX-18811i726-i515,20 pcw,female
300,SLX-18811i727-i515,L_basophils_Pl5_B10,Pl5 0910 B10,liver basophils B10,SLX-18811i727-i515,20 pcw,female
301,SLX-18811i728-i515,L_basophils_Pl5_B11,Pl5 0910 B11,liver basophils B11,SLX-18811i728-i515,20 pcw,female
302,SLX-18811i729-i515,L_basophils_Pl5_B12,Pl5 0910 B12,liver basophils B12,SLX-18811i729-i515,20 pcw,female
303,SLX-18811i716-i516,L_basophils_Pl5_C1,Pl5 0910 C1,liver basophils C1,SLX-18811i716-i516,20 pcw,female
304,SLX-18811i718-i516,L_basophils_Pl5_C2,Pl5 0910 C2,liver basophils C2,SLX-18811i718-i516,20 pcw,female
305,SLX-18811i719-i516,L_basophils_Pl5_C3,Pl5 0910 C3,liver basophils C3,SLX-18811i719-i516,20 pcw,female
306,SLX-18811i720-i516,L_basophils_Pl5_C4,Pl5 0910 C4,liver basophils C4,SLX-18811i720-i516,20 pcw,female
307,SLX-18811i721-i516,L_basophils_Pl5_C5,Pl5 0910 C5,liver basophils C5,SLX-18811i721-i516,20 pcw,female
308,SLX-18811i722-i516,L_basophils_Pl5_C6,Pl5 0910 C6,liver basophils C6,SLX-18811i722-i516,20 pcw,female
309,SLX-18811i723-i516,L_basophils_Pl5_C7,Pl5 0910 C7,liver basophils C7,SLX-18811i723-i516,20 pcw,female
310,SLX-18811i724-i516,L_basophils_Pl5_C8,Pl5 0910 C8,liver basophils C8,SLX-18811i724-i516,20 pcw,female
311,SLX-18811i726-i516,L_basophils_Pl5_C9,Pl5 0910 C9,liver basophils C9,SLX-18811i726-i516,20 pcw,female
312,SLX-18811i727-i516,L_basophils_Pl5_C10,Pl5 0910 C10,liver basophils C10,SLX-18811i727-i516,20 pcw,female
313,SLX-18811i728-i516,L_basophils_Pl5_C11,Pl5 0910 C11,liver basophils C11,SLX-18811i728-i516,20 pcw,female
314,SLX-18811i729-i516,L_basophils_Pl5_C12,Pl5 0910 C12,liver basophils C12,SLX-18811i729-i516,20 pcw,female
315,SLX-18811i716-i517,L_basophils_Pl5_D1,Pl5 0910 D1,liver basophils D1,SLX-18811i716-i517,20 pcw,female
316,SLX-18811i718-i517,L_basophils_Pl5_D2,Pl5 0910 D2,liver basophils D2,SLX-18811i718-i517,20 pcw,female
317,SLX-18811i719-i517,L_basophils_Pl5_D3,Pl5 0910 D3,liver basophils D3,SLX-18811i719-i517,20 pcw,female
318,SLX-18811i720-i517,L_basophils_Pl5_D4,Pl5 0910 D4,liver basophils D4,SLX-18811i720-i517,20 pcw,female
319,SLX-18811i721-i517,L_basophils_Pl5_D5,Pl5 0910 D5,liver basophils D5,SLX-18811i721-i517,20 pcw,female
320,SLX-18811i722-i517,L_basophils_Pl5_D6,Pl5 0910 D6,liver basophils D6,SLX-18811i722-i517,20 pcw,female
321,SLX-18811i723-i517,L_basophils_Pl5_D7,Pl5 0910 D7,liver basophils D7,SLX-18811i723-i517,20 pcw,female
322,SLX-18811i724-i517,L_basophils_Pl5_D8,Pl5 0910 D8,liver basophils D8,SLX-18811i724-i517,20 pcw,female
323,SLX-18811i726-i517,L_basophils_Pl5_D9,Pl5 0910 D9,liver basophils D9,SLX-18811i726-i517,20 pcw,female
324,SLX-18811i727-i517,L_basophils_Pl5_D10,Pl5 0910 D10,liver basophils D10,SLX-18811i727-i517,20 pcw,female
325,SLX-18811i728-i517,L_basophils_Pl5_D11,Pl5 0910 D11,liver basophils D11,SLX-18811i728-i517,20 pcw,female
326,SLX-18811i729-i517,L_basophils_Pl5_D12,Pl5 0910 D12,liver basophils D12,SLX-18811i729-i517,20 pcw,female
327,SLX-18811i716-i518,L_basophils_Pl5_E1,Pl5 0910 E1,liver basophils E1,SLX-18811i716-i518,20 pcw,female
328,SLX-18811i718-i518,L_basophils_Pl5_E2,Pl5 0910 E2,liver basophils E2,SLX-18811i718-i518,20 pcw,female
329,SLX-18811i719-i518,L_basophils_Pl5_E3,Pl5 0910 E3,liver basophils E3,SLX-18811i719-i518,20 pcw,female
330,SLX-18811i720-i518,L_basophils_Pl5_E4,Pl5 0910 E4,liver basophils E4,SLX-18811i720-i518,20 pcw,female
331,SLX-18811i721-i518,L_basophils_Pl5_E5,Pl5 0910 E5,liver basophils E5,SLX-18811i721-i518,20 pcw,female
332,SLX-18811i722-i518,L_basophils_Pl5_E6,Pl5 0910 E6,liver basophils E6,SLX-18811i722-i518,20 pcw,female
333,SLX-18811i723-i518,L_basophils_Pl5_E7,Pl5 0910 E7,liver basophils E7,SLX-18811i723-i518,20 pcw,female
334,SLX-18811i724-i518,L_basophils_Pl5_E8,Pl5 0910 E8,liver basophils E8,SLX-18811i724-i518,20 pcw,female
335,SLX-18811i726-i518,L_basophils_Pl5_E9,Pl5 0910 E9,liver basophils E9,SLX-18811i726-i518,20 pcw,female
336,SLX-18811i727-i518,L_basophils_Pl5_E10,Pl5 0910 E10,liver basophils E10,SLX-18811i727-i518,20 pcw,female
337,SLX-18811i728-i518,L_basophils_Pl5_E11,Pl5 0910 E11,liver basophils E11,SLX-18811i728-i518,20 pcw,female
338,SLX-18811i729-i518,L_basophils_Pl5_E12,Pl5 0910 E12,liver basophils E12,SLX-18811i729-i518,20 pcw,female
339,SLX-18811i716-i520,L_basophils_Pl5_F1,Pl5 0910 F1,liver basophils F1,SLX-18811i716-i520,20 pcw,female
340,SLX-18811i718-i520,L_basophils_Pl5_F2,Pl5 0910 F2,liver basophils F2,SLX-18811i718-i520,20 pcw,female
341,SLX-18811i719-i520,L_basophils_Pl5_F3,Pl5 0910 F3,liver basophils F3,SLX-18811i719-i520,20 pcw,female
342,SLX-18811i720-i520,L_basophils_Pl5_F4,Pl5 0910 F4,liver basophils F4,SLX-18811i720-i520,20 pcw,female
343,SLX-18811i721-i520,L_basophils_Pl5_F5,Pl5 0910 F5,liver basophils F5,SLX-18811i721-i520,20 pcw,female
344,SLX-18811i722-i520,L_basophils_Pl5_F6,Pl5 0910 F6,liver basophils F6,SLX-18811i722-i520,20 pcw,female
345,SLX-18811i723-i520,L_basophils_Pl5_F7,Pl5 0910 F7,liver basophils F7,SLX-18811i723-i520,20 pcw,female
346,SLX-18811i724-i520,L_basophils_Pl5_F8,Pl5 0910 F8,liver basophils F8,SLX-18811i724-i520,20 pcw,female
347,SLX-18811i726-i520,L_basophils_Pl5_F9,Pl5 0910 F9,liver basophils F9,SLX-18811i726-i520,20 pcw,female
348,SLX-18811i727-i520,L_basophils_Pl5_F10,Pl5 0910 F10,liver basophils F10,SLX-18811i727-i520,20 pcw,female
349,SLX-18811i728-i520,L_basophils_Pl5_F11,Pl5 0910 F11,liver basophils F11,SLX-18811i728-i520,20 pcw,female
350,SLX-18811i729-i520,L_basophils_Pl5_F12,Pl5 0910 F12,liver basophils F12,SLX-18811i729-i520,20 pcw,female
351,SLX-18811i716-i521,L_basophils_Pl5_G1,Pl5 0910 G1,liver basophils G1,SLX-18811i716-i521,20 pcw,female
352,SLX-18811i718-i521,L_basophils_Pl5_G2,Pl5 0910 G2,liver basophils G2,SLX-18811i718-i521,20 pcw,female
353,SLX-18811i719-i521,L_basophils_Pl5_G3,Pl5 0910 G3,liver basophils G3,SLX-18811i719-i521,20 pcw,female
354,SLX-18811i720-i521,L_basophils_Pl5_G4,Pl5 0910 G4,liver basophils G4,SLX-18811i720-i521,20 pcw,female
355,SLX-18811i721-i521,L_basophils_Pl5_G5,Pl5 0910 G5,liver basophils G5,SLX-18811i721-i521,20 pcw,female
356,SLX-18811i722-i521,L_basophils_Pl5_G6,Pl5 0910 G6,liver basophils G6,SLX-18811i722-i521,20 pcw,female
357,SLX-18811i723-i521,L_basophils_Pl5_G7,Pl5 0910 G7,liver basophils G7,SLX-18811i723-i521,20 pcw,female
358,SLX-18811i724-i521,L_basophils_Pl5_G8,Pl5 0910 G8,liver basophils G8,SLX-18811i724-i521,20 pcw,female
359,SLX-18811i726-i521,L_basophils_Pl5_G9,Pl5 0910 G9,liver basophils G9,SLX-18811i726-i521,20 pcw,female
360,SLX-18811i727-i521,L_basophils_Pl5_G10,Pl5 0910 G10,liver basophils G10,SLX-18811i727-i521,20 pcw,female
361,SLX-18811i728-i521,L_basophils_Pl5_G11,Pl5 0910 G11,liver basophils G11,SLX-18811i728-i521,20 pcw,female
362,SLX-18811i729-i521,L_basophils_Pl5_G12,Pl5 0910 G12,liver basophils G12,SLX-18811i729-i521,20 pcw,female
363,SLX-18811i716-i522,L_basophils_Pl5_H1,Pl5 0910 H1,liver basophils H1,SLX-18811i716-i522,20 pcw,female
364,SLX-18811i718-i522,L_basophils_Pl5_H2,Pl5 0910 H2,liver basophils H2,SLX-18811i718-i522,20 pcw,female
365,SLX-18811i719-i522,L_basophils_Pl5_H3,Pl5 0910 H3,liver basophils H3,SLX-18811i719-i522,20 pcw,female
366,SLX-18811i720-i522,L_basophils_Pl5_H4,Pl5 0910 H4,liver basophils H4,SLX-18811i720-i522,20 pcw,female
367,SLX-18811i721-i522,L_basophils_Pl5_H5,Pl5 0910 H5,liver basophils H5,SLX-18811i721-i522,20 pcw,female
368,SLX-18811i722-i522,L_basophils_Pl5_H6,Pl5 0910 H6,liver basophils H6,SLX-18811i722-i522,20 pcw,female
369,SLX-18811i723-i522,L_basophils_Pl5_H7,Pl5 0910 H7,liver basophils H7,SLX-18811i723-i522,20 pcw,female
370,SLX-18811i724-i522,L_basophils_Pl5_H8,Pl5 0910 H8,liver basophils H8,SLX-18811i724-i522,20 pcw,female
371,SLX-18811i726-i522,L_basophils_Pl5_H9,Pl5 0910 H9,liver basophils H9,SLX-18811i726-i522,20 pcw,female
372,SLX-18811i727-i522,L_basophils_Pl5_H10,Pl5 0910 H10,liver basophils H10,SLX-18811i727-i522,20 pcw,female
373,SLX-18812i701-i502,F_NK-cell_Pl2_A1 ,Pl2 3107 A1 ,femur NK-cell A1 ,SLX-18812i701-i502,17 pcw,male
374,SLX-18812i702-i502,F_NK-cell_Pl2_A2,Pl2 3107 A2,femur NK-cell A2,SLX-18812i702-i502,17 pcw,male
375,SLX-18812i703-i502,F_NK-cell_Pl2_A3,Pl2 3107 A3,femur NK-cell A3,SLX-18812i703-i502,17 pcw,male
376,SLX-18812i704-i502,F_NK-cell_Pl2_A4,Pl2 3107 A4,femur NK-cell A4,SLX-18812i704-i502,17 pcw,male
377,SLX-18812i705-i502,F_NK-cell_Pl2_A5,Pl2 3107 A5,femur NK-cell A5,SLX-18812i705-i502,17 pcw,male
378,SLX-18812i706-i502,F_NK-cell_Pl2_A6,Pl2 3107 A6,femur NK-cell A6,SLX-18812i706-i502,17 pcw,male
379,SLX-18812i707-i502,F_NK-cell_Pl2_A7,Pl2 3107 A7,femur NK-cell A7,SLX-18812i707-i502,17 pcw,male
380,SLX-18812i710-i502,F_NK-cell_Pl2_A8,Pl2 3107 A8,femur NK-cell A8,SLX-18812i710-i502,17 pcw,male
381,SLX-18812i711-i502,F_NK-cell_Pl2_A9,Pl2 3107 A9,femur NK-cell A9,SLX-18812i711-i502,17 pcw,male
382,SLX-18812i712-i502,F_NK-cell_Pl2_A10,Pl2 3107 A10,femur NK-cell A10,SLX-18812i712-i502,17 pcw,male
383,SLX-18812i714-i502,F_NK-cell_Pl2_A11,Pl2 3107 A11,femur NK-cell A11,SLX-18812i714-i502,17 pcw,male
384,SLX-18812i715-i502,F_NK-cell_Pl2_A12,Pl2 3107 A12,femur NK-cell A12,SLX-18812i715-i502,17 pcw,male
385,SLX-18812i701-i503,F_NK-cell_Pl2_B1,Pl2 3107 B1,femur NK-cell B1,SLX-18812i701-i503,17 pcw,male
386,SLX-18812i702-i503,F_NK-cell_Pl2_B2,Pl2 3107 B2,femur NK-cell B2,SLX-18812i702-i503,17 pcw,male
387,SLX-18812i703-i503,F_NK-cell_Pl2_B3,Pl2 3107 B3,femur NK-cell B3,SLX-18812i703-i503,17 pcw,male
388,SLX-18812i704-i503,F_NK-cell_Pl2_B4,Pl2 3107 B4,femur NK-cell B4,SLX-18812i704-i503,17 pcw,male
389,SLX-18812i705-i503,F_NK-cell_Pl2_B5,Pl2 3107 B5,femur NK-cell B5,SLX-18812i705-i503,17 pcw,male
390,SLX-18812i706-i503,F_NK-cell_Pl2_B6,Pl2 3107 B6,femur NK-cell B6,SLX-18812i706-i503,17 pcw,male
391,SLX-18812i707-i503,F_NK-cell_Pl2_B7,Pl2 3107 B7,femur NK-cell B7,SLX-18812i707-i503,17 pcw,male
392,SLX-18812i710-i503,F_NK-cell_Pl2_B8,Pl2 3107 B8,femur NK-cell B8,SLX-18812i710-i503,17 pcw,male
393,SLX-18812i711-i503,F_NK-cell_Pl2_B9,Pl2 3107 B9,femur NK-cell B9,SLX-18812i711-i503,17 pcw,male
394,SLX-18812i712-i503,F_NK-cell_Pl2_B10,Pl2 3107 B10,femur NK-cell B10,SLX-18812i712-i503,17 pcw,male
395,SLX-18812i714-i503,F_NK-cell_Pl2_B11,Pl2 3107 B11,femur NK-cell B11,SLX-18812i714-i503,17 pcw,male
396,SLX-18812i715-i503,F_NK-cell_Pl2_B12,Pl2 3107 B12,femur NK-cell B12,SLX-18812i715-i503,17 pcw,male
397,SLX-18812i701-i505,F_NK-cell_Pl2_C1,Pl2 3107 C1,femur NK-cell C1,SLX-18812i701-i505,17 pcw,male
398,SLX-18812i702-i505,F_NK-cell_Pl2_C2,Pl2 3107 C2,femur NK-cell C2,SLX-18812i702-i505,17 pcw,male
399,SLX-18812i703-i505,F_NK-cell_Pl2_C3,Pl2 3107 C3,femur NK-cell C3,SLX-18812i703-i505,17 pcw,male
400,SLX-18812i704-i505,F_NK-cell_Pl2_C4,Pl2 3107 C4,femur NK-cell C4,SLX-18812i704-i505,17 pcw,male
401,SLX-18812i705-i505,F_NK-cell_Pl2_C5,Pl2 3107 C5,femur NK-cell C5,SLX-18812i705-i505,17 pcw,male
402,SLX-18812i706-i505,F_NK-cell_Pl2_C6,Pl2 3107 C6,femur NK-cell C6,SLX-18812i706-i505,17 pcw,male
403,SLX-18812i707-i505,F_NK-cell_Pl2_C7,Pl2 3107 C7,femur NK-cell C7,SLX-18812i707-i505,17 pcw,male
404,SLX-18812i710-i505,F_NK-cell_Pl2_C8,Pl2 3107 C8,femur NK-cell C8,SLX-18812i710-i505,17 pcw,male
405,SLX-18812i711-i505,F_NK-cell_Pl2_C9,Pl2 3107 C9,femur NK-cell C9,SLX-18812i711-i505,17 pcw,male
406,SLX-18812i712-i505,F_NK-cell_Pl2_C10,Pl2 3107 C10,femur NK-cell C10,SLX-18812i712-i505,17 pcw,male
407,SLX-18812i714-i505,F_NK-cell_Pl2_C11,Pl2 3107 C11,femur NK-cell C11,SLX-18812i714-i505,17 pcw,male
408,SLX-18812i715-i505,F_NK-cell_Pl2_C12,Pl2 3107 C12,femur NK-cell C12,SLX-18812i715-i505,17 pcw,male
409,SLX-18812i701-i506,F_NK-cell_Pl2_D1,Pl2 3107 D1,femur NK-cell D1,SLX-18812i701-i506,17 pcw,male
410,SLX-18812i702-i506,F_NK-cell_Pl2_D2,Pl2 3107 D2,femur NK-cell D2,SLX-18812i702-i506,17 pcw,male
411,SLX-18812i703-i506,F_NK-cell_Pl2_D3,Pl2 3107 D3,femur NK-cell D3,SLX-18812i703-i506,17 pcw,male
412,SLX-18812i704-i506,F_NK-cell_Pl2_D4,Pl2 3107 D4,femur NK-cell D4,SLX-18812i704-i506,17 pcw,male
413,SLX-18812i705-i506,F_NK-cell_Pl2_D5,Pl2 3107 D5,femur NK-cell D5,SLX-18812i705-i506,17 pcw,male
414,SLX-18812i706-i506,F_NK-cell_Pl2_D6,Pl2 3107 D6,femur NK-cell D6,SLX-18812i706-i506,17 pcw,male
415,SLX-18812i707-i506,F_NK-cell_Pl2_D7,Pl2 3107 D7,femur NK-cell D7,SLX-18812i707-i506,17 pcw,male
416,SLX-18812i710-i506,F_NK-cell_Pl2_D8,Pl2 3107 D8,femur NK-cell D8,SLX-18812i710-i506,17 pcw,male
417,SLX-18812i711-i506,F_NK-cell_Pl2_D9,Pl2 3107 D9,femur NK-cell D9,SLX-18812i711-i506,17 pcw,male
418,SLX-18812i712-i506,F_NK-cell_Pl2_D10,Pl2 3107 D10,femur NK-cell D10,SLX-18812i712-i506,17 pcw,male
419,SLX-18812i714-i506,F_NK-cell_Pl2_D11,Pl2 3107 D11,femur NK-cell D11,SLX-18812i714-i506,17 pcw,male
420,SLX-18812i715-i506,F_NK-cell_Pl2_D12,Pl2 3107 D12,femur NK-cell D12,SLX-18812i715-i506,17 pcw,male
421,SLX-18812i701-i507,F_NK-cell_Pl2_E1,Pl2 3107 E1,femur NK-cell E1,SLX-18812i701-i507,17 pcw,male
422,SLX-18812i702-i507,F_NK-cell_Pl2_E2,Pl2 3107 E2,femur NK-cell E2,SLX-18812i702-i507,17 pcw,male
423,SLX-18812i703-i507,F_NK-cell_Pl2_E3,Pl2 3107 E3,femur NK-cell E3,SLX-18812i703-i507,17 pcw,male
424,SLX-18812i704-i507,F_NK-cell_Pl2_E4,Pl2 3107 E4,femur NK-cell E4,SLX-18812i704-i507,17 pcw,male
425,SLX-18812i705-i507,F_NK-cell_Pl2_E5,Pl2 3107 E5,femur NK-cell E5,SLX-18812i705-i507,17 pcw,male
426,SLX-18812i706-i507,F_NK-cell_Pl2_E6,Pl2 3107 E6,femur NK-cell E6,SLX-18812i706-i507,17 pcw,male
427,SLX-18812i707-i507,F_NK-cell_Pl2_E7,Pl2 3107 E7,femur NK-cell E7,SLX-18812i707-i507,17 pcw,male
428,SLX-18812i710-i507,F_NK-cell_Pl2_E8,Pl2 3107 E8,femur NK-cell E8,SLX-18812i710-i507,17 pcw,male
429,SLX-18812i711-i507,F_NK-cell_Pl2_E9,Pl2 3107 E9,femur NK-cell E9,SLX-18812i711-i507,17 pcw,male
430,SLX-18812i712-i507,F_NK-cell_Pl2_E10,Pl2 3107 E10,femur NK-cell E10,SLX-18812i712-i507,17 pcw,male
431,SLX-18812i714-i507,F_NK-cell_Pl2_E11,Pl2 3107 E11,femur NK-cell E11,SLX-18812i714-i507,17 pcw,male
432,SLX-18812i715-i507,F_NK-cell_Pl2_E12,Pl2 3107 E12,femur NK-cell E12,SLX-18812i715-i507,17 pcw,male
433,SLX-18812i701-i508,F_NK-cell_Pl2_F1,Pl2 3107 F1,femur NK-cell F1,SLX-18812i701-i508,17 pcw,male
434,SLX-18812i702-i508,F_NK-cell_Pl2_F2,Pl2 3107 F2,femur NK-cell F2,SLX-18812i702-i508,17 pcw,male
435,SLX-18812i703-i508,F_NK-cell_Pl2_F3,Pl2 3107 F3,femur NK-cell F3,SLX-18812i703-i508,17 pcw,male
436,SLX-18812i704-i508,F_NK-cell_Pl2_F4,Pl2 3107 F4,femur NK-cell F4,SLX-18812i704-i508,17 pcw,male
437,SLX-18812i705-i508,F_NK-cell_Pl2_F5,Pl2 3107 F5,femur NK-cell F5,SLX-18812i705-i508,17 pcw,male
438,SLX-18812i706-i508,F_NK-cell_Pl2_F6,Pl2 3107 F6,femur NK-cell F6,SLX-18812i706-i508,17 pcw,male
439,SLX-18812i707-i508,F_NK-cell_Pl2_F7,Pl2 3107 F7,femur NK-cell F7,SLX-18812i707-i508,17 pcw,male
440,SLX-18812i710-i508,F_NK-cell_Pl2_F8,Pl2 3107 F8,femur NK-cell F8,SLX-18812i710-i508,17 pcw,male
441,SLX-18812i711-i508,F_NK-cell_Pl2_F9,Pl2 3107 F9,femur NK-cell F9,SLX-18812i711-i508,17 pcw,male
442,SLX-18812i712-i508,F_NK-cell_Pl2_F10,Pl2 3107 F10,femur NK-cell F10,SLX-18812i712-i508,17 pcw,male
443,SLX-18812i714-i508,F_NK-cell_Pl2_F11,Pl2 3107 F11,femur NK-cell F11,SLX-18812i714-i508,17 pcw,male
444,SLX-18812i715-i508,F_NK-cell_Pl2_F12,Pl2 3107 F12,femur NK-cell F12,SLX-18812i715-i508,17 pcw,male
445,SLX-18812i701-i510,F_NK-cell_Pl2_G1,Pl2 3107 G1,femur NK-cell G1,SLX-18812i701-i510,17 pcw,male
446,SLX-18812i702-i510,F_NK-cell_Pl2_G2,Pl2 3107 G2,femur NK-cell G2,SLX-18812i702-i510,17 pcw,male
447,SLX-18812i703-i510,F_NK-cell_Pl2_G3,Pl2 3107 G3,femur NK-cell G3,SLX-18812i703-i510,17 pcw,male
448,SLX-18812i704-i510,F_NK-cell_Pl2_G4,Pl2 3107 G4,femur NK-cell G4,SLX-18812i704-i510,17 pcw,male
449,SLX-18812i705-i510,F_NK-cell_Pl2_G5,Pl2 3107 G5,femur NK-cell G5,SLX-18812i705-i510,17 pcw,male
450,SLX-18812i706-i510,F_NK-cell_Pl2_G6,Pl2 3107 G6,femur NK-cell G6,SLX-18812i706-i510,17 pcw,male
451,SLX-18812i707-i510,F_NK-cell_Pl2_G7,Pl2 3107 G7,femur NK-cell G7,SLX-18812i707-i510,17 pcw,male
452,SLX-18812i710-i510,F_NK-cell_Pl2_G8,Pl2 3107 G8,femur NK-cell G8,SLX-18812i710-i510,17 pcw,male
453,SLX-18812i711-i510,F_NK-cell_Pl2_G9,Pl2 3107 G9,femur NK-cell G9,SLX-18812i711-i510,17 pcw,male
454,SLX-18812i712-i510,F_NK-cell_Pl2_G10,Pl2 3107 G10,femur NK-cell G10,SLX-18812i712-i510,17 pcw,male
455,SLX-18812i714-i510,F_NK-cell_Pl2_G11,Pl2 3107 G11,femur NK-cell G11,SLX-18812i714-i510,17 pcw,male
456,SLX-18812i715-i510,F_NK-cell_Pl2_G12,Pl2 3107 G12,femur NK-cell G12,SLX-18812i715-i510,17 pcw,male
457,SLX-18812i701-i511,F_NK-cell_Pl2_H1,Pl2 3107 H1,femur NK-cell H1,SLX-18812i701-i511,17 pcw,male
458,SLX-18812i702-i511,F_NK-cell_Pl2_H2,Pl2 3107 H2,femur NK-cell H2,SLX-18812i702-i511,17 pcw,male
459,SLX-18812i703-i511,F_NK-cell_Pl2_H3,Pl2 3107 H3,femur NK-cell H3,SLX-18812i703-i511,17 pcw,male
460,SLX-18812i704-i511,F_NK-cell_Pl2_H4,Pl2 3107 H4,femur NK-cell H4,SLX-18812i704-i511,17 pcw,male
461,SLX-18812i705-i511,F_NK-cell_Pl2_H5,Pl2 3107 H5,femur NK-cell H5,SLX-18812i705-i511,17 pcw,male
462,SLX-18812i706-i511,F_NK-cell_Pl2_H6,Pl2 3107 H6,femur NK-cell H6,SLX-18812i706-i511,17 pcw,male
463,SLX-18812i707-i511,F_NK-cell_Pl2_H7,Pl2 3107 H7,femur NK-cell H7,SLX-18812i707-i511,17 pcw,male
464,SLX-18812i710-i511,F_NK-cell_Pl2_H8,Pl2 3107 H8,femur NK-cell H8,SLX-18812i710-i511,17 pcw,male
465,SLX-18812i716-i502,F_ILCs_Pl6_A1,Pl6 3107 A1,femur ILCs A1,SLX-18812i716-i502,17 pcw,male
466,SLX-18812i718-i502,F_ILCs_Pl6_A2,Pl6 3107 A2,femur ILCs A2,SLX-18812i718-i502,17 pcw,male
467,SLX-18812i719-i502,F_ILCs_Pl6_A3,Pl6 3107 A3,femur ILCs A3,SLX-18812i719-i502,17 pcw,male
468,SLX-18812i720-i502,F_ILCs_Pl6_A4,Pl6 3107 A4,femur ILCs A4,SLX-18812i720-i502,17 pcw,male
469,SLX-18812i721-i502,F_ILCs_Pl6_A5,Pl6 3107 A5,femur ILCs A5,SLX-18812i721-i502,17 pcw,male
470,SLX-18812i722-i502,F_ILCs_Pl6_A6,Pl6 3107 A6,femur ILCs A6,SLX-18812i722-i502,17 pcw,male
471,SLX-18812i723-i502,F_ILCs_Pl6_A7,Pl6 3107 A7,femur ILCs A7,SLX-18812i723-i502,17 pcw,male
472,SLX-18812i724-i502,F_ILCs_Pl6_A8,Pl6 3107 A8,femur ILCs A8,SLX-18812i724-i502,17 pcw,male
473,SLX-18812i726-i502,F_ILCs_Pl6_A9,Pl6 3107 A9,femur ILCs A9,SLX-18812i726-i502,17 pcw,male
474,SLX-18812i727-i502,F_ILCs_Pl6_A10,Pl6 3107 A10,femur ILCs A10,SLX-18812i727-i502,17 pcw,male
475,SLX-18812i728-i502,F_ILCs_Pl6_A11,Pl6 3107 A11,femur ILCs A11,SLX-18812i728-i502,17 pcw,male
476,SLX-18812i729-i502,F_ILCs_Pl6_A12,Pl6 3107 A12,femur ILCs A12,SLX-18812i729-i502,17 pcw,male
477,SLX-18812i716-i503,F_ILCs_Pl6_B1,Pl6 3107 B1,femur ILCs B1,SLX-18812i716-i503,17 pcw,male
478,SLX-18812i718-i503,F_ILCs_Pl6_B2,Pl6 3107 B2,femur ILCs B2,SLX-18812i718-i503,17 pcw,male
479,SLX-18812i719-i503,F_ILCs_Pl6_B3,Pl6 3107 B3,femur ILCs B3,SLX-18812i719-i503,17 pcw,male
480,SLX-18812i720-i503,F_ILCs_Pl6_B4,Pl6 3107 B4,femur ILCs B4,SLX-18812i720-i503,17 pcw,male
481,SLX-18812i721-i503,F_ILCs_Pl6_B5,Pl6 3107 B5,femur ILCs B5,SLX-18812i721-i503,17 pcw,male
482,SLX-18812i722-i503,F_ILCs_Pl6_B6,Pl6 3107 B6,femur ILCs B6,SLX-18812i722-i503,17 pcw,male
483,SLX-18812i723-i503,F_ILCs_Pl6_B7,Pl6 3107 B7,femur ILCs B7,SLX-18812i723-i503,17 pcw,male
484,SLX-18812i724-i503,F_ILCs_Pl6_B8,Pl6 3107 B8,femur ILCs B8,SLX-18812i724-i503,17 pcw,male
485,SLX-18812i726-i503,F_ILCs_Pl6_B9,Pl6 3107 B9,femur ILCs B9,SLX-18812i726-i503,17 pcw,male
486,SLX-18812i727-i503,F_ILCs_Pl6_B10,Pl6 3107 B10,femur ILCs B10,SLX-18812i727-i503,17 pcw,male
487,SLX-18812i728-i503,F_ILCs_Pl6_B11,Pl6 3107 B11,femur ILCs B11,SLX-18812i728-i503,17 pcw,male
488,SLX-18812i729-i503,F_ILCs_Pl6_B12,Pl6 3107 B12,femur ILCs B12,SLX-18812i729-i503,17 pcw,male
489,SLX-18812i716-i505,F_ILCs_Pl6_C1,Pl6 3107 C1,femur ILCs C1,SLX-18812i716-i505,17 pcw,male
490,SLX-18812i718-i505,F_ILCs_Pl6_C2,Pl6 3107 C2,femur ILCs C2,SLX-18812i718-i505,17 pcw,male
491,SLX-18812i719-i505,F_ILCs_Pl6_C3,Pl6 3107 C3,femur ILCs C3,SLX-18812i719-i505,17 pcw,male
492,SLX-18812i720-i505,F_ILCs_Pl6_C4,Pl6 3107 C4,femur ILCs C4,SLX-18812i720-i505,17 pcw,male
493,SLX-18812i721-i505,F_ILCs_Pl6_C5,Pl6 3107 C5,femur ILCs C5,SLX-18812i721-i505,17 pcw,male
494,SLX-18812i722-i505,F_ILCs_Pl6_C6,Pl6 3107 C6,femur ILCs C6,SLX-18812i722-i505,17 pcw,male
495,SLX-18812i723-i505,F_ILCs_Pl6_C7,Pl6 3107 C7,femur ILCs C7,SLX-18812i723-i505,17 pcw,male
496,SLX-18812i724-i505,F_ILCs_Pl6_C8,Pl6 3107 C8,femur ILCs C8,SLX-18812i724-i505,17 pcw,male
497,SLX-18812i726-i505,F_ILCs_Pl6_C9,Pl6 3107 C9,femur ILCs C9,SLX-18812i726-i505,17 pcw,male
498,SLX-18812i727-i505,F_ILCs_Pl6_C10,Pl6 3107 C10,femur ILCs C10,SLX-18812i727-i505,17 pcw,male
499,SLX-18812i728-i505,F_ILCs_Pl6_C11,Pl6 3107 C11,femur ILCs C11,SLX-18812i728-i505,17 pcw,male
500,SLX-18812i729-i505,F_ILCs_Pl6_C12,Pl6 3107 C12,femur ILCs C12,SLX-18812i729-i505,17 pcw,male
501,SLX-18812i716-i506,F_ILCs_Pl6_D1,Pl6 3107 D1,femur ILCs D1,SLX-18812i716-i506,17 pcw,male
502,SLX-18812i718-i506,F_ILCs_Pl6_D2,Pl6 3107 D2,femur ILCs D2,SLX-18812i718-i506,17 pcw,male
503,SLX-18812i719-i506,F_ILCs_Pl6_D3,Pl6 3107 D3,femur ILCs D3,SLX-18812i719-i506,17 pcw,male
504,SLX-18812i720-i506,F_ILCs_Pl6_D4,Pl6 3107 D4,femur ILCs D4,SLX-18812i720-i506,17 pcw,male
505,SLX-18812i721-i506,F_ILCs_Pl6_D5,Pl6 3107 D5,femur ILCs D5,SLX-18812i721-i506,17 pcw,male
506,SLX-18812i722-i506,F_ILCs_Pl6_D6,Pl6 3107 D6,femur ILCs D6,SLX-18812i722-i506,17 pcw,male
507,SLX-18812i723-i506,F_ILCs_Pl6_D7,Pl6 3107 D7,femur ILCs D7,SLX-18812i723-i506,17 pcw,male
508,SLX-18812i724-i506,F_ILCs_Pl6_D8,Pl6 3107 D8,femur ILCs D8,SLX-18812i724-i506,17 pcw,male
509,SLX-18812i726-i506,F_ILCs_Pl6_D9,Pl6 3107 D9,femur ILCs D9,SLX-18812i726-i506,17 pcw,male
510,SLX-18812i727-i506,F_ILCs_Pl6_D10,Pl6 3107 D10,femur ILCs D10,SLX-18812i727-i506,17 pcw,male
511,SLX-18812i728-i506,F_ILCs_Pl6_D11,Pl6 3107 D11,femur ILCs D11,SLX-18812i728-i506,17 pcw,male
512,SLX-18812i729-i506,F_ILCs_Pl6_D12,Pl6 3107 D12,femur ILCs D12,SLX-18812i729-i506,17 pcw,male
513,SLX-18812i716-i507,F_ILCs_Pl6_E1,Pl6 3107 E1,femur ILCs E1,SLX-18812i716-i507,17 pcw,male
514,SLX-18812i718-i507,F_ILCs_Pl6_E2,Pl6 3107 E2,femur ILCs E2,SLX-18812i718-i507,17 pcw,male
515,SLX-18812i719-i507,F_ILCs_Pl6_E3,Pl6 3107 E3,femur ILCs E3,SLX-18812i719-i507,17 pcw,male
516,SLX-18812i720-i507,F_ILCs_Pl6_E4,Pl6 3107 E4,femur ILCs E4,SLX-18812i720-i507,17 pcw,male
517,SLX-18812i721-i507,F_ILCs_Pl6_E5,Pl6 3107 E5,femur ILCs E5,SLX-18812i721-i507,17 pcw,male
518,SLX-18812i722-i507,F_ILCs_Pl6_E6,Pl6 3107 E6,femur ILCs E6,SLX-18812i722-i507,17 pcw,male
519,SLX-18812i723-i507,F_ILCs_Pl6_E7,Pl6 3107 E7,femur ILCs E7,SLX-18812i723-i507,17 pcw,male
520,SLX-18812i724-i507,F_ILCs_Pl6_E8,Pl6 3107 E8,femur ILCs E8,SLX-18812i724-i507,17 pcw,male
521,SLX-18812i726-i507,F_ILCs_Pl6_E9,Pl6 3107 E9,femur ILCs E9,SLX-18812i726-i507,17 pcw,male
522,SLX-18812i727-i507,F_ILCs_Pl6_E10,Pl6 3107 E10,femur ILCs E10,SLX-18812i727-i507,17 pcw,male
523,SLX-18812i728-i507,F_ILCs_Pl6_E11,Pl6 3107 E11,femur ILCs E11,SLX-18812i728-i507,17 pcw,male
524,SLX-18812i729-i507,F_ILCs_Pl6_E12,Pl6 3107 E12,femur ILCs E12,SLX-18812i729-i507,17 pcw,male
525,SLX-18812i716-i508,F_ILCs_Pl6_F1,Pl6 3107 F1,femur ILCs F1,SLX-18812i716-i508,17 pcw,male
526,SLX-18812i718-i508,F_ILCs_Pl6_F2,Pl6 3107 F2,femur ILCs F2,SLX-18812i718-i508,17 pcw,male
527,SLX-18812i719-i508,F_ILCs_Pl6_F3,Pl6 3107 F3,femur ILCs F3,SLX-18812i719-i508,17 pcw,male
528,SLX-18812i720-i508,F_ILCs_Pl6_F4,Pl6 3107 F4,femur ILCs F4,SLX-18812i720-i508,17 pcw,male
529,SLX-18812i721-i508,F_ILCs_Pl6_F5,Pl6 3107 F5,femur ILCs F5,SLX-18812i721-i508,17 pcw,male
530,SLX-18812i722-i508,F_ILCs_Pl6_F6,Pl6 3107 F6,femur ILCs F6,SLX-18812i722-i508,17 pcw,male
531,SLX-18812i723-i508,F_ILCs_Pl6_F7,Pl6 3107 F7,femur ILCs F7,SLX-18812i723-i508,17 pcw,male
532,SLX-18812i724-i508,F_ILCs_Pl6_F8,Pl6 3107 F8,femur ILCs F8,SLX-18812i724-i508,17 pcw,male
533,SLX-18812i726-i508,F_ILCs_Pl6_F9,Pl6 3107 F9,femur ILCs F9,SLX-18812i726-i508,17 pcw,male
534,SLX-18812i727-i508,F_ILCs_Pl6_F10,Pl6 3107 F10,femur ILCs F10,SLX-18812i727-i508,17 pcw,male
535,SLX-18812i728-i508,F_ILCs_Pl6_F11,Pl6 3107 F11,femur ILCs F11,SLX-18812i728-i508,17 pcw,male
536,SLX-18812i729-i508,F_ILCs_Pl6_F12,Pl6 3107 F12,femur ILCs F12,SLX-18812i729-i508,17 pcw,male
537,SLX-18812i716-i510,F_ILCs_Pl6_G1,Pl6 3107 G1,femur ILCs G1,SLX-18812i716-i510,17 pcw,male
538,SLX-18812i718-i510,F_ILCs_Pl6_G2,Pl6 3107 G2,femur ILCs G2,SLX-18812i718-i510,17 pcw,male
539,SLX-18812i719-i510,F_ILCs_Pl6_G3,Pl6 3107 G3,femur ILCs G3,SLX-18812i719-i510,17 pcw,male
540,SLX-18812i720-i510,F_ILCs_Pl6_G4,Pl6 3107 G4,femur ILCs G4,SLX-18812i720-i510,17 pcw,male
541,SLX-18812i721-i510,F_ILCs_Pl6_G5,Pl6 3107 G5,femur ILCs G5,SLX-18812i721-i510,17 pcw,male
542,SLX-18812i722-i510,F_ILCs_Pl6_G6,Pl6 3107 G6,femur ILCs G6,SLX-18812i722-i510,17 pcw,male
543,SLX-18812i723-i510,F_ILCs_Pl6_G7,Pl6 3107 G7,femur ILCs G7,SLX-18812i723-i510,17 pcw,male
544,SLX-18812i724-i510,F_ILCs_Pl6_G8,Pl6 3107 G8,femur ILCs G8,SLX-18812i724-i510,17 pcw,male
545,SLX-18812i726-i510,F_ILCs_Pl6_G9,Pl6 3107 G9,femur ILCs G9,SLX-18812i726-i510,17 pcw,male
546,SLX-18812i727-i510,F_ILCs_Pl6_G10,Pl6 3107 G10,femur ILCs G10,SLX-18812i727-i510,17 pcw,male
547,SLX-18812i728-i510,F_ILCs_Pl6_G11,Pl6 3107 G11,femur ILCs G11,SLX-18812i728-i510,17 pcw,male
548,SLX-18812i729-i510,F_ILCs_Pl6_G12,Pl6 3107 G12,femur ILCs G12,SLX-18812i729-i510,17 pcw,male
549,SLX-18812i716-i511,F_ILCs_Pl6_H1,Pl6 3107 H1,femur ILCs H1,SLX-18812i716-i511,17 pcw,male
550,SLX-18812i718-i511,F_ILCs_Pl6_H2,Pl6 3107 H2,femur ILCs H2,SLX-18812i718-i511,17 pcw,male
551,SLX-18812i719-i511,F_ILCs_Pl6_H3,Pl6 3107 H3,femur ILCs H3,SLX-18812i719-i511,17 pcw,male
552,SLX-18812i720-i511,F_ILCs_Pl6_H4,Pl6 3107 H4,femur ILCs H4,SLX-18812i720-i511,17 pcw,male
553,SLX-18812i721-i511,F_ILCs_Pl6_H5,Pl6 3107 H5,femur ILCs H5,SLX-18812i721-i511,17 pcw,male
554,SLX-18812i722-i511,F_ILCs_Pl6_H6,Pl6 3107 H6,femur ILCs H6,SLX-18812i722-i511,17 pcw,male
555,SLX-18812i723-i511,F_ILCs_Pl6_H7,Pl6 3107 H7,femur ILCs H7,SLX-18812i723-i511,17 pcw,male
556,SLX-18812i724-i511,F_ILCs_Pl6_H8,Pl6 3107 H8,femur ILCs H8,SLX-18812i724-i511,17 pcw,male
557,SLX-18812i701-i513,L_neutrophils_Pl5_A1,Pl5 1209 A1,liver neutrophils A1,SLX-18812i701-i513,19 pcw,female
558,SLX-18812i702-i513,L_neutrophils_Pl5_A2,Pl5 1209 A2,liver neutrophils A2,SLX-18812i702-i513,19 pcw,female
559,SLX-18812i703-i513,L_neutrophils_Pl5_A3,Pl5 1209 A3,liver neutrophils A3,SLX-18812i703-i513,19 pcw,female
560,SLX-18812i704-i513,L_neutrophils_Pl5_A4,Pl5 1209 A4,liver neutrophils A4,SLX-18812i704-i513,19 pcw,female
561,SLX-18812i705-i513,L_neutrophils_Pl5_A5,Pl5 1209 A5,liver neutrophils A5,SLX-18812i705-i513,19 pcw,female
562,SLX-18812i706-i513,L_neutrophils_Pl5_A6,Pl5 1209 A6,liver neutrophils A6,SLX-18812i706-i513,19 pcw,female
563,SLX-18812i707-i513,L_neutrophils_Pl5_A7,Pl5 1209 A7,liver neutrophils A7,SLX-18812i707-i513,19 pcw,female
564,SLX-18812i710-i513,L_neutrophils_Pl5_A8,Pl5 1209 A8,liver neutrophils A8,SLX-18812i710-i513,19 pcw,female
565,SLX-18812i711-i513,L_neutrophils_Pl5_A9,Pl5 1209 A9,liver neutrophils A9,SLX-18812i711-i513,19 pcw,female
566,SLX-18812i712-i513,L_neutrophils_Pl5_A10,Pl5 1209 A10,liver neutrophils A10,SLX-18812i712-i513,19 pcw,female
567,SLX-18812i714-i513,L_neutrophils_Pl5_A11,Pl5 1209 A11,liver neutrophils A11,SLX-18812i714-i513,19 pcw,female
568,SLX-18812i715-i513,L_neutrophils_Pl5_A12,Pl5 1209 A12,liver neutrophils A12,SLX-18812i715-i513,19 pcw,female
569,SLX-18812i701-i515,L_neutrophils_Pl5_B1,Pl5 1209 B1,liver neutrophils B1,SLX-18812i701-i515,19 pcw,female
570,SLX-18812i702-i515,L_neutrophils_Pl5_B2,Pl5 1209 B2,liver neutrophils B2,SLX-18812i702-i515,19 pcw,female
571,SLX-18812i703-i515,L_neutrophils_Pl5_B3,Pl5 1209 B3,liver neutrophils B3,SLX-18812i703-i515,19 pcw,female
572,SLX-18812i704-i515,L_neutrophils_Pl5_B4,Pl5 1209 B4,liver neutrophils B4,SLX-18812i704-i515,19 pcw,female
573,SLX-18812i705-i515,L_neutrophils_Pl5_B5,Pl5 1209 B5,liver neutrophils B5,SLX-18812i705-i515,19 pcw,female
574,SLX-18812i706-i515,L_neutrophils_Pl5_B6,Pl5 1209 B6,liver neutrophils B6,SLX-18812i706-i515,19 pcw,female
575,SLX-18812i707-i515,L_neutrophils_Pl5_B7,Pl5 1209 B7,liver neutrophils B7,SLX-18812i707-i515,19 pcw,female
576,SLX-18812i710-i515,L_neutrophils_Pl5_B8,Pl5 1209 B8,liver neutrophils B8,SLX-18812i710-i515,19 pcw,female
577,SLX-18812i711-i515,L_neutrophils_Pl5_B9,Pl5 1209 B9,liver neutrophils B9,SLX-18812i711-i515,19 pcw,female
578,SLX-18812i712-i515,L_neutrophils_Pl5_B10,Pl5 1209 B10,liver neutrophils B10,SLX-18812i712-i515,19 pcw,female
579,SLX-18812i714-i515,L_neutrophils_Pl5_B11,Pl5 1209 B11,liver neutrophils B11,SLX-18812i714-i515,19 pcw,female
580,SLX-18812i715-i515,L_neutrophils_Pl5_B12,Pl5 1209 B12,liver neutrophils B12,SLX-18812i715-i515,19 pcw,female
581,SLX-18812i701-i516,L_neutrophils_Pl5_C1,Pl5 1209 C1,liver neutrophils C1,SLX-18812i701-i516,19 pcw,female
582,SLX-18812i702-i516,L_neutrophils_Pl5_C2,Pl5 1209 C2,liver neutrophils C2,SLX-18812i702-i516,19 pcw,female
583,SLX-18812i703-i516,L_neutrophils_Pl5_C3,Pl5 1209 C3,liver neutrophils C3,SLX-18812i703-i516,19 pcw,female
584,SLX-18812i704-i516,L_neutrophils_Pl5_C4,Pl5 1209 C4,liver neutrophils C4,SLX-18812i704-i516,19 pcw,female
585,SLX-18812i705-i516,L_neutrophils_Pl5_C5,Pl5 1209 C5,liver neutrophils C5,SLX-18812i705-i516,19 pcw,female
586,SLX-18812i706-i516,L_neutrophils_Pl5_C6,Pl5 1209 C6,liver neutrophils C6,SLX-18812i706-i516,19 pcw,female
587,SLX-18812i707-i516,L_neutrophils_Pl5_C7,Pl5 1209 C7,liver neutrophils C7,SLX-18812i707-i516,19 pcw,female
588,SLX-18812i710-i516,L_neutrophils_Pl5_C8,Pl5 1209 C8,liver neutrophils C8,SLX-18812i710-i516,19 pcw,female
589,SLX-18812i711-i516,L_neutrophils_Pl5_C9,Pl5 1209 C9,liver neutrophils C9,SLX-18812i711-i516,19 pcw,female
590,SLX-18812i712-i516,L_neutrophils_Pl5_C10,Pl5 1209 C10,liver neutrophils C10,SLX-18812i712-i516,19 pcw,female
591,SLX-18812i714-i516,L_neutrophils_Pl5_C11,Pl5 1209 C11,liver neutrophils C11,SLX-18812i714-i516,19 pcw,female
592,SLX-18812i715-i516,L_neutrophils_Pl5_C12,Pl5 1209 C12,liver neutrophils C12,SLX-18812i715-i516,19 pcw,female
593,SLX-18812i701-i517,L_neutrophils_Pl5_D1,Pl5 1209 D1,liver neutrophils D1,SLX-18812i701-i517,19 pcw,female
594,SLX-18812i702-i517,L_neutrophils_Pl5_D2,Pl5 1209 D2,liver neutrophils D2,SLX-18812i702-i517,19 pcw,female
595,SLX-18812i703-i517,L_neutrophils_Pl5_D3,Pl5 1209 D3,liver neutrophils D3,SLX-18812i703-i517,19 pcw,female
596,SLX-18812i704-i517,L_neutrophils_Pl5_D4,Pl5 1209 D4,liver neutrophils D4,SLX-18812i704-i517,19 pcw,female
597,SLX-18812i705-i517,L_neutrophils_Pl5_D5,Pl5 1209 D5,liver neutrophils D5,SLX-18812i705-i517,19 pcw,female
598,SLX-18812i706-i517,L_neutrophils_Pl5_D6,Pl5 1209 D6,liver neutrophils D6,SLX-18812i706-i517,19 pcw,female
599,SLX-18812i707-i517,L_neutrophils_Pl5_D7,Pl5 1209 D7,liver neutrophils D7,SLX-18812i707-i517,19 pcw,female
600,SLX-18812i710-i517,L_neutrophils_Pl5_D8,Pl5 1209 D8,liver neutrophils D8,SLX-18812i710-i517,19 pcw,female
601,SLX-18812i711-i517,L_neutrophils_Pl5_D9,Pl5 1209 D9,liver neutrophils D9,SLX-18812i711-i517,19 pcw,female
602,SLX-18812i712-i517,L_neutrophils_Pl5_D10,Pl5 1209 D10,liver neutrophils D10,SLX-18812i712-i517,19 pcw,female
603,SLX-18812i714-i517,L_neutrophils_Pl5_D11,Pl5 1209 D11,liver neutrophils D11,SLX-18812i714-i517,19 pcw,female
604,SLX-18812i715-i517,L_neutrophils_Pl5_D12,Pl5 1209 D12,liver neutrophils D12,SLX-18812i715-i517,19 pcw,female
605,SLX-18812i701-i518,L_eosinophils_Pl5_E1,Pl5 1209 E1,liver eosinophils E1,SLX-18812i701-i518,19 pcw,female
606,SLX-18812i702-i518,L_eosinophils_Pl5_E2,Pl5 1209 E2,liver eosinophils E2,SLX-18812i702-i518,19 pcw,female
607,SLX-18812i703-i518,L_eosinophils_Pl5_E3,Pl5 1209 E3,liver eosinophils E3,SLX-18812i703-i518,19 pcw,female
608,SLX-18812i704-i518,L_eosinophils_Pl5_E4,Pl5 1209 E4,liver eosinophils E4,SLX-18812i704-i518,19 pcw,female
609,SLX-18812i705-i518,L_eosinophils_Pl5_E5,Pl5 1209 E5,liver eosinophils E5,SLX-18812i705-i518,19 pcw,female
610,SLX-18812i706-i518,L_eosinophils_Pl5_E6,Pl5 1209 E6,liver eosinophils E6,SLX-18812i706-i518,19 pcw,female
611,SLX-18812i707-i518,L_eosinophils_Pl5_E7,Pl5 1209 E7,liver eosinophils E7,SLX-18812i707-i518,19 pcw,female
612,SLX-18812i710-i518,L_eosinophils_Pl5_E8,Pl5 1209 E8,liver eosinophils E8,SLX-18812i710-i518,19 pcw,female
613,SLX-18812i711-i518,L_eosinophils_Pl5_E9,Pl5 1209 E9,liver eosinophils E9,SLX-18812i711-i518,19 pcw,female
614,SLX-18812i712-i518,L_eosinophils_Pl5_E10,Pl5 1209 E10,liver eosinophils E10,SLX-18812i712-i518,19 pcw,female
615,SLX-18812i714-i518,L_eosinophils_Pl5_E11,Pl5 1209 E11,liver eosinophils E11,SLX-18812i714-i518,19 pcw,female
616,SLX-18812i715-i518,L_eosinophils_Pl5_E12,Pl5 1209 E12,liver eosinophils E12,SLX-18812i715-i518,19 pcw,female
617,SLX-18812i701-i520,L_eosinophils_Pl5_F1,Pl5 1209 F1,liver eosinophils F1,SLX-18812i701-i520,19 pcw,female
618,SLX-18812i702-i520,L_eosinophils_Pl5_F2,Pl5 1209 F2,liver eosinophils F2,SLX-18812i702-i520,19 pcw,female
619,SLX-18812i703-i520,L_eosinophils_Pl5_F3,Pl5 1209 F3,liver eosinophils F3,SLX-18812i703-i520,19 pcw,female
620,SLX-18812i704-i520,L_eosinophils_Pl5_F4,Pl5 1209 F4,liver eosinophils F4,SLX-18812i704-i520,19 pcw,female
621,SLX-18812i705-i520,L_eosinophils_Pl5_F5,Pl5 1209 F5,liver eosinophils F5,SLX-18812i705-i520,19 pcw,female
622,SLX-18812i706-i520,L_eosinophils_Pl5_F6,Pl5 1209 F6,liver eosinophils F6,SLX-18812i706-i520,19 pcw,female
623,SLX-18812i707-i520,L_eosinophils_Pl5_F7,Pl5 1209 F7,liver eosinophils F7,SLX-18812i707-i520,19 pcw,female
624,SLX-18812i710-i520,L_eosinophils_Pl5_F8,Pl5 1209 F8,liver eosinophils F8,SLX-18812i710-i520,19 pcw,female
625,SLX-18812i711-i520,L_eosinophils_Pl5_F9,Pl5 1209 F9,liver eosinophils F9,SLX-18812i711-i520,19 pcw,female
626,SLX-18812i712-i520,L_eosinophils_Pl5_F10,Pl5 1209 F10,liver eosinophils F10,SLX-18812i712-i520,19 pcw,female
627,SLX-18812i714-i520,L_eosinophils_Pl5_F11,Pl5 1209 F11,liver eosinophils F11,SLX-18812i714-i520,19 pcw,female
628,SLX-18812i715-i520,L_eosinophils_Pl5_F12,Pl5 1209 F12,liver eosinophils F12,SLX-18812i715-i520,19 pcw,female
629,SLX-18812i701-i521,L_eosinophils_Pl5_G1,Pl5 1209 G1,liver eosinophils G1,SLX-18812i701-i521,19 pcw,female
630,SLX-18812i702-i521,L_eosinophils_Pl5_G2,Pl5 1209 G2,liver eosinophils G2,SLX-18812i702-i521,19 pcw,female
631,SLX-18812i703-i521,L_eosinophils_Pl5_G3,Pl5 1209 G3,liver eosinophils G3,SLX-18812i703-i521,19 pcw,female
632,SLX-18812i704-i521,L_eosinophils_Pl5_G4,Pl5 1209 G4,liver eosinophils G4,SLX-18812i704-i521,19 pcw,female
633,SLX-18812i705-i521,L_eosinophils_Pl5_G5,Pl5 1209 G5,liver eosinophils G5,SLX-18812i705-i521,19 pcw,female
634,SLX-18812i706-i521,L_eosinophils_Pl5_G6,Pl5 1209 G6,liver eosinophils G6,SLX-18812i706-i521,19 pcw,female
635,SLX-18812i707-i521,L_eosinophils_Pl5_G7,Pl5 1209 G7,liver eosinophils G7,SLX-18812i707-i521,19 pcw,female
636,SLX-18812i710-i521,L_eosinophils_Pl5_G8,Pl5 1209 G8,liver eosinophils G8,SLX-18812i710-i521,19 pcw,female
637,SLX-18812i711-i521,L_eosinophils_Pl5_G9,Pl5 1209 G9,liver eosinophils G9,SLX-18812i711-i521,19 pcw,female
638,SLX-18812i712-i521,L_eosinophils_Pl5_G10,Pl5 1209 G10,liver eosinophils G10,SLX-18812i712-i521,19 pcw,female
639,SLX-18812i714-i521,L_eosinophils_Pl5_G11,Pl5 1209 G11,liver eosinophils G11,SLX-18812i714-i521,19 pcw,female
640,SLX-18812i715-i521,L_eosinophils_Pl5_G12,Pl5 1209 G12,liver eosinophils G12,SLX-18812i715-i521,19 pcw,female
641,SLX-18812i701-i522,L_eosinophils_Pl5_H1,Pl5 1209 H1,liver eosinophils H1,SLX-18812i701-i522,19 pcw,female
642,SLX-18812i702-i522,L_eosinophils_Pl5_H2,Pl5 1209 H2,liver eosinophils H2,SLX-18812i702-i522,19 pcw,female
643,SLX-18812i703-i522,L_eosinophils_Pl5_H3,Pl5 1209 H3,liver eosinophils H3,SLX-18812i703-i522,19 pcw,female
644,SLX-18812i704-i522,L_eosinophils_Pl5_H4,Pl5 1209 H4,liver eosinophils H4,SLX-18812i704-i522,19 pcw,female
645,SLX-18812i705-i522,L_eosinophils_Pl5_H5,Pl5 1209 H5,liver eosinophils H5,SLX-18812i705-i522,19 pcw,female
646,SLX-18812i706-i522,L_eosinophils_Pl5_H6,Pl5 1209 H6,liver eosinophils H6,SLX-18812i706-i522,19 pcw,female
647,SLX-18812i707-i522,L_eosinophils_Pl5_H7,Pl5 1209 H7,liver eosinophils H7,SLX-18812i707-i522,19 pcw,female
648,SLX-18812i710-i522,L_eosinophils_Pl5_H8,Pl5 1209 H8,liver eosinophils H8,SLX-18812i710-i522,19 pcw,female
649,SLX-18812i711-i522,L_eosinophils_Pl5_H9,Pl5 1209 H9,liver eosinophils H9,SLX-18812i711-i522,19 pcw,female
650,SLX-18812i712-i522,L_eosinophils_Pl5_H10,Pl5 1209 H10,liver eosinophils H10,SLX-18812i712-i522,19 pcw,female
651,SLX-18812i716-i513,F_mid-ery-prog_Pl3_A1,Pl3 3110 A1,femur mid-ery-prog A1,SLX-18812i716-i513,20 pcw,male
652,SLX-18812i718-i513,F_mid-ery-prog_Pl3_A2,Pl3 3110 A2,femur mid-ery-prog A2,SLX-18812i718-i513,20 pcw,male
653,SLX-18812i719-i513,F_mid-ery-prog_Pl3_A3,Pl3 3110 A3,femur mid-ery-prog A3,SLX-18812i719-i513,20 pcw,male
654,SLX-18812i720-i513,F_mid-ery-prog_Pl3_A4,Pl3 3110 A4,femur mid-ery-prog A4,SLX-18812i720-i513,20 pcw,male
655,SLX-18812i721-i513,F_mid-ery-prog_Pl3_A5,Pl3 3110 A5,femur mid-ery-prog A5,SLX-18812i721-i513,20 pcw,male
656,SLX-18812i722-i513,F_mid-ery-prog_Pl3_A6,Pl3 3110 A6,femur mid-ery-prog A6,SLX-18812i722-i513,20 pcw,male
657,SLX-18812i723-i513,F_mid-ery-prog_Pl3_A7,Pl3 3110 A7,femur mid-ery-prog A7,SLX-18812i723-i513,20 pcw,male
658,SLX-18812i724-i513,F_mid-ery-prog_Pl3_A8,Pl3 3110 A8,femur mid-ery-prog A8,SLX-18812i724-i513,20 pcw,male
659,SLX-18812i726-i513,F_mid-ery-prog_Pl3_A9,Pl3 3110 A9,femur mid-ery-prog A9,SLX-18812i726-i513,20 pcw,male
660,SLX-18812i727-i513,F_mid-ery-prog_Pl3_A10,Pl3 3110 A10,femur mid-ery-prog A10,SLX-18812i727-i513,20 pcw,male
661,SLX-18812i728-i513,F_mid-ery-prog_Pl3_A11,Pl3 3110 A11,femur mid-ery-prog A11,SLX-18812i728-i513,20 pcw,male
662,SLX-18812i729-i513,F_mid-ery-prog_Pl3_A12,Pl3 3110 A12,femur mid-ery-prog A12,SLX-18812i729-i513,20 pcw,male
663,SLX-18812i716-i515,F_mid-ery-prog_Pl3_B1,Pl3 3110 B1,femur mid-ery-prog B1,SLX-18812i716-i515,20 pcw,male
664,SLX-18812i718-i515,F_mid-ery-prog_Pl3_B2,Pl3 3110 B2,femur mid-ery-prog B2,SLX-18812i718-i515,20 pcw,male
665,SLX-18812i719-i515,F_mid-ery-prog_Pl3_B3,Pl3 3110 B3,femur mid-ery-prog B3,SLX-18812i719-i515,20 pcw,male
666,SLX-18812i720-i515,F_mid-ery-prog_Pl3_B4,Pl3 3110 B4,femur mid-ery-prog B4,SLX-18812i720-i515,20 pcw,male
667,SLX-18812i721-i515,F_mid-ery-prog_Pl3_B5,Pl3 3110 B5,femur mid-ery-prog B5,SLX-18812i721-i515,20 pcw,male
668,SLX-18812i722-i515,F_mid-ery-prog_Pl3_B6,Pl3 3110 B6,femur mid-ery-prog B6,SLX-18812i722-i515,20 pcw,male
669,SLX-18812i723-i515,F_mid-ery-prog_Pl3_B7,Pl3 3110 B7,femur mid-ery-prog B7,SLX-18812i723-i515,20 pcw,male
670,SLX-18812i724-i515,F_mid-ery-prog_Pl3_B8,Pl3 3110 B8,femur mid-ery-prog B8,SLX-18812i724-i515,20 pcw,male
671,SLX-18812i726-i515,F_mid-ery-prog_Pl3_B9,Pl3 3110 B9,femur mid-ery-prog B9,SLX-18812i726-i515,20 pcw,male
672,SLX-18812i727-i515,F_mid-ery-prog_Pl3_B10,Pl3 3110 B10,femur mid-ery-prog B10,SLX-18812i727-i515,20 pcw,male
673,SLX-18812i728-i515,F_mid-ery-prog_Pl3_B11,Pl3 3110 B11,femur mid-ery-prog B11,SLX-18812i728-i515,20 pcw,male
674,SLX-18812i729-i515,F_mid-ery-prog_Pl3_B12,Pl3 3110 B12,femur mid-ery-prog B12,SLX-18812i729-i515,20 pcw,male
675,SLX-18812i716-i516,F_mid-ery-prog_Pl3_C1,Pl3 3110 C1,femur mid-ery-prog C1,SLX-18812i716-i516,20 pcw,male
676,SLX-18812i718-i516,F_mid-ery-prog_Pl3_C2,Pl3 3110 C2,femur mid-ery-prog C2,SLX-18812i718-i516,20 pcw,male
677,SLX-18812i719-i516,F_mid-ery-prog_Pl3_C3,Pl3 3110 C3,femur mid-ery-prog C3,SLX-18812i719-i516,20 pcw,male
678,SLX-18812i720-i516,F_mid-ery-prog_Pl3_C4,Pl3 3110 C4,femur mid-ery-prog C4,SLX-18812i720-i516,20 pcw,male
679,SLX-18812i721-i516,F_mid-ery-prog_Pl3_C5,Pl3 3110 C5,femur mid-ery-prog C5,SLX-18812i721-i516,20 pcw,male
680,SLX-18812i722-i516,F_mid-ery-prog_Pl3_C6,Pl3 3110 C6,femur mid-ery-prog C6,SLX-18812i722-i516,20 pcw,male
681,SLX-18812i723-i516,F_mid-ery-prog_Pl3_C7,Pl3 3110 C7,femur mid-ery-prog C7,SLX-18812i723-i516,20 pcw,male
682,SLX-18812i724-i516,F_mid-ery-prog_Pl3_C8,Pl3 3110 C8,femur mid-ery-prog C8,SLX-18812i724-i516,20 pcw,male
683,SLX-18812i726-i516,F_mid-ery-prog_Pl3_C9,Pl3 3110 C9,femur mid-ery-prog C9,SLX-18812i726-i516,20 pcw,male
684,SLX-18812i727-i516,F_mid-ery-prog_Pl3_C10,Pl3 3110 C10,femur mid-ery-prog C10,SLX-18812i727-i516,20 pcw,male
685,SLX-18812i728-i516,F_mid-ery-prog_Pl3_C11,Pl3 3110 C11,femur mid-ery-prog C11,SLX-18812i728-i516,20 pcw,male
686,SLX-18812i729-i516,F_mid-ery-prog_Pl3_C12,Pl3 3110 C12,femur mid-ery-prog C12,SLX-18812i729-i516,20 pcw,male
687,SLX-18812i716-i517,F_mid-ery-prog_Pl3_D1,Pl3 3110 D1,femur mid-ery-prog D1,SLX-18812i716-i517,20 pcw,male
688,SLX-18812i718-i517,F_mid-ery-prog_Pl3_D2,Pl3 3110 D2,femur mid-ery-prog D2,SLX-18812i718-i517,20 pcw,male
689,SLX-18812i719-i517,F_mid-ery-prog_Pl3_D3,Pl3 3110 D3,femur mid-ery-prog D3,SLX-18812i719-i517,20 pcw,male
690,SLX-18812i720-i517,F_mid-ery-prog_Pl3_D4,Pl3 3110 D4,femur mid-ery-prog D4,SLX-18812i720-i517,20 pcw,male
691,SLX-18812i721-i517,F_mid-ery-prog_Pl3_D5,Pl3 3110 D5,femur mid-ery-prog D5,SLX-18812i721-i517,20 pcw,male
692,SLX-18812i722-i517,F_mid-ery-prog_Pl3_D6,Pl3 3110 D6,femur mid-ery-prog D6,SLX-18812i722-i517,20 pcw,male
693,SLX-18812i723-i517,F_mid-ery-prog_Pl3_D7,Pl3 3110 D7,femur mid-ery-prog D7,SLX-18812i723-i517,20 pcw,male
694,SLX-18812i724-i517,F_mid-ery-prog_Pl3_D8,Pl3 3110 D8,femur mid-ery-prog D8,SLX-18812i724-i517,20 pcw,male
695,SLX-18812i726-i517,F_mid-ery-prog_Pl3_D9,Pl3 3110 D9,femur mid-ery-prog D9,SLX-18812i726-i517,20 pcw,male
696,SLX-18812i727-i517,F_mid-ery-prog_Pl3_D10,Pl3 3110 D10,femur mid-ery-prog D10,SLX-18812i727-i517,20 pcw,male
697,SLX-18812i728-i517,F_mid-ery-prog_Pl3_D11,Pl3 3110 D11,femur mid-ery-prog D11,SLX-18812i728-i517,20 pcw,male
698,SLX-18812i729-i517,F_mid-ery-prog_Pl3_D12,Pl3 3110 D12,femur mid-ery-prog D12,SLX-18812i729-i517,20 pcw,male
699,SLX-18812i716-i518,F_mid-ery-prog_Pl3_E1,Pl3 3110 E1,femur mid-ery-prog E1,SLX-18812i716-i518,20 pcw,male
700,SLX-18812i718-i518,F_mid-ery-prog_Pl3_E2,Pl3 3110 E2,femur mid-ery-prog E2,SLX-18812i718-i518,20 pcw,male
701,SLX-18812i719-i518,F_mid-ery-prog_Pl3_E3,Pl3 3110 E3,femur mid-ery-prog E3,SLX-18812i719-i518,20 pcw,male
702,SLX-18812i720-i518,F_mid-ery-prog_Pl3_E4,Pl3 3110 E4,femur mid-ery-prog E4,SLX-18812i720-i518,20 pcw,male
703,SLX-18812i721-i518,F_mid-ery-prog_Pl3_E5,Pl3 3110 E5,femur mid-ery-prog E5,SLX-18812i721-i518,20 pcw,male
704,SLX-18812i722-i518,F_mid-ery-prog_Pl3_E6,Pl3 3110 E6,femur mid-ery-prog E6,SLX-18812i722-i518,20 pcw,male
705,SLX-18812i723-i518,F_mid-ery-prog_Pl3_E7,Pl3 3110 E7,femur mid-ery-prog E7,SLX-18812i723-i518,20 pcw,male
706,SLX-18812i724-i518,F_mid-ery-prog_Pl3_E8,Pl3 3110 E8,femur mid-ery-prog E8,SLX-18812i724-i518,20 pcw,male
707,SLX-18812i726-i518,F_mid-ery-prog_Pl3_E9,Pl3 3110 E9,femur mid-ery-prog E9,SLX-18812i726-i518,20 pcw,male
708,SLX-18812i727-i518,F_mid-ery-prog_Pl3_E10,Pl3 3110 E10,femur mid-ery-prog E10,SLX-18812i727-i518,20 pcw,male
709,SLX-18812i728-i518,F_mid-ery-prog_Pl3_E11,Pl3 3110 E11,femur mid-ery-prog E11,SLX-18812i728-i518,20 pcw,male
710,SLX-18812i729-i518,F_mid-ery-prog_Pl3_E12,Pl3 3110 E12,femur mid-ery-prog E12,SLX-18812i729-i518,20 pcw,male
711,SLX-18812i716-i520,F_mid-ery-prog_Pl3_F1,Pl3 3110 F1,femur mid-ery-prog F1,SLX-18812i716-i520,20 pcw,male
712,SLX-18812i718-i520,F_mid-ery-prog_Pl3_F2,Pl3 3110 F2,femur mid-ery-prog F2,SLX-18812i718-i520,20 pcw,male
713,SLX-18812i719-i520,F_mid-ery-prog_Pl3_F3,Pl3 3110 F3,femur mid-ery-prog F3,SLX-18812i719-i520,20 pcw,male
714,SLX-18812i720-i520,F_mid-ery-prog_Pl3_F4,Pl3 3110 F4,femur mid-ery-prog F4,SLX-18812i720-i520,20 pcw,male
715,SLX-18812i721-i520,F_mid-ery-prog_Pl3_F5,Pl3 3110 F5,femur mid-ery-prog F5,SLX-18812i721-i520,20 pcw,male
716,SLX-18812i722-i520,F_mid-ery-prog_Pl3_F6,Pl3 3110 F6,femur mid-ery-prog F6,SLX-18812i722-i520,20 pcw,male
717,SLX-18812i723-i520,F_mid-ery-prog_Pl3_F7,Pl3 3110 F7,femur mid-ery-prog F7,SLX-18812i723-i520,20 pcw,male
718,SLX-18812i724-i520,F_mid-ery-prog_Pl3_F8,Pl3 3110 F8,femur mid-ery-prog F8,SLX-18812i724-i520,20 pcw,male
719,SLX-18812i726-i520,F_mid-ery-prog_Pl3_F9,Pl3 3110 F9,femur mid-ery-prog F9,SLX-18812i726-i520,20 pcw,male
720,SLX-18812i727-i520,F_mid-ery-prog_Pl3_F10,Pl3 3110 F10,femur mid-ery-prog F10,SLX-18812i727-i520,20 pcw,male
721,SLX-18812i728-i520,F_mid-ery-prog_Pl3_F11,Pl3 3110 F11,femur mid-ery-prog F11,SLX-18812i728-i520,20 pcw,male
722,SLX-18812i729-i520,F_mid-ery-prog_Pl3_F12,Pl3 3110 F12,femur mid-ery-prog F12,SLX-18812i729-i520,20 pcw,male
723,SLX-18812i716-i521,F_mid-ery-prog_Pl3_G1,Pl3 3110 G1,femur mid-ery-prog G1,SLX-18812i716-i521,20 pcw,male
724,SLX-18812i718-i521,F_mid-ery-prog_Pl3_G2,Pl3 3110 G2,femur mid-ery-prog G2,SLX-18812i718-i521,20 pcw,male
725,SLX-18812i719-i521,F_mid-ery-prog_Pl3_G3,Pl3 3110 G3,femur mid-ery-prog G3,SLX-18812i719-i521,20 pcw,male
726,SLX-18812i720-i521,F_mid-ery-prog_Pl3_G4,Pl3 3110 G4,femur mid-ery-prog G4,SLX-18812i720-i521,20 pcw,male
727,SLX-18812i721-i521,F_mid-ery-prog_Pl3_G5,Pl3 3110 G5,femur mid-ery-prog G5,SLX-18812i721-i521,20 pcw,male
728,SLX-18812i722-i521,F_mid-ery-prog_Pl3_G6,Pl3 3110 G6,femur mid-ery-prog G6,SLX-18812i722-i521,20 pcw,male
729,SLX-18812i723-i521,F_mid-ery-prog_Pl3_G7,Pl3 3110 G7,femur mid-ery-prog G7,SLX-18812i723-i521,20 pcw,male
730,SLX-18812i724-i521,F_mid-ery-prog_Pl3_G8,Pl3 3110 G8,femur mid-ery-prog G8,SLX-18812i724-i521,20 pcw,male
731,SLX-18812i726-i521,F_mid-ery-prog_Pl3_G9,Pl3 3110 G9,femur mid-ery-prog G9,SLX-18812i726-i521,20 pcw,male
732,SLX-18812i727-i521,F_mid-ery-prog_Pl3_G10,Pl3 3110 G10,femur mid-ery-prog G10,SLX-18812i727-i521,20 pcw,male
733,SLX-18812i728-i521,F_mid-ery-prog_Pl3_G11,Pl3 3110 G11,femur mid-ery-prog G11,SLX-18812i728-i521,20 pcw,male
734,SLX-18812i729-i521,F_mid-ery-prog_Pl3_G12,Pl3 3110 G12,femur mid-ery-prog G12,SLX-18812i729-i521,20 pcw,male
735,SLX-18812i716-i522,F_mid-ery-prog_Pl3_H1,Pl3 3110 H1,femur mid-ery-prog H1,SLX-18812i716-i522,20 pcw,male
736,SLX-18812i718-i522,F_mid-ery-prog_Pl3_H2,Pl3 3110 H2,femur mid-ery-prog H2,SLX-18812i718-i522,20 pcw,male
737,SLX-18812i719-i522,F_mid-ery-prog_Pl3_H3,Pl3 3110 H3,femur mid-ery-prog H3,SLX-18812i719-i522,20 pcw,male
738,SLX-18812i720-i522,F_mid-ery-prog_Pl3_H4,Pl3 3110 H4,femur mid-ery-prog H4,SLX-18812i720-i522,20 pcw,male
739,SLX-18812i721-i522,F_mid-ery-prog_Pl3_H5,Pl3 3110 H5,femur mid-ery-prog H5,SLX-18812i721-i522,20 pcw,male
740,SLX-18812i722-i522,F_mid-ery-prog_Pl3_H6,Pl3 3110 H6,femur mid-ery-prog H6,SLX-18812i722-i522,20 pcw,male
741,SLX-18812i723-i522,F_mid-ery-prog_Pl3_H7,Pl3 3110 H7,femur mid-ery-prog H7,SLX-18812i723-i522,20 pcw,male
742,SLX-18812i724-i522,F_mid-ery-prog_Pl3_H8,Pl3 3110 H8,femur mid-ery-prog H8,SLX-18812i724-i522,20 pcw,male
743,SLX-18812i726-i522,F_mid-ery-prog_Pl3_H9,Pl3 3110 H9,femur mid-ery-prog H9,SLX-18812i726-i522,20 pcw,male
744,SLX-18812i727-i522,F_mid-ery-prog_Pl3_H10,Pl3 3110 H10,femur mid-ery-prog H10,SLX-18812i727-i522,20 pcw,male