Sample	uniquely_mapped_percent	num_splices	num_GCAG_splices	insertion_length	deletion_length	unmapped_tooshort_percent	avg_mapped_read_length	deletion_rate	mismatch_rate	avg_input_read_length	num_ATAC_splices	num_annotated_splices	num_GTAG_splices	uniquely_mapped	multimapped_toomany	unmapped_mismatches	unmapped_mismatches_percent	total_reads	unmapped_other	insertion_rate	unmapped_other_percent	multimapped_percent	multimapped	num_noncanonical_splices	unmapped_tooshort	multimapped_toomany_percent
5317STDY7723849	70.37	393547.0	2636.0	1.33	1.57	13.46	147.86	0.01	0.65	150.0	111.0	392498.0	387410.0	1253396.0	2237.0	0	0.0	1781037.0	890	0.01	0.05	15.99	284853.0	3390.0	239661	0.13
5317STDY7723850	64.87	173822.0	1152.0	1.27	1.69	11.32	147.86	0.01	0.7	150.0	193.0	173304.0	171730.0	411696.0	1178.0	0	0.0	634671.0	254	0.01	0.04	23.59	149688.0	747.0	71855	0.19
5317STDY7723851	68.47	288296.0	2226.0	1.32	1.58	10.61	147.73	0.01	0.69	150.0	230.0	287503.0	283933.0	864850.0	2003.0	0	0.0	1263088.0	632	0.01	0.05	20.71	261543.0	1907.0	134060	0.16
5317STDY7723852	65.53	240338.0	2129.0	1.26	1.68	12.56	147.45	0.01	0.63	150.0	191.0	239758.0	235827.0	963833.0	2876.0	0	0.0	1470769.0	1324	0.01	0.09	21.62	317957.0	2191.0	184779	0.2
5317STDY7723853	71.87	559326.0	3399.0	1.36	1.65	9.46	147.92	0.01	0.62	150.0	204.0	557910.0	550369.0	1906098.0	3106.0	0	0.0	2652121.0	1326	0.01	0.05	18.5	490692.0	5354.0	250899	0.12
5317STDY7723854	66.98	270110.0	2169.0	1.3	1.47	15.44	147.36	0.01	0.69	150.0	216.0	268741.0	262957.0	787974.0	2597.0	0	0.0	1176483.0	1412	0.01	0.12	17.24	202823.0	4768.0	181677	0.22
5317STDY7723855	71.17	689248.0	4536.0	1.31	1.73	11.94	147.9	0.01	0.74	150.0	289.0	688049.0	680240.0	1674537.0	3836.0	0	0.0	2352898.0	1647	0.01	0.07	16.66	391926.0	4183.0	280952	0.16
5317STDY7723856	68.95	388911.0	2403.0	1.31	1.67	9.7	147.78	0.01	0.62	150.0	320.0	388061.0	383350.0	1181001.0	2346.0	0	0.0	1712742.0	514	0.01	0.03	21.18	362754.0	2838.0	166127	0.14
5317STDY7723857	27.06	71686.0	2123.0	1.36	1.49	67.52	145.36	0.01	0.6	150.0	74.0	69557.0	59558.0	801642.0	6602.0	0	0.0	2962375.0	19552	0.01	0.66	4.54	134400.0	9931.0	2000179	0.22
5317STDY7723858	72.42	335306.0	2344.0	1.29	1.65	10.59	147.79	0.01	0.64	150.0	41.0	334438.0	330902.0	978385.0	2276.0	0	0.0	1351070.0	405	0.01	0.03	16.8	226927.0	2019.0	143077	0.17
5317STDY7723859	71.46	431815.0	3361.0	1.36	1.66	11.49	147.89	0.01	0.64	150.0	347.0	430967.0	425483.0	1212956.0	1934.0	0	0.0	1697344.0	339	0.01	0.02	16.92	287146.0	2624.0	194969	0.11
5317STDY7723860	72.24	225758.0	1967.0	1.32	1.47	10.69	147.6	0.01	0.66	150.0	101.0	224969.0	221896.0	845667.0	2796.0	0	0.0	1170623.0	468	0.01	0.04	16.79	196498.0	1794.0	125194	0.24
5317STDY7723861	72.06	347330.0	2600.0	1.29	1.59	14.62	148.09	0.01	0.67	150.0	467.0	346645.0	342289.0	876534.0	1907.0	0	0.0	1216362.0	486	0.01	0.04	13.13	159660.0	1974.0	177775	0.16
5317STDY7723862	62.44	99971.0	656.0	1.2	1.55	12.49	147.6	0.01	0.68	150.0	95.0	99728.0	98894.0	244745.0	865.0	0	0.0	391986.0	118	0.01	0.03	24.82	97307.0	326.0	48951	0.22
5317STDY7723863	71.01	279845.0	2288.0	1.25	1.59	9.62	147.74	0.01	0.66	150.0	356.0	279158.0	275490.0	775701.0	1586.0	0	0.0	1092352.0	327	0.01	0.03	19.2	209735.0	1711.0	105003	0.15
5317STDY7723864	75.83	194117.0	1231.0	1.3	1.71	8.91	147.87	0.01	0.67	150.0	132.0	193666.0	192026.0	422213.0	512.0	0	0.0	556814.0	56	0.01	0.01	15.16	84436.0	728.0	49597	0.09
5317STDY7723865	74.02	295200.0	1991.0	1.28	1.64	8.77	148.01	0.01	0.67	150.0	266.0	294534.0	291843.0	635034.0	1269.0	0	0.0	857869.0	343	0.01	0.04	17.02	145986.0	1100.0	75237	0.15
5317STDY7723866	70.63	198363.0	1679.0	1.28	1.65	10.58	147.88	0.01	0.66	150.0	241.0	197903.0	195345.0	509544.0	1220.0	0	0.0	721377.0	361	0.01	0.05	18.56	133903.0	1098.0	76349	0.17
5317STDY7723867	66.6	125911.0	910.0	1.21	1.67	12.2	147.68	0.01	0.68	150.0	143.0	125539.0	124302.0	302559.0	888.0	0	0.0	454276.0	364	0.01	0.08	20.92	95024.0	556.0	55441	0.2
5317STDY7723868	70.93	270397.0	2039.0	1.49	1.76	12.15	147.55	0.01	0.65	150.0	146.0	269618.0	266103.0	935102.0	3251.0	0	0.0	1318415.0	1449	0.01	0.11	16.57	218509.0	2109.0	160104	0.25
5317STDY7723869	70.06	223762.0	1780.0	1.28	1.52	11.97	147.5	0.01	0.62	150.0	97.0	223100.0	220137.0	693484.0	1194.0	0	0.0	989878.0	396	0.01	0.04	17.81	176261.0	1748.0	118543	0.12
5317STDY7723870	74.42	387112.0	3095.0	1.32	1.6	9.26	148.01	0.01	0.65	150.0	419.0	386384.0	382170.0	890876.0	1137.0	0	0.0	1197084.0	239	0.01	0.02	16.2	193972.0	1428.0	110860	0.09
5317STDY7723871	72.97	258885.0	1976.0	1.3	1.66	11.13	147.79	0.01	0.65	150.0	185.0	258308.0	255522.0	696555.0	1471.0	0	0.0	954631.0	955	0.01	0.1	15.65	149371.0	1202.0	106279	0.15
5317STDY7723872	67.21	250194.0	1940.0	1.28	1.65	10.46	147.84	0.01	0.67	150.0	166.0	249632.0	246844.0	598822.0	1764.0	0	0.0	891015.0	713	0.01	0.08	22.06	196523.0	1244.0	93193	0.2
5317STDY7723873	75.57	333877.0	2632.0	1.32	1.57	10.17	147.81	0.01	0.65	150.0	381.0	333071.0	328733.0	1050778.0	1860.0	0	0.0	1390531.0	695	0.01	0.05	14.09	195881.0	2131.0	141317	0.13
5317STDY7723874	72.76	188948.0	1051.0	1.27	1.47	10.44	147.87	0.01	0.69	150.0	169.0	188554.0	187007.0	422447.0	723.0	0	0.0	580582.0	58	0.01	0.01	16.65	96689.0	721.0	60665	0.12
5317STDY7723875	71.64	258084.0	2219.0	1.34	1.64	10.24	147.61	0.01	0.65	150.0	85.0	257504.0	253909.0	820173.0	1644.0	0	0.0	1144894.0	572	0.01	0.05	17.93	205276.0	1871.0	117229	0.14
5317STDY7723876	72.12	242397.0	1782.0	1.33	1.5	8.61	147.85	0.01	0.67	150.0	52.0	241863.0	238910.0	777604.0	2103.0	0	0.0	1078142.0	539	0.01	0.05	19.02	205104.0	1653.0	92792	0.2
5317STDY7723877	70.87	276201.0	1943.0	1.29	1.53	9.63	147.71	0.01	0.66	150.0	240.0	275325.0	271536.0	889181.0	2409.0	0	0.0	1254707.0	2007	0.01	0.16	19.15	240308.0	2482.0	120802	0.19
5317STDY7723878	72.53	227791.0	1792.0	1.32	1.73	9.2	147.8	0.01	0.66	150.0	15.0	227336.0	224566.0	754723.0	2162.0	0	0.0	1040569.0	832	0.01	0.08	17.99	187172.0	1418.0	95680	0.21
5317STDY7723879	69.37	293468.0	2323.0	1.32	1.52	9.21	147.92	0.01	0.69	150.0	183.0	292947.0	288925.0	875553.0	3772.0	0	0.0	1262150.0	1640	0.01	0.13	20.99	264983.0	2037.0	116202	0.3
5317STDY7723880	69.42	145468.0	933.0	1.28	1.62	11.27	147.61	0.01	0.67	150.0	98.0	145053.0	143699.0	411884.0	814.0	0	0.0	593284.0	178	0.01	0.03	19.13	113517.0	738.0	66891	0.14
5317STDY7723881	67.06	126503.0	979.0	1.35	1.53	11.05	147.72	0.01	0.68	150.0	112.0	126162.0	124761.0	390873.0	1071.0	0	0.0	582910.0	233	0.01	0.04	21.67	126328.0	651.0	64405	0.18
5317STDY7723882	76.65	403680.0	3349.0	1.34	1.67	8.87	148.0	0.01	0.67	150.0	367.0	402920.0	398115.0	970100.0	1146.0	0	0.0	1265606.0	633	0.01	0.05	14.34	181440.0	1849.0	112287	0.09
5317STDY7723883	73.09	213187.0	1335.0	1.3	1.67	9.93	147.87	0.01	0.69	150.0	205.0	212732.0	210692.0	555408.0	1260.0	0	0.0	759926.0	304	0.01	0.04	16.77	127457.0	955.0	75497	0.17
5317STDY7723884	71.9	262760.0	1680.0	1.28	1.64	10.63	147.79	0.01	0.67	150.0	108.0	262119.0	259592.0	746935.0	1694.0	0	0.0	1038864.0	416	0.01	0.04	17.27	179395.0	1380.0	110424	0.16
5317STDY7723885	68.45	301861.0	2174.0	1.26	1.6	8.51	147.71	0.02	0.66	150.0	217.0	301253.0	297912.0	932143.0	2177.0	0	0.0	1361856.0	409	0.01	0.03	22.85	311178.0	1558.0	115949	0.16
5317STDY7723886	68.99	194667.0	1209.0	1.31	1.69	9.91	147.68	0.01	0.67	150.0	128.0	194175.0	191903.0	605075.0	1329.0	0	0.0	877069.0	439	0.01	0.05	20.9	183309.0	1427.0	86917	0.15
5317STDY7723887	46.03	242603.0	2295.0	1.09	1.19	40.47	147.63	0.01	0.57	150.0	354.0	241789.0	233260.0	1327920.0	3096.0	0	0.0	2884679.0	0	0.01	0.0	13.38	386015.0	6694.0	1167648	0.11
5317STDY7723888	70.36	125232.0	872.0	1.28	1.62	9.14	147.64	0.01	0.7	150.0	94.0	124826.0	123631.0	375438.0	840.0	0	0.0	533612.0	160	0.01	0.03	20.31	108389.0	635.0	48785	0.16
5317STDY7723889	72.03	129646.0	908.0	1.25	1.54	9.53	147.84	0.01	0.69	150.0	125.0	129206.0	128124.0	302147.0	573.0	0	0.0	419471.0	126	0.01	0.03	18.27	76647.0	489.0	39978	0.14
5317STDY7723890	76.63	148258.0	1420.0	1.23	1.66	9.07	147.58	0.01	0.6	150.0	303.0	147582.0	143884.0	1064328.0	1601.0	0	0.0	1388966.0	1112	0.01	0.08	14.1	195894.0	2651.0	126031	0.12
5317STDY7723891	69.18	179940.0	649.0	1.23	1.78	10.78	147.41	0.01	0.57	150.0	12.0	179196.0	177129.0	1128610.0	1267.0	0	0.0	1631528.0	1469	0.01	0.09	19.87	324203.0	2150.0	175979	0.08
5317STDY7723892	60.49	94667.0	631.0	1.29	1.76	9.23	147.44	0.01	0.67	150.0	45.0	94336.0	93243.0	353004.0	1398.0	0	0.0	583527.0	233	0.01	0.04	29.99	175013.0	748.0	53879	0.24
5317STDY7723893	69.5	300322.0	2077.0	1.21	1.69	7.61	148.07	0.01	0.58	150.0	162.0	299393.0	293918.0	1341046.0	3219.0	0	0.0	1929488.0	2315	0.01	0.12	22.6	436084.0	4165.0	146824	0.17
5317STDY7723894	65.45	183509.0	1368.0	1.31	1.63	9.84	147.79	0.01	0.68	150.0	175.0	183098.0	181075.0	485909.0	1441.0	0	0.0	742422.0	148	0.01	0.02	24.5	181888.0	891.0	73036	0.19
5317STDY7723895	69.35	145528.0	1041.0	1.27	1.62	11.46	147.73	0.01	0.68	150.0	151.0	145178.0	143662.0	401282.0	1097.0	0	0.0	578660.0	232	0.01	0.04	18.96	109690.0	674.0	66359	0.19
5317STDY7723896	63.8	148232.0	1015.0	1.32	1.61	12.03	147.78	0.01	0.69	150.0	76.0	147897.0	146293.0	461044.0	1487.0	0	0.0	722620.0	217	0.01	0.03	23.94	172960.0	848.0	86912	0.21
5317STDY7723897	37.16	134941.0	288.0	1.05	1.82	51.8	147.53	0.02	0.49	150.0	68.0	134437.0	130638.0	1033766.0	3415.0	0	0.0	2781707.0	0	0.0	0.0	10.91	303404.0	3947.0	1441122	0.12
5317STDY7723898	71.53	336627.0	2001.0	1.25	1.56	8.64	147.86	0.01	0.66	150.0	398.0	336195.0	332682.0	824260.0	1992.0	0	0.0	1152351.0	230	0.01	0.02	19.64	226296.0	1546.0	99573	0.17
5317STDY7723899	55.72	247791.0	1357.0	1.43	1.58	33.03	147.4	0.01	0.82	150.0	438.0	245221.0	234796.0	723652.0	1864.0	0	0.0	1298840.0	1429	0.01	0.11	11.0	142825.0	11200.0	429070	0.14
5317STDY7723900	77.84	154439.0	1253.0	1.29	1.66	8.85	147.85	0.01	0.64	150.0	118.0	154059.0	152477.0	391940.0	517.0	0	0.0	503506.0	252	0.01	0.05	13.16	66270.0	591.0	44527	0.1
5317STDY7723901	75.33	95027.0	599.0	1.31	1.56	9.88	147.89	0.01	0.65	150.0	77.0	94750.0	93342.0	431466.0	803.0	0	0.0	572740.0	516	0.01	0.09	14.56	83363.0	1009.0	56592	0.14
5317STDY7723902	70.04	219042.0	1701.0	1.27	1.7	8.23	148.12	0.01	0.67	150.0	55.0	218649.0	216392.0	564799.0	1117.0	0	0.0	806375.0	403	0.01	0.05	21.54	173695.0	894.0	66361	0.14
5317STDY7723903	71.92	465136.0	5217.0	1.26	1.75	14.51	148.17	0.01	0.6	150.0	430.0	462939.0	453299.0	1767143.0	3314.0	0	0.0	2456946.0	2212	0.01	0.09	13.34	327726.0	6190.0	356551	0.13
5317STDY7723904	67.06	32700.0	599.0	1.28	1.49	24.89	145.05	0.02	0.94	150.0	101.0	29610.0	21637.0	477472.0	3819.0	0	0.0	712053.0	3490	0.01	0.49	7.02	50007.0	10363.0	177265	0.54
5317STDY7723905	65.0	132190.0	991.0	1.3	1.7	9.56	147.76	0.01	0.67	150.0	116.0	131826.0	130357.0	456529.0	1299.0	0	0.0	702332.0	211	0.01	0.03	25.23	177184.0	726.0	67109	0.18
5317STDY7723906	59.17	113072.0	1181.0	1.21	1.75	12.81	147.36	0.01	0.6	150.0	146.0	112463.0	108580.0	1025475.0	2834.0	0	0.0	1733185.0	693	0.01	0.04	27.83	482318.0	3165.0	221865	0.16
5317STDY7723907	71.92	459435.0	2847.0	1.24	1.55	10.63	147.79	0.01	0.64	150.0	278.0	458796.0	454376.0	1068384.0	1551.0	0	0.0	1485543.0	742	0.01	0.05	17.3	257017.0	1934.0	157849	0.1
5317STDY7723908	66.0	28615.0	863.0	1.22	1.22	26.03	144.16	0.03	1.04	150.0	283.0	25081.0	13321.0	463525.0	3724.0	0	0.0	702340.0	5127	0.02	0.73	6.71	47148.0	14148.0	182816	0.53
5317STDY7723909	70.57	264455.0	1620.0	1.3	1.54	10.2	147.76	0.01	0.64	150.0	231.0	263787.0	260849.0	828275.0	1665.0	0	0.0	1173747.0	469	0.01	0.04	19.05	223630.0	1755.0	119708	0.14
5317STDY7723910	69.25	200278.0	1275.0	1.23	1.78	10.16	147.55	0.01	0.63	150.0	91.0	199870.0	197813.0	590898.0	1319.0	0	0.0	853225.0	171	0.01	0.02	20.41	174132.0	1099.0	86705	0.15
5317STDY7723911	76.74	268649.0	1671.0	1.33	1.57	9.94	147.78	0.01	0.68	150.0	217.0	268010.0	265598.0	687958.0	1694.0	0	0.0	896465.0	448	0.01	0.05	13.08	117264.0	1163.0	89101	0.19
5317STDY7723912	72.77	213748.0	1676.0	1.35	1.72	14.79	147.98	0.01	0.68	150.0	202.0	213187.0	210696.0	653670.0	1179.0	0	0.0	898319.0	269	0.01	0.03	12.29	110394.0	1174.0	132807	0.13
5317STDY7723913	71.94	867789.0	4690.0	1.3	1.39	17.44	147.39	0.01	0.47	150.0	0.0	865730.0	855043.0	2091272.0	4408.0	0	0.0	2906947.0	291	0.01	0.01	10.46	304027.0	8056.0	506949	0.15
5317STDY7723914	63.24	721730.0	2275.0	1.4	1.47	18.39	147.52	0.01	0.53	150.0	769.0	719645.0	705673.0	1376280.0	2659.0	0	0.0	2176151.0	218	0.01	0.01	18.23	396775.0	13013.0	400219	0.12
5317STDY7723915	71.73	295230.0	1965.0	1.26	1.64	8.75	148.08	0.01	0.68	150.0	239.0	294567.0	291621.0	688799.0	1965.0	0	0.0	960233.0	192	0.01	0.02	19.29	185231.0	1405.0	84046	0.2
5317STDY7723916	70.72	215721.0	1620.0	1.27	1.59	8.86	147.88	0.01	0.65	150.0	151.0	215106.0	212376.0	731655.0	2057.0	0	0.0	1034538.0	414	0.01	0.04	20.18	208776.0	1574.0	91636	0.2
5317STDY7723917	72.24	306352.0	1721.0	1.3	1.61	8.97	147.89	0.01	0.65	150.0	307.0	305678.0	302845.0	821400.0	1827.0	0	0.0	1137088.0	569	0.01	0.05	18.57	211212.0	1479.0	102080	0.16
5317STDY7723918	71.03	414769.0	3210.0	1.25	1.56	8.02	148.24	0.01	0.67	150.0	276.0	413967.0	409012.0	1000213.0	2361.0	0	0.0	1408137.0	1691	0.01	0.12	20.66	290870.0	2271.0	113002	0.17
5317STDY7723919	74.83	351380.0	3067.0	1.23	1.64	11.7	147.64	0.01	0.58	150.0	101.0	350396.0	343884.0	1421154.0	2032.0	0	0.0	1899211.0	950	0.01	0.05	13.32	252889.0	4328.0	222186	0.11
5317STDY7723920	73.96	317622.0	2497.0	1.27	1.67	9.26	147.62	0.01	0.62	150.0	367.0	317057.0	313324.0	975016.0	2228.0	0	0.0	1318295.0	923	0.01	0.07	16.54	218090.0	1434.0	122038	0.17
5317STDY7723921	69.29	183076.0	1326.0	1.26	1.51	10.44	147.54	0.01	0.67	150.0	84.0	182631.0	180793.0	456369.0	1322.0	0	0.0	658616.0	197	0.01	0.03	20.05	132026.0	873.0	68702	0.2
5317STDY7723922	74.98	169780.0	1147.0	1.23	1.54	12.0	147.8	0.01	0.7	150.0	90.0	169264.0	167587.0	522820.0	962.0	0	0.0	697285.0	349	0.01	0.05	12.83	89477.0	956.0	83677	0.14
5317STDY7723923	72.67	240239.0	851.0	1.29	1.58	11.02	147.23	0.01	0.64	150.0	244.0	239708.0	237817.0	746575.0	1387.0	0	0.0	1027355.0	411	0.01	0.04	16.14	165782.0	1327.0	113200	0.14
5317STDY7723924	74.92	485818.0	4204.0	1.24	1.57	7.44	148.35	0.01	0.67	150.0	562.0	485053.0	478515.0	1300538.0	1553.0	0	0.0	1735800.0	347	0.01	0.02	17.53	304317.0	2537.0	129045	0.09
5317STDY7723925	70.85	493562.0	2800.0	1.26	1.55	8.82	147.94	0.01	0.65	150.0	517.0	492765.0	488644.0	975550.0	1706.0	0	0.0	1376932.0	138	0.01	0.01	20.2	278150.0	1601.0	121388	0.12
5317STDY7723926	50.16	226542.0	1072.0	1.29	1.58	20.08	146.72	0.01	0.57	150.0	213.0	225942.0	224160.0	513822.0	1291.0	0	0.0	1024354.0	102	0.01	0.01	29.62	303432.0	1097.0	205707	0.13
5317STDY7723927	73.3	439644.0	2649.0	1.24	1.67	7.77	148.25	0.01	0.68	150.0	279.0	438918.0	435090.0	895497.0	1494.0	0	0.0	1221659.0	244	0.01	0.02	18.79	229570.0	1626.0	94854	0.12
5317STDY7723928	71.66	629031.0	4372.0	1.23	1.52	15.94	147.53	0.01	0.54	150.0	222.0	627428.0	619402.0	1691378.0	4044.0	0	0.0	2360374.0	1416	0.01	0.06	12.17	287362.0	5035.0	376174	0.17
5317STDY7723929	73.87	234028.0	1612.0	1.3	1.49	9.53	147.79	0.01	0.67	150.0	186.0	233560.0	231469.0	549499.0	1124.0	0	0.0	743851.0	223	0.01	0.03	16.41	122079.0	761.0	70926	0.15
5317STDY7723930	52.64	485233.0	7093.0	1.15	1.43	41.82	146.84	0.01	0.46	150.0	1044.0	484122.0	472201.0	1474543.0	4335.0	0	0.0	2801099.0	280	0.01	0.01	5.38	150624.0	4895.0	1171317	0.15
5317STDY7723931	73.37	304727.0	2340.0	1.32	1.57	9.65	148.07	0.01	0.7	150.0	266.0	304227.0	300827.0	830180.0	1632.0	0	0.0	1131556.0	340	0.01	0.03	16.81	190158.0	1294.0	109246	0.14
5317STDY7723932	67.7	215222.0	1912.0	1.33	1.58	9.95	147.77	0.01	0.68	150.0	100.0	214600.0	211917.0	578773.0	1633.0	0	0.0	854915.0	342	0.01	0.04	22.12	189132.0	1293.0	85035	0.19
5317STDY7723933	52.41	47668.0	348.0	1.23	1.54	33.13	146.68	0.01	0.73	150.0	22.0	47070.0	46521.0	281679.0	1132.0	0	0.0	537447.0	376	0.01	0.07	14.17	76171.0	777.0	178089	0.21
5317STDY7723934	47.23	58427.0	404.0	1.23	1.53	22.74	147.26	0.01	0.75	150.0	69.0	58023.0	57234.0	195380.0	1053.0	0	0.0	413685.0	248	0.01	0.06	29.72	122927.0	720.0	94077	0.25
5317STDY7723935	55.25	108573.0	602.0	1.3	1.54	13.7	147.61	0.01	0.74	150.0	100.0	108142.0	107387.0	245629.0	1131.0	0	0.0	444612.0	133	0.01	0.03	30.77	136786.0	484.0	60933	0.25
5317STDY7723936	50.41	49527.0	337.0	1.26	1.55	14.03	147.58	0.01	0.73	150.0	35.0	49297.0	48947.0	110419.0	644.0	0	0.0	219023.0	44	0.01	0.02	35.24	77192.0	208.0	30724	0.29
5317STDY7723937	55.91	37644.0	271.0	1.26	1.64	13.84	147.27	0.02	0.79	150.0	18.0	37355.0	37108.0	115028.0	757.0	0	0.0	205750.0	123	0.01	0.06	29.82	61361.0	247.0	28481	0.37
5317STDY7723938	51.33	34320.0	251.0	1.23	1.54	13.86	147.06	0.02	0.83	150.0	16.0	33957.0	33730.0	105782.0	683.0	0	0.0	206099.0	103	0.01	0.05	34.43	70960.0	323.0	28571	0.33
5317STDY7723939	53.68	71090.0	681.0	1.29	1.59	11.87	147.44	0.02	0.74	150.0	42.0	70310.0	69182.0	242124.0	2136.0	0	0.0	451065.0	406	0.01	0.09	33.89	152871.0	1185.0	53528	0.47
5317STDY7723940	57.27	188396.0	1257.0	1.25	1.47	11.08	148.04	0.01	0.73	150.0	117.0	187917.0	186327.0	369053.0	1240.0	0	0.0	644409.0	193	0.01	0.03	31.43	202539.0	695.0	71384	0.19
5317STDY7723941	61.35	105455.0	765.0	1.24	1.61	11.36	147.94	0.01	0.72	150.0	42.0	105016.0	104154.0	262659.0	1124.0	0	0.0	428138.0	171	0.01	0.04	26.99	115574.0	494.0	48610	0.26
5317STDY7723942	67.11	191573.0	1163.0	1.35	1.57	9.83	148.07	0.01	0.68	150.0	229.0	191146.0	189492.0	428224.0	1116.0	0	0.0	638056.0	319	0.01	0.05	22.82	145635.0	689.0	62762	0.17
5317STDY7723943	25.68	38416.0	111.0	1.24	1.26	63.25	145.34	0.01	0.72	150.0	135.0	37710.0	32139.0	188789.0	1627.0	0	0.0	735262.0	1471	0.01	0.2	10.65	78309.0	6031.0	465066	0.22
5317STDY7723944	59.81	25356.0	411.0	1.1	1.3	34.16	147.73	0.01	0.61	150.0	0.0	25077.0	22954.0	960712.0	3595.0	0	0.0	1606373.0	2570	0.01	0.16	5.65	90766.0	1991.0	548730	0.22
5317STDY7723945	44.73	533.0	2.0	1.13	1.4	31.0	146.93	0.01	0.69	150.0	0.0	528.0	525.0	1587.0	13.0	0	0.0	3548.0	0	0.01	0.0	23.9	848.0	6.0	1100	0.37
5317STDY7723946	58.42	12551.0	86.0	1.33	1.49	12.42	147.49	0.01	0.56	150.0	5.0	12490.0	12403.0	25474.0	95.0	0	0.0	43605.0	31	0.0	0.07	28.87	12587.0	57.0	5418	0.22
5317STDY7723947	66.73	641998.0	4839.0	1.23	1.54	7.38	147.99	0.01	0.52	150.0	487.0	641010.0	633877.0	1346006.0	4243.0	0	0.0	2017001.0	1008	0.01	0.05	25.63	516908.0	2795.0	148836	0.21
5317STDY7723948	58.25	367337.0	2754.0	1.21	1.57	10.22	147.56	0.01	0.51	150.0	316.0	366344.0	361183.0	1079118.0	3593.0	0	0.0	1852640.0	1482	0.01	0.08	31.26	579101.0	3084.0	189346	0.19
5317STDY7723949	61.71	488250.0	3182.0	1.33	1.58	9.17	147.83	0.01	0.47	150.0	195.0	487478.0	482010.0	1302402.0	3622.0	0	0.0	2110605.0	844	0.01	0.04	28.91	610201.0	2863.0	193536	0.17
5317STDY7723950	58.41	466696.0	3361.0	1.27	1.47	8.26	147.43	0.01	0.46	150.0	360.0	465604.0	460303.0	1254799.0	4072.0	0	0.0	2148309.0	1288	0.01	0.06	33.09	710773.0	2672.0	177377	0.19
5317STDY7723951	60.02	109169.0	795.0	1.28	1.56	15.03	147.45	0.01	0.64	150.0	52.0	108733.0	107420.0	419598.0	1465.0	0	0.0	699128.0	559	0.01	0.08	24.67	172465.0	902.0	105041	0.21
5317STDY7723952	60.37	571768.0	3115.0	1.26	1.56	5.72	147.59	0.01	0.44	150.0	323.0	570662.0	565649.0	1224779.0	5559.0	0	0.0	2028918.0	1014	0.01	0.05	33.59	681518.0	2681.0	116048	0.27
5317STDY7723953	59.44	488363.0	3365.0	1.2	1.6	8.26	147.6	0.01	0.48	150.0	289.0	487422.0	482312.0	1131885.0	6614.0	0	0.0	1904405.0	953	0.01	0.05	31.9	607550.0	2397.0	157403	0.35
5317STDY7723954	62.5	595815.0	4390.0	1.25	1.55	6.91	147.91	0.01	0.49	150.0	348.0	594619.0	588383.0	1303327.0	5791.0	0	0.0	2085207.0	1459	0.01	0.07	30.24	630591.0	2694.0	144039	0.28
5317STDY7723955	52.85	187312.0	1304.0	1.29	1.34	22.32	147.49	0.01	0.72	150.0	184.0	186133.0	183635.0	587230.0	2876.0	0	0.0	1111157.0	667	0.01	0.06	24.52	272402.0	2189.0	247982	0.26
5317STDY7723956	61.91	480027.0	3301.0	1.27	1.56	8.06	147.77	0.01	0.5	150.0	391.0	479054.0	473489.0	1271338.0	4562.0	0	0.0	2053535.0	1437	0.01	0.07	29.74	610715.0	2846.0	165483	0.22
5317STDY7723957	68.85	712796.0	3946.0	1.31	1.57	6.36	148.02	0.01	0.51	150.0	658.0	711756.0	705366.0	1464747.0	3148.0	0	0.0	2127339.0	1913	0.01	0.09	24.55	522354.0	2826.0	135177	0.15
5317STDY7723958	65.21	655045.0	3702.0	1.25	1.59	6.96	147.56	0.01	0.48	150.0	453.0	653856.0	647520.0	1468398.0	4086.0	0	0.0	2251787.0	900	0.01	0.04	27.61	621802.0	3370.0	156601	0.18
5317STDY7723959	59.75	509233.0	2862.0	1.26	1.6	8.76	147.6	0.01	0.43	150.0	525.0	508236.0	502902.0	1337775.0	4691.0	0	0.0	2238820.0	1566	0.01	0.07	31.21	698818.0	2944.0	195970	0.21
5317STDY7723960	64.94	22436.0	189.0	1.32	1.46	11.82	147.5	0.01	0.66	150.0	18.0	22336.0	22138.0	56778.0	184.0	0	0.0	87436.0	35	0.01	0.04	23.0	20106.0	91.0	10333	0.21
5317STDY7723961	60.02	474809.0	3148.0	1.27	1.61	6.47	147.93	0.01	0.52	150.0	199.0	473868.0	468804.0	1239546.0	5690.0	0	0.0	2065214.0	826	0.01	0.04	33.2	685554.0	2658.0	133598	0.28
5317STDY7723962	57.96	442295.0	2848.0	1.22	1.6	9.29	147.57	0.01	0.48	150.0	167.0	441560.0	436962.0	1211184.0	5472.0	0	0.0	2089619.0	1463	0.01	0.07	32.42	677390.0	2318.0	194110	0.26
5317STDY7723963	58.38	41277.0	289.0	1.28	1.61	17.3	147.65	0.01	0.66	150.0	36.0	41118.0	40762.0	107467.0	357.0	0	0.0	184076.0	55	0.01	0.03	24.1	44356.0	190.0	31841	0.19
5317STDY7723964	58.19	474666.0	3377.0	1.26	1.64	5.79	147.4	0.01	0.44	150.0	229.0	473627.0	468276.0	1313107.0	8080.0	0	0.0	2256512.0	1807	0.01	0.08	35.58	802759.0	2784.0	130759	0.36
5317STDY7723965	66.58	925265.0	7254.0	1.24	1.57	6.15	147.92	0.01	0.46	150.0	640.0	923890.0	913622.0	1969744.0	6784.0	0	0.0	2958353.0	1481	0.01	0.05	26.98	798215.0	3749.0	182129	0.23
5317STDY7723966	68.09	648930.0	4284.0	1.22	1.61	6.53	147.21	0.01	0.4	150.0	401.0	647864.0	641997.0	1412678.0	3086.0	0	0.0	2074711.0	829	0.01	0.04	25.19	522709.0	2248.0	135409	0.15
5317STDY7723967	70.39	75049.0	610.0	1.32	1.78	10.06	147.53	0.01	0.62	150.0	21.0	74633.0	73233.0	436081.0	1033.0	0	0.0	619524.0	619	0.01	0.1	19.29	119482.0	1185.0	62309	0.17
5317STDY7723968	70.45	453759.0	3256.0	1.32	1.59	6.53	147.96	0.01	0.57	150.0	409.0	452813.0	448089.0	1080198.0	2668.0	0	0.0	1533369.0	919	0.01	0.06	22.8	349552.0	2005.0	100032	0.17
5317STDY7723969	66.03	491886.0	2959.0	1.11	1.63	17.15	147.11	0.01	0.42	150.0	166.0	490419.0	485214.0	1154205.0	2381.0	0	0.0	1748087.0	350	0.01	0.02	16.67	291416.0	3547.0	299735	0.14
5317STDY7723970	65.57	477588.0	3017.0	1.23	1.53	6.59	147.76	0.01	0.5	150.0	451.0	476641.0	470890.0	1239589.0	4270.0	0	0.0	1890390.0	1323	0.01	0.07	27.54	520616.0	3230.0	124592	0.23
5317STDY7723971	73.48	38776.0	210.0	1.3	1.7	10.04	147.71	0.01	0.68	150.0	37.0	38641.0	38418.0	82291.0	199.0	0	0.0	111988.0	45	0.01	0.04	16.26	18208.0	111.0	11245	0.18
5317STDY7723972	43.14	425.0	4.0	1.18	1.46	33.75	146.9	0.01	0.68	150.0	0.0	424.0	420.0	1185.0	5.0	0	0.0	2747.0	2	0.01	0.07	22.86	628.0	1.0	927	0.18
5317STDY7723973	44.57	3395.0	17.0	1.25	1.45	17.22	146.61	0.01	0.62	150.0	1.0	3374.0	3366.0	8260.0	61.0	0	0.0	18533.0	9	0.01	0.05	37.83	7011.0	11.0	3192	0.33
5317STDY7723974	37.61	82261.0	600.0	1.22	1.62	16.46	146.75	0.01	0.64	150.0	47.0	81829.0	80947.0	264068.0	3399.0	0	0.0	702051.0	281	0.02	0.04	45.41	318805.0	667.0	115498	0.48
5317STDY7723975	35.8	76138.0	653.0	1.24	1.58	26.97	146.2	0.01	0.59	150.0	110.0	75157.0	73069.0	540251.0	4882.0	0	0.0	1508983.0	1056	0.02	0.07	36.83	555808.0	2306.0	406986	0.32
5317STDY7723976	44.36	168349.0	1835.0	1.26	1.55	28.23	146.65	0.01	0.48	150.0	182.0	167199.0	163320.0	821519.0	5318.0	0	0.0	1851928.0	2037	0.02	0.11	27.01	500169.0	3012.0	522885	0.29
5317STDY7723977	39.23	18609.0	136.0	1.21	1.46	19.66	146.53	0.01	0.7	150.0	3.0	18486.0	18355.0	57795.0	611.0	0	0.0	147310.0	74	0.01	0.05	40.63	59855.0	115.0	28975	0.41
5317STDY7723978	39.64	56537.0	457.0	1.23	1.59	15.22	146.89	0.01	0.66	150.0	25.0	56118.0	55459.0	207093.0	2191.0	0	0.0	522422.0	209	0.01	0.04	44.68	233402.0	596.0	79527	0.42
5317STDY7723979	44.22	53210.0	473.0	1.25	1.65	17.15	146.55	0.01	0.66	150.0	38.0	52757.0	52141.0	198603.0	1541.0	0	0.0	449103.0	269	0.02	0.06	38.23	171681.0	558.0	77009	0.34
5317STDY7723980	45.94	381.0	6.0	1.62	1.75	26.9	147.37	0.02	0.72	150.0	1.0	380.0	372.0	1223.0	6.0	0	0.0	2662.0	4	0.01	0.15	26.78	713.0	2.0	716	0.23
5317STDY7723981	43.64	172017.0	1133.0	1.23	1.49	14.77	147.22	0.01	0.48	150.0	109.0	171457.0	169808.0	359797.0	2360.0	0	0.0	824493.0	330	0.01	0.04	41.26	340220.0	967.0	121786	0.29
5317STDY7723982	53.96	248015.0	1802.0	1.23	1.58	10.67	147.61	0.01	0.58	150.0	216.0	247305.0	244486.0	655075.0	2696.0	0	0.0	1214026.0	485	0.01	0.04	35.11	426269.0	1511.0	129501	0.22
5317STDY7723983	49.86	232974.0	1569.0	1.27	1.66	13.9	147.04	0.01	0.7	150.0	156.0	232021.0	229030.0	706552.0	4561.0	0	0.0	1416973.0	708	0.01	0.05	35.87	508247.0	2219.0	196905	0.32
5317STDY7723984	54.45	39289.0	288.0	1.41	1.52	12.38	147.51	0.01	0.68	150.0	16.0	39088.0	38771.0	119886.0	545.0	0	0.0	220189.0	66	0.01	0.03	32.89	72431.0	214.0	27261	0.25
5317STDY7723985	59.46	497369.0	3421.0	1.24	1.59	8.14	147.84	0.01	0.54	150.0	406.0	496109.0	490834.0	1078740.0	3889.0	0	0.0	1814238.0	1088	0.01	0.06	32.13	582955.0	2708.0	147566	0.21
5317STDY7723986	53.4	12242.0	238.0	1.32	1.67	41.66	145.02	0.01	0.66	150.0	2.0	11940.0	11452.0	189014.0	519.0	0	0.0	353979.0	460	0.01	0.13	4.66	16508.0	550.0	147478	0.15
5317STDY7723987	51.13	13516.0	80.0	1.35	1.84	16.73	147.22	0.01	0.68	150.0	14.0	13439.0	13347.0	40087.0	212.0	0	0.0	78405.0	24	0.01	0.03	31.84	24961.0	75.0	13121	0.27
5317STDY7723988	55.76	436199.0	3119.0	1.27	1.65	8.57	147.74	0.01	0.53	150.0	336.0	435395.0	430018.0	1052453.0	4700.0	0	0.0	1887631.0	1133	0.01	0.06	35.36	667511.0	2726.0	161834	0.25
5317STDY7723989	61.96	590462.0	4152.0	1.27	1.65	7.24	147.89	0.01	0.5	150.0	434.0	589086.0	583070.0	1317131.0	4434.0	0	0.0	2125632.0	1062	0.01	0.05	30.54	649203.0	2806.0	153802	0.21
5317STDY7723990	63.62	396524.0	3090.0	1.24	1.69	6.43	147.92	0.01	0.56	150.0	212.0	395666.0	391295.0	975793.0	2497.0	0	0.0	1533892.0	614	0.01	0.04	29.74	456242.0	1927.0	98746	0.16
5317STDY7723991	29.46	11763.0	158.0	1.26	1.56	38.86	146.26	0.01	0.68	150.0	15.0	11562.0	11304.0	87901.0	855.0	0	0.0	298347.0	388	0.02	0.13	31.26	93277.0	286.0	115926	0.29
5317STDY7723992	29.23	3954.0	28.0	1.19	1.4	23.0	146.15	0.01	0.67	150.0	0.0	3904.0	3883.0	13288.0	187.0	0	0.0	45457.0	27	0.01	0.06	47.3	21501.0	43.0	10454	0.41
5317STDY7723993	33.17	125440.0	2173.0	1.25	1.48	18.05	146.73	0.01	0.59	150.0	89.0	124640.0	121789.0	406038.0	4950.0	0	0.0	1224163.0	367	0.01	0.03	48.34	591750.0	1389.0	221058	0.4
5317STDY7723994	45.12	127444.0	723.0	1.24	1.51	13.74	147.01	0.01	0.63	150.0	96.0	126819.0	125760.0	376646.0	3737.0	0	0.0	834820.0	334	0.01	0.04	40.66	339428.0	865.0	114675	0.45
5317STDY7723995	49.04	212655.0	1447.0	1.24	1.59	14.49	147.29	0.01	0.61	150.0	147.0	211958.0	209508.0	606419.0	3963.0	0	0.0	1236539.0	618	0.01	0.05	36.1	446359.0	1553.0	179180	0.32
5317STDY7723996	50.4	239111.0	1641.0	1.25	1.66	10.18	147.33	0.01	0.58	150.0	175.0	238243.0	235372.0	727420.0	4709.0	0	0.0	1443216.0	722	0.01	0.05	39.04	563468.0	1923.0	146897	0.33
5317STDY7723997	57.65	41948.0	288.0	1.26	1.69	11.74	147.47	0.01	0.69	150.0	28.0	41659.0	41382.0	110993.0	553.0	0	0.0	192537.0	77	0.01	0.04	30.29	58316.0	250.0	22598	0.29
5317STDY7723998	53.79	18137.0	104.0	1.3	1.75	12.59	147.08	0.01	0.68	150.0	26.0	17994.0	17884.0	66585.0	277.0	0	0.0	123797.0	50	0.01	0.04	33.36	41296.0	123.0	15589	0.22
5317STDY7723999	60.77	566072.0	3848.0	1.28	1.64	6.82	147.67	0.01	0.51	150.0	400.0	564942.0	558998.0	1424185.0	6509.0	0	0.0	2343750.0	703	0.01	0.03	32.1	752430.0	2826.0	159923	0.28
5317STDY7724000	55.32	552157.0	3713.0	1.25	1.64	6.63	147.5	0.01	0.46	150.0	302.0	550880.0	545125.0	1344291.0	9633.0	0	0.0	2430065.0	972	0.01	0.04	37.62	914113.0	3017.0	161056	0.4
5317STDY7724001	71.06	353572.0	2937.0	1.27	1.62	9.65	147.85	0.01	0.55	150.0	455.0	352507.0	346113.0	1453768.0	2891.0	0	0.0	2045832.0	2046	0.01	0.1	19.05	389698.0	4067.0	197429	0.14
5317STDY7724002	58.85	423728.0	2846.0	1.28	1.62	7.88	147.83	0.01	0.55	150.0	275.0	422930.0	418418.0	1141925.0	5123.0	0	0.0	1940379.0	776	0.01	0.04	32.96	639639.0	2189.0	152916	0.26
5317STDY7724003	62.43	85216.0	538.0	1.3	1.69	10.36	147.6	0.01	0.66	150.0	37.0	84846.0	84127.0	248055.0	922.0	0	0.0	397346.0	119	0.01	0.03	26.96	107110.0	514.0	41140	0.23
5317STDY7724004	60.51	24314.0	148.0	1.41	1.72	11.83	147.54	0.01	0.69	150.0	13.0	24187.0	24019.0	67247.0	273.0	0	0.0	111128.0	44	0.01	0.04	27.37	30420.0	134.0	13144	0.25
5317STDY7724005	69.19	24990.0	146.0	1.32	1.69	15.9	147.49	0.01	0.66	150.0	6.0	24803.0	24501.0	159791.0	315.0	0	0.0	230951.0	116	0.01	0.05	14.72	33999.0	337.0	36730	0.14
5317STDY7724006	62.93	432206.0	2525.0	1.26	1.6	7.23	147.63	0.01	0.53	150.0	268.0	431098.0	427078.0	1041048.0	3138.0	0	0.0	1654263.0	662	0.01	0.04	29.61	489814.0	2335.0	119601	0.19
5317STDY7724007	63.0	438161.0	3175.0	1.26	1.58	7.41	147.93	0.01	0.57	150.0	169.0	437145.0	432652.0	1005676.0	3778.0	0	0.0	1596356.0	958	0.01	0.06	29.3	467665.0	2165.0	118279	0.24
5317STDY7724008	62.06	21373.0	135.0	1.22	1.87	13.65	147.6	0.01	0.68	150.0	14.0	21288.0	21141.0	50407.0	163.0	0	0.0	81228.0	32	0.01	0.04	24.05	19535.0	83.0	11091	0.2
5317STDY7724009	23.88	543.0	4.0	1.07	1.3	57.81	147.26	0.01	0.59	150.0	0.0	543.0	538.0	1554.0	11.0	0	0.0	6507.0	4	0.01	0.06	18.07	1176.0	1.0	3762	0.17
5317STDY7724010	13.24	554.0	8.0	1.54	1.42	67.48	146.58	0.01	0.58	150.0	0.0	554.0	545.0	1759.0	7.0	0	0.0	13290.0	1	0.01	0.01	19.22	2555.0	1.0	8968	0.05
5317STDY7724011	2.58	1261.0	57.0	1.07	1.52	94.62	144.11	0.01	0.57	150.0	0.0	1229.0	1176.0	6485.0	166.0	0	0.0	251701.0	50	0.02	0.02	2.72	6837.0	28.0	238163	0.07
5317STDY7724012	15.51	39675.0	277.0	1.19	1.51	61.29	145.75	0.01	0.43	150.0	15.0	39375.0	38458.0	124316.0	1094.0	0	0.0	801768.0	160	0.01	0.02	23.04	184718.0	925.0	491480	0.14
5317STDY7724013	33.89	177784.0	958.0	1.23	1.37	32.29	146.52	0.01	0.56	150.0	130.0	176769.0	173519.0	503740.0	4098.0	0	0.0	1486189.0	743	0.02	0.05	33.48	497637.0	3177.0	479971	0.28
5317STDY7724014	24.07	7586.0	106.0	1.19	1.14	69.3	145.8	0.02	0.67	150.0	0.0	7488.0	7165.0	181053.0	902.0	0	0.0	752107.0	451	0.02	0.06	6.45	48511.0	315.0	521190	0.12
5317STDY7724015	42.62	9313.0	74.0	1.21	1.62	21.63	146.73	0.01	0.67	150.0	7.0	9253.0	9188.0	25272.0	192.0	0	0.0	59303.0	18	0.01	0.03	35.4	20992.0	44.0	12829	0.32
5317STDY7724016	53.2	14839.0	131.0	1.28	1.41	17.06	147.33	0.01	0.67	150.0	13.0	14746.0	14608.0	41363.0	247.0	0	0.0	77750.0	47	0.01	0.06	29.36	22828.0	87.0	13265	0.32
5317STDY7724017	55.34	72619.0	608.0	1.28	1.54	11.63	147.62	0.01	0.64	150.0	47.0	72311.0	71306.0	240419.0	1122.0	0	0.0	434413.0	174	0.01	0.04	32.72	142160.0	658.0	50538	0.26
5317STDY7724018	61.35	94618.0	730.0	1.31	1.72	10.73	147.78	0.01	0.65	150.0	151.0	94291.0	93195.0	228289.0	758.0	0	0.0	372097.0	186	0.01	0.05	27.67	102967.0	542.0	39897	0.2
5317STDY7724019	55.18	14722.0	91.0	1.23	1.81	12.63	147.35	0.01	0.66	150.0	13.0	14630.0	14545.0	38094.0	195.0	0	0.0	69033.0	55	0.01	0.08	31.83	21974.0	73.0	8715	0.28
5317STDY7724020	64.64	577851.0	2835.0	1.26	1.51	11.66	147.5	0.01	0.51	150.0	311.0	576471.0	570121.0	1191528.0	3732.0	0	0.0	1843381.0	553	0.01	0.03	23.46	432537.0	4584.0	215031	0.2
5317STDY7724021	59.23	467031.0	3282.0	1.23	1.44	8.91	147.61	0.01	0.48	150.0	208.0	466105.0	460880.0	1218750.0	4640.0	0	0.0	2057533.0	823	0.01	0.04	31.59	649921.0	2661.0	183399	0.23
5317STDY7724022	54.28	455469.0	3448.0	1.28	1.56	8.15	147.57	0.01	0.48	150.0	274.0	454389.0	448676.0	1142711.0	4668.0	0	0.0	2105277.0	1475	0.01	0.07	37.27	784739.0	3071.0	171684	0.22
5317STDY7724023	64.13	186692.0	1242.0	1.25	1.65	9.19	147.84	0.01	0.63	150.0	146.0	186253.0	184706.0	414057.0	1289.0	0	0.0	645702.0	323	0.01	0.05	26.44	170737.0	598.0	59296	0.2
5317STDY7724024	62.66	327651.0	2616.0	1.26	1.62	8.24	147.68	0.01	0.52	150.0	209.0	326817.0	322593.0	936969.0	4817.0	0	0.0	1495424.0	1047	0.01	0.07	28.71	429300.0	2233.0	123291	0.32
5317STDY7724025	60.94	319978.0	2327.0	1.17	1.64	8.36	147.69	0.01	0.55	150.0	229.0	319309.0	315687.0	839102.0	2727.0	0	0.0	1376905.0	689	0.01	0.05	30.45	419234.0	1735.0	115153	0.2
5317STDY7724026	65.27	447704.0	3400.0	1.26	1.71	6.83	147.94	0.01	0.52	150.0	237.0	446792.0	442402.0	877232.0	2216.0	0	0.0	1343940.0	538	0.01	0.04	27.69	372137.0	1665.0	91817	0.16
5317STDY7724027	57.79	102728.0	734.0	1.27	1.58	12.62	147.74	0.01	0.68	150.0	55.0	102388.0	101377.0	279139.0	1262.0	0	0.0	482999.0	290	0.01	0.06	29.27	141392.0	562.0	60916	0.26
5317STDY7724028	65.69	369584.0	2622.0	1.25	1.65	8.58	147.74	0.01	0.57	150.0	295.0	368753.0	364457.0	926797.0	2534.0	0	0.0	1410763.0	705	0.01	0.05	25.5	359689.0	2210.0	121038	0.18
5317STDY7724029	68.01	51098.0	408.0	1.32	1.68	11.63	147.78	0.01	0.69	150.0	44.0	50892.0	50414.0	135021.0	343.0	0	0.0	198520.0	60	0.01	0.03	20.15	40003.0	232.0	23093	0.17
5317STDY7724030	63.31	56928.0	345.0	1.26	1.58	11.56	147.88	0.01	0.68	150.0	28.0	56703.0	56268.0	144575.0	493.0	0	0.0	228363.0	46	0.01	0.02	24.9	56853.0	287.0	26396	0.22
5317STDY7724031	63.14	63126.0	417.0	1.33	1.71	10.73	147.73	0.01	0.68	150.0	36.0	62926.0	62322.0	174822.0	629.0	0	0.0	276873.0	83	0.01	0.03	25.88	71643.0	351.0	29696	0.23
5317STDY7724032	68.3	242231.0	1912.0	1.26	1.76	8.86	147.87	0.01	0.62	150.0	77.0	241698.0	238759.0	632464.0	1662.0	0	0.0	926015.0	371	0.01	0.04	22.62	209430.0	1483.0	82088	0.18
5317STDY7724033	70.92	151141.0	1113.0	1.32	1.57	8.99	147.96	0.01	0.64	150.0	27.0	150817.0	149355.0	397355.0	1191.0	0	0.0	560285.0	336	0.01	0.06	19.82	111038.0	646.0	50365	0.21
5317STDY7724034	71.26	219042.0	1593.0	1.35	1.74	9.64	147.91	0.01	0.64	150.0	104.0	218622.0	216417.0	535585.0	1167.0	0	0.0	751545.0	226	0.01	0.03	18.91	142086.0	928.0	72481	0.16
5317STDY7724035	10.46	32179.0	53.0	1.15	1.37	88.04	143.19	0.03	0.88	150.0	1156.0	30897.0	14091.0	227378.0	1258.0	0	0.0	2173185.0	869	0.02	0.04	1.4	30335.0	16879.0	1913345	0.06
5317STDY7724036	71.97	891866.0	5242.0	1.31	1.65	5.82	147.99	0.01	0.5	150.0	683.0	890497.0	882797.0	1602880.0	2626.0	0	0.0	2227244.0	445	0.01	0.02	22.08	491726.0	3144.0	129567	0.12
5317STDY7724037	38.48	7678.0	65.0	1.21	1.4	15.92	147.17	0.01	0.73	150.0	2.0	7562.0	7518.0	65368.0	691.0	0	0.0	169867.0	119	0.01	0.07	45.11	76635.0	93.0	27054	0.41
5317STDY7724038	39.2	204330.0	1520.0	1.27	1.5	17.32	147.66	0.02	0.63	150.0	102.0	203622.0	201144.0	726847.0	6502.0	0	0.0	1854311.0	1112	0.01	0.06	43.08	798823.0	1564.0	321027	0.35
5317STDY7724039	52.07	269849.0	2027.0	1.21	1.54	10.26	147.47	0.02	0.65	150.0	216.0	268826.0	265775.0	789208.0	4568.0	0	0.0	1515811.0	455	0.01	0.03	37.34	565989.0	1831.0	155591	0.3
5317STDY7724040	42.91	31632.0	223.0	1.25	1.38	15.49	147.61	0.01	0.7	150.0	27.0	31502.0	31255.0	67706.0	449.0	0	0.0	157774.0	16	0.01	0.01	41.3	65163.0	127.0	24440	0.28
5317STDY7724041	54.49	377845.0	3473.0	1.23	1.49	9.12	147.81	0.01	0.63	150.0	299.0	376792.0	372441.0	928297.0	3891.0	0	0.0	1703618.0	511	0.01	0.03	36.13	615569.0	1632.0	155350	0.23
5317STDY7724042	47.4	389921.0	2675.0	1.23	1.53	13.86	147.75	0.02	0.58	150.0	335.0	388883.0	384280.0	1108796.0	7270.0	0	0.0	2339003.0	1169	0.01	0.05	38.37	897583.0	2631.0	324185	0.31
5317STDY7724043	52.74	103490.0	1069.0	1.23	1.59	11.55	147.4	0.01	0.67	150.0	49.0	102859.0	101324.0	505326.0	2813.0	0	0.0	958150.0	479	0.01	0.05	35.37	338855.0	1048.0	110677	0.29
5317STDY7724044	36.76	488651.0	2859.0	1.28	1.47	18.98	147.92	0.01	0.56	150.0	381.0	487847.0	483533.0	801601.0	9630.0	0	0.0	2180398.0	218	0.01	0.01	43.8	954976.0	1878.0	413973	0.44
5317STDY7724045	12.65	17497.0	96.0	1.28	1.37	61.64	146.15	0.02	0.65	150.0	0.0	17369.0	17035.0	75420.0	521.0	0	0.0	596251.0	119	0.01	0.02	25.61	152691.0	366.0	367500	0.09
5317STDY7724046	2.71	2217.0	4.0	1.11	1.65	96.64	145.52	0.01	0.72	150.0	0.0	2102.0	1453.0	40394.0	252.0	0	0.0	1488097.0	149	0.01	0.01	0.62	9230.0	760.0	1438072	0.02
5317STDY7724047	2.57	4180.0	10.0	1.1	1.64	95.13	145.38	0.02	0.79	150.0	0.0	4119.0	3923.0	18519.0	213.0	0	0.0	719697.0	72	0.02	0.01	2.26	16255.0	247.0	684638	0.03
5317STDY7724048	57.01	128852.0	1140.0	1.27	1.57	11.43	147.96	0.01	0.63	150.0	110.0	128309.0	126609.0	566893.0	2492.0	0	0.0	994301.0	696	0.01	0.07	31.24	310599.0	993.0	113621	0.25
5317STDY7724049	55.67	342486.0	2139.0	1.23	1.47	12.45	147.51	0.03	0.69	150.0	403.0	341587.0	338329.0	933001.0	6640.0	0	0.0	1676054.0	670	0.01	0.04	31.45	527083.0	1615.0	208660	0.4
5317STDY7724050	56.47	332568.0	2162.0	1.23	1.52	11.03	147.92	0.01	0.68	150.0	370.0	331593.0	328314.0	810869.0	3634.0	0	0.0	1435975.0	287	0.01	0.02	32.23	462813.0	1722.0	158372	0.25
5317STDY7724051	53.75	321656.0	1933.0	1.21	1.48	11.84	147.91	0.01	0.69	150.0	240.0	320723.0	317533.0	837124.0	6386.0	0	0.0	1557575.0	623	0.01	0.04	33.97	529085.0	1950.0	184357	0.41
5317STDY7724052	52.07	362474.0	2415.0	1.25	1.46	13.97	147.96	0.01	0.65	150.0	185.0	361421.0	357663.0	936346.0	3882.0	0	0.0	1798123.0	539	0.01	0.03	33.71	606157.0	2211.0	251199	0.22
5317STDY7724053	55.5	34821.0	223.0	1.24	1.47	14.96	147.39	0.01	0.71	150.0	40.0	34630.0	34376.0	95693.0	382.0	0	0.0	172428.0	52	0.01	0.03	29.29	50507.0	182.0	25794	0.22
5317STDY7724054	58.08	434953.0	3738.0	1.24	1.54	12.9	147.96	0.01	0.64	150.0	335.0	434067.0	428717.0	1086625.0	4189.0	0	0.0	1870845.0	561	0.01	0.03	28.76	538066.0	2163.0	241404	0.22
5317STDY7724055	37.42	19985.0	89.0	1.18	1.46	16.8	146.55	0.02	0.74	150.0	25.0	19886.0	19757.0	75606.0	782.0	0	0.0	202023.0	40	0.01	0.02	45.36	91646.0	114.0	33949	0.39
5317STDY7724056	38.86	176608.0	1522.0	1.24	1.53	18.06	147.49	0.01	0.59	150.0	210.0	175650.0	172669.0	924943.0	8705.0	0	0.0	2380123.0	1666	0.01	0.07	42.64	1014942.0	2207.0	429867	0.37
5317STDY7724057	47.52	34114.0	168.0	1.22	1.54	17.11	146.97	0.01	0.74	150.0	28.0	33949.0	33650.0	148856.0	756.0	0	0.0	313220.0	94	0.01	0.03	35.09	109908.0	268.0	53606	0.24
5317STDY7724058	57.19	338901.0	2781.0	1.25	1.55	12.21	147.95	0.01	0.65	150.0	381.0	338014.0	333870.0	906146.0	3754.0	0	0.0	1584543.0	634	0.01	0.04	30.32	480425.0	1869.0	193584	0.24
5317STDY7724059	58.84	512634.0	3350.0	1.27	1.46	10.19	148.0	0.01	0.62	150.0	477.0	511569.0	506748.0	1113557.0	3731.0	0	0.0	1892404.0	946	0.01	0.05	30.72	581376.0	2059.0	192794	0.2
5317STDY7724060	59.84	297354.0	1998.0	1.25	1.59	10.14	147.93	0.01	0.68	150.0	269.0	296639.0	293805.0	756984.0	3296.0	0	0.0	1264935.0	380	0.01	0.03	29.72	375956.0	1282.0	128319	0.26
5317STDY7724061	54.89	79845.0	618.0	1.23	1.52	14.63	147.45	0.02	0.73	150.0	59.0	79517.0	78795.0	242375.0	1336.0	0	0.0	441586.0	132	0.01	0.03	30.15	133147.0	373.0	64596	0.3
5317STDY7724062	56.68	350484.0	2397.0	1.24	1.51	11.3	147.93	0.01	0.68	150.0	272.0	349517.0	345977.0	816507.0	4024.0	0	0.0	1440446.0	720	0.01	0.05	31.69	456437.0	1838.0	162758	0.28
5317STDY7724063	41.1	633528.0	5309.0	1.25	1.27	52.05	147.39	0.01	0.57	150.0	391.0	632179.0	621998.0	1170592.0	1583.0	0	0.0	2848266.0	570	0.01	0.02	6.77	192866.0	5830.0	1482655	0.06
5317STDY7724064	60.53	339615.0	2640.0	1.24	1.49	11.38	147.81	0.01	0.66	150.0	320.0	338618.0	334768.0	931967.0	4152.0	0	0.0	1539742.0	308	0.01	0.02	27.8	428082.0	1887.0	175233	0.27
5317STDY7724065	4.71	3081.0	6.0	1.11	1.58	94.46	145.11	0.02	0.81	150.0	28.0	2914.0	2273.0	75266.0	538.0	0	0.0	1597891.0	320	0.02	0.02	0.78	12401.0	774.0	1509366	0.03
5317STDY7724066	35.95	552.0	2.0	1.23	1.2	41.01	147.68	0.01	0.77	150.0	1.0	548.0	546.0	1490.0	6.0	0	0.0	4145.0	2	0.01	0.05	22.85	947.0	3.0	1700	0.14
5317STDY7724067	51.14	25389.0	189.0	1.26	1.51	12.66	147.62	0.01	0.61	150.0	18.0	25285.0	25091.0	53640.0	232.0	0	0.0	104890.0	31	0.01	0.03	35.94	37701.0	91.0	13286	0.22
5317STDY7724068	51.08	20910.0	135.0	1.23	1.64	17.42	147.3	0.01	0.73	150.0	17.0	20788.0	20652.0	59557.0	323.0	0	0.0	116585.0	47	0.01	0.04	31.18	36355.0	106.0	20303	0.28
5317STDY7724069	49.62	481569.0	3108.0	1.22	1.57	16.98	148.06	0.01	0.55	150.0	449.0	480353.0	474499.0	1271300.0	6291.0	0	0.0	2561944.0	1537	0.01	0.06	33.09	847864.0	3513.0	434952	0.25
5317STDY7724070	54.76	344037.0	2754.0	1.26	1.51	12.5	147.91	0.01	0.62	150.0	203.0	343088.0	338639.0	1002573.0	4581.0	0	0.0	1830827.0	732	0.01	0.04	32.45	594132.0	2441.0	228809	0.25
5317STDY7724071	61.02	349712.0	2595.0	1.23	1.52	10.52	147.96	0.01	0.66	150.0	303.0	348858.0	345087.0	886538.0	4341.0	0	0.0	1452962.0	290	0.01	0.02	28.15	409050.0	1727.0	152743	0.3
5317STDY7724072	52.92	460008.0	3573.0	1.26	1.51	12.22	147.92	0.01	0.62	150.0	419.0	458957.0	453693.0	1121267.0	4658.0	0	0.0	2118794.0	847	0.01	0.04	34.6	733119.0	2323.0	258903	0.22
5317STDY7724073	60.84	184816.0	1253.0	1.22	1.62	11.5	147.96	0.01	0.7	150.0	168.0	184275.0	182582.0	465778.0	1621.0	0	0.0	765578.0	153	0.01	0.02	27.43	210029.0	813.0	87997	0.21
5317STDY7724074	58.77	264797.0	1959.0	1.23	1.57	10.69	148.06	0.01	0.72	150.0	284.0	264049.0	261455.0	653358.0	2498.0	0	0.0	1111810.0	222	0.01	0.02	30.3	336855.0	1099.0	118877	0.22
5317STDY7724075	47.97	391203.0	3328.0	1.26	1.49	19.06	147.7	0.01	0.58	150.0	590.0	389944.0	382923.0	1237253.0	7214.0	0	0.0	2579484.0	1290	0.01	0.05	32.64	841893.0	4362.0	491834	0.28
5317STDY7724076	55.89	19746.0	141.0	1.19	1.59	14.82	147.65	0.01	0.72	150.0	14.0	19676.0	19531.0	45849.0	187.0	0	0.0	82033.0	16	0.01	0.02	29.04	23821.0	60.0	12160	0.23
5317STDY7724077	57.32	26127.0	158.0	1.17	1.49	13.37	147.74	0.01	0.74	150.0	21.0	26009.0	25836.0	64678.0	285.0	0	0.0	112837.0	23	0.01	0.02	29.04	32769.0	112.0	15082	0.25
5317STDY7724078	53.9	23206.0	161.0	1.3	1.61	16.99	147.57	0.01	0.76	150.0	14.0	23061.0	22888.0	66493.0	284.0	0	0.0	123374.0	37	0.01	0.03	28.86	35609.0	143.0	20951	0.23
5317STDY7724079	48.54	20439.0	124.0	1.2	1.51	19.85	147.29	0.01	0.74	150.0	20.0	20309.0	20154.0	64577.0	505.0	0	0.0	133047.0	40	0.01	0.03	31.2	41514.0	141.0	26411	0.38
5317STDY7724080	57.55	35866.0	208.0	1.22	1.5	13.7	147.55	0.01	0.76	150.0	35.0	35719.0	35477.0	88738.0	658.0	0	0.0	154204.0	15	0.01	0.01	28.31	43661.0	146.0	21132	0.43
5317STDY7724081	54.98	419192.0	2778.0	1.23	1.48	12.04	148.04	0.01	0.63	150.0	455.0	418365.0	414015.0	1004077.0	3814.0	0	0.0	1826282.0	365	0.01	0.02	32.75	598108.0	1944.0	219918	0.21
5317STDY7724082	52.63	27104.0	174.0	1.2	1.51	16.91	147.48	0.01	0.76	150.0	17.0	26971.0	26788.0	68886.0	339.0	0	0.0	130896.0	39	0.01	0.03	30.18	39502.0	125.0	22130	0.26
5317STDY7724083	61.01	295564.0	2125.0	1.2	1.56	11.27	148.03	0.01	0.69	150.0	256.0	294810.0	291747.0	716940.0	2691.0	0	0.0	1175114.0	235	0.01	0.02	27.46	322728.0	1436.0	132520	0.23
5317STDY7724084	39.42	207899.0	1453.0	1.25	1.53	17.02	147.73	0.01	0.55	150.0	97.0	206845.0	202915.0	1092529.0	10617.0	0	0.0	2771373.0	2216	0.01	0.08	43.1	1194473.0	3434.0	471538	0.38
5317STDY7724085	55.0	515882.0	4175.0	1.25	1.54	13.64	147.96	0.01	0.58	150.0	518.0	514402.0	507335.0	1630805.0	6599.0	0	0.0	2965025.0	889	0.01	0.03	31.11	922461.0	3854.0	404271	0.22
5317STDY7724086	4.83	4546.0	165.0	1.15	1.12	93.95	144.96	0.01	0.77	150.0	23.0	4335.0	3415.0	81821.0	342.0	0	0.0	1694046.0	169	0.02	0.01	1.19	20132.0	943.0	1591582	0.02
5317STDY7724087	41.82	117591.0	2071.0	1.27	1.39	56.27	147.38	0.01	0.56	150.0	11.0	116104.0	110013.0	1004105.0	2356.0	0	0.0	2401021.0	3602	0.01	0.15	1.66	39851.0	5496.0	1351107	0.1
5317STDY7724088	49.33	534374.0	3338.0	1.23	1.54	11.09	147.84	0.01	0.61	150.0	703.0	533349.0	528622.0	903532.0	4983.0	0	0.0	1831715.0	366	0.01	0.02	39.29	719666.0	1711.0	203168	0.27
5317STDY7724089	58.41	28074.0	746.0	1.24	1.41	35.7	145.23	0.01	0.91	150.0	276.0	24484.0	14501.0	583822.0	3655.0	0	0.0	999553.0	4098	0.02	0.41	5.11	51117.0	12551.0	356861	0.37
5317STDY7724090	9.08	8295.0	92.0	1.15	1.35	89.91	145.09	0.01	0.89	150.0	3.0	7503.0	3246.0	159913.0	761.0	0	0.0	1760613.0	1409	0.02	0.08	0.88	15493.0	4954.0	1583037	0.04
5317STDY7724091	8.93	13468.0	139.0	1.55	1.76	89.65	144.8	0.02	0.96	150.0	3.0	12426.0	5684.0	175393.0	3213.0	0	0.0	1964320.0	589	0.02	0.03	1.23	24078.0	7642.0	1761047	0.16
5317STDY7724092	10.08	2945.0	28.0	1.17	1.49	88.79	144.68	0.01	0.87	150.0	0.0	2540.0	1556.0	77782.0	379.0	0	0.0	771908.0	309	0.02	0.04	1.04	8038.0	1361.0	685400	0.05
5317STDY7724093	52.66	23058.0	448.0	1.44	1.66	44.36	147.37	0.01	0.74	150.0	2.0	22609.0	21347.0	272181.0	1082.0	0	0.0	516906.0	982	0.02	0.19	2.58	13357.0	1261.0	229304	0.21
5317STDY7724094	51.65	19863.0	119.0	1.28	1.4	21.64	147.51	0.01	0.73	150.0	24.0	19775.0	19646.0	45878.0	183.0	0	0.0	88827.0	53	0.01	0.06	26.44	23488.0	74.0	19225	0.21
5317STDY7724095	55.29	19267.0	218.0	1.25	1.41	18.23	146.97	0.01	0.78	150.0	15.0	19113.0	18906.0	55974.0	291.0	0	0.0	101233.0	40	0.01	0.04	26.16	26482.0	128.0	18446	0.29
5317STDY7724096	54.04	346348.0	2803.0	1.25	1.51	15.34	147.55	0.01	0.65	150.0	194.0	345262.0	340993.0	968377.0	4917.0	0	0.0	1791928.0	717	0.01	0.04	30.3	543036.0	2358.0	274881	0.27
5317STDY7724097	58.44	55377.0	461.0	1.32	1.77	14.02	147.72	0.01	0.75	150.0	36.0	55122.0	54625.0	143163.0	589.0	0	0.0	244964.0	73	0.01	0.03	27.27	66807.0	255.0	34332	0.24
5317STDY7724098	59.29	554140.0	3784.0	1.18	1.46	12.12	147.73	0.01	0.62	150.0	369.0	552761.0	546834.0	1413723.0	5741.0	0	0.0	2384347.0	716	0.01	0.03	28.31	675096.0	3153.0	289071	0.24
5317STDY7724099	50.92	430530.0	3418.0	1.24	1.48	13.18	147.67	0.01	0.64	150.0	388.0	429312.0	424260.0	1123595.0	5880.0	0	0.0	2206406.0	1104	0.01	0.05	35.57	784912.0	2464.0	290915	0.27
5317STDY7724100	34.1	219.0	0.0	1.0	1.12	36.54	147.58	0.01	0.74	150.0	0.0	216.0	216.0	685.0	7.0	0	0.0	2009.0	1	0.01	0.05	28.97	582.0	3.0	734	0.35
5317STDY7724101	44.59	21279.0	152.0	1.16	1.62	20.15	147.55	0.01	0.63	150.0	23.0	21172.0	20986.0	49612.0	214.0	0	0.0	111253.0	33	0.01	0.03	35.03	38971.0	118.0	22423	0.19
5317STDY7724102	25.45	43332.0	6238.0	1.18	1.33	26.24	147.34	0.01	0.66	150.0	2.0	43010.0	36744.0	128183.0	604.0	0	0.0	503689.0	101	0.0	0.02	48.18	242660.0	348.0	132141	0.12
5317STDY7724103	53.28	14145.0	115.0	1.19	1.49	18.14	147.26	0.01	0.73	150.0	10.0	14088.0	13967.0	31538.0	112.0	0	0.0	59198.0	6	0.01	0.01	28.38	16802.0	53.0	10740	0.19
5317STDY7724104	48.66	11639.0	80.0	1.24	1.39	20.3	147.05	0.01	0.71	150.0	6.0	11570.0	11489.0	31816.0	143.0	0	0.0	65386.0	13	0.01	0.02	30.8	20136.0	64.0	13278	0.22
5317STDY7724105	47.66	20051.0	169.0	1.21	1.59	24.76	147.5	0.01	0.74	150.0	11.0	19948.0	19782.0	60650.0	286.0	0	0.0	127250.0	51	0.01	0.04	27.3	34745.0	89.0	31518	0.22
5317STDY7724106	52.97	20939.0	128.0	1.26	1.59	17.06	147.39	0.01	0.72	150.0	17.0	20826.0	20700.0	52630.0	208.0	0	0.0	99350.0	30	0.01	0.03	29.73	29536.0	94.0	16946	0.21
5317STDY7724107	18.0	22056.0	193.0	1.19	1.38	62.45	145.88	0.01	0.84	150.0	64.0	21626.0	20006.0	91212.0	691.0	0	0.0	506656.0	203	0.01	0.04	19.37	98137.0	1793.0	316413	0.14
5317STDY7724108	52.73	42851.0	288.0	1.25	1.52	16.77	147.53	0.01	0.73	150.0	34.0	42698.0	42362.0	106690.0	519.0	0	0.0	202314.0	61	0.01	0.03	30.21	61116.0	167.0	33928	0.26
5317STDY7724109	7.14	15158.0	46.0	1.17	1.33	69.89	144.48	0.01	0.72	150.0	35.0	14496.0	11576.0	173890.0	6759.0	0	0.0	2436973.0	1706	0.02	0.07	22.63	551422.0	3501.0	1703196	0.28
5317STDY7724110	4.5	4473.0	94.0	1.12	1.34	94.91	145.4	0.02	0.77	150.0	0.0	4088.0	2797.0	81351.0	1057.0	0	0.0	1808991.0	181	0.02	0.01	0.52	9396.0	1582.0	1717006	0.06
5317STDY7724111	50.57	291663.0	1586.0	1.28	1.6	13.59	147.56	0.03	0.71	150.0	416.0	290609.0	287228.0	768958.0	3941.0	0	0.0	1520548.0	760	0.01	0.05	35.53	540284.0	2433.0	206605	0.26
5317STDY7724112	45.8	177088.0	1134.0	1.12	1.57	36.24	146.65	0.05	0.71	150.0	305.0	175515.0	170264.0	803666.0	4758.0	0	0.0	1754776.0	1930	0.01	0.11	17.58	308439.0	5385.0	635983	0.27
5317STDY7724113	45.39	22497.0	152.0	1.25	1.53	17.43	147.35	0.02	0.77	150.0	29.0	22371.0	22185.0	64094.0	466.0	0	0.0	141196.0	42	0.01	0.03	36.81	51976.0	131.0	24618	0.33
5317STDY7724114	6.91	7679.0	115.0	1.23	1.59	91.92	145.41	0.01	0.74	150.0	0.0	7233.0	4274.0	157406.0	1082.0	0	0.0	2278798.0	228	0.02	0.01	1.11	25367.0	3290.0	2094715	0.05
5317STDY7724115	50.14	27337.0	170.0	1.28	1.51	19.53	147.3	0.01	0.74	150.0	28.0	27225.0	27040.0	66196.0	394.0	0	0.0	132018.0	132	0.01	0.1	29.94	39521.0	99.0	25775	0.3
5317STDY7724116	55.6	25725.0	177.0	1.26	1.65	18.05	147.53	0.01	0.75	150.0	28.0	25597.0	25399.0	65623.0	246.0	0	0.0	118022.0	12	0.01	0.01	26.13	30834.0	121.0	21307	0.21
5317STDY7724117	57.83	137382.0	936.0	1.23	1.84	15.2	147.94	0.01	0.72	150.0	84.0	136823.0	135383.0	417774.0	2054.0	0	0.0	722438.0	434	0.01	0.06	26.63	192354.0	979.0	109822	0.28
5317STDY7724118	40.96	24473.0	115.0	1.26	1.45	26.9	146.68	0.01	0.72	150.0	4.0	24365.0	24258.0	73967.0	531.0	0	0.0	180566.0	18	0.01	0.01	31.83	57474.0	96.0	48576	0.29
5317STDY7724119	55.72	62161.0	1066.0	1.27	1.63	41.78	147.47	0.01	0.77	150.0	63.0	61372.0	59610.0	327550.0	794.0	0	0.0	587815.0	1176	0.01	0.2	2.16	12709.0	1422.0	245586	0.14
5317STDY7724120	6.09	5522.0	92.0	1.31	1.49	92.88	144.18	0.01	1.14	150.0	0.0	4919.0	1647.0	72014.0	760.0	0	0.0	1181804.0	236	0.02	0.02	0.94	11123.0	3783.0	1097671	0.06
5317STDY7724121	28.3	110820.0	769.0	1.2	1.45	31.3	147.33	0.01	0.67	150.0	51.0	110349.0	108244.0	382913.0	3453.0	0	0.0	1353171.0	271	0.01	0.02	40.13	542973.0	1756.0	423561	0.26
5317STDY7724122	51.78	395466.0	2774.0	1.19	1.43	10.69	148.01	0.01	0.67	150.0	510.0	394484.0	390234.0	993504.0	5668.0	0	0.0	1918807.0	960	0.01	0.05	37.18	713478.0	1948.0	205197	0.3
5317STDY7724123	49.28	24192.0	365.0	1.27	1.64	16.78	147.54	0.01	0.76	150.0	23.0	24055.0	23690.0	77037.0	452.0	0	0.0	156313.0	47	0.01	0.03	33.61	52537.0	114.0	26240	0.29
5317STDY7724124	56.88	542634.0	5103.0	1.21	1.58	17.18	148.07	0.01	0.61	150.0	603.0	541266.0	532842.0	1581197.0	5424.0	0	0.0	2779762.0	1668	0.01	0.06	25.68	713816.0	4086.0	477657	0.2
5317STDY7724125	40.2	100002.0	539.0	1.31	1.55	18.34	147.6	0.01	0.68	150.0	125.0	99740.0	98941.0	176898.0	1294.0	0	0.0	440083.0	44	0.01	0.01	41.15	181111.0	397.0	80736	0.29
