Sample	uniquely_mapped_percent	num_splices	num_GCAG_splices	insertion_length	deletion_length	unmapped_tooshort_percent	avg_mapped_read_length	deletion_rate	mismatch_rate	avg_input_read_length	num_ATAC_splices	num_annotated_splices	num_GTAG_splices	uniquely_mapped	multimapped_toomany	unmapped_mismatches	unmapped_mismatches_percent	total_reads	unmapped_other	insertion_rate	unmapped_other_percent	multimapped_percent	multimapped	num_noncanonical_splices	unmapped_tooshort	multimapped_toomany_percent
5317STDY7887725	27.71	464.0	0.0	1.32	1.5	37.9	145.85	0.01	0.52	150.0	0.0	459.0	462.0	2041.0	36.0	0	0.0	7366.0	1	0.01	0.01	33.89	2496.0	2.0	2792	0.49
5317STDY7887726	41.19	163820.0	974.0	1.23	1.49	21.24	146.05	0.01	0.45	150.0	62.0	163083.0	160667.0	766159.0	6345.0	0	0.0	1859882.0	930	0.01	0.05	37.18	691500.0	2117.0	394948	0.34
5317STDY7887727	41.22	399141.0	2257.0	1.21	1.57	10.46	147.8	0.01	0.4	150.0	400.0	398600.0	394553.0	1041213.0	9230.0	0	0.0	2526107.0	505	0.01	0.02	47.94	1210957.0	1931.0	264202	0.37
5317STDY7887728	23.29	70345.0	325.0	1.26	1.42	27.44	145.6	0.01	0.45	150.0	8.0	70028.0	69362.0	381551.0	4703.0	0	0.0	1638355.0	819	0.01	0.05	48.93	801729.0	650.0	449553	0.29
5317STDY7887729	41.27	301575.0	1456.0	1.22	1.57	17.42	147.02	0.01	0.4	150.0	41.0	300874.0	298123.0	979390.0	14973.0	0	0.0	2372944.0	1187	0.01	0.05	40.62	963935.0	1955.0	413459	0.63
5317STDY7887730	47.37	292418.0	2114.0	1.27	1.52	12.95	147.34	0.01	0.41	150.0	274.0	291716.0	288226.0	952933.0	8163.0	0	0.0	2011573.0	805	0.01	0.04	39.23	789125.0	1804.0	260547	0.41
5317STDY7887731	36.19	155144.0	848.0	1.26	1.46	26.64	146.6	0.01	0.45	150.0	85.0	154311.0	152128.0	951539.0	13764.0	0	0.0	2629450.0	1315	0.01	0.05	36.6	962414.0	2083.0	700418	0.52
5317STDY7887732	48.05	200628.0	1886.0	1.29	1.56	18.45	147.03	0.01	0.42	150.0	134.0	199952.0	196675.0	856859.0	5695.0	0	0.0	1783389.0	2140	0.01	0.12	33.06	589636.0	1933.0	329059	0.32
5317STDY7887733	46.83	290294.0	1632.0	1.25	1.48	15.48	146.79	0.01	0.38	150.0	216.0	289381.0	285711.0	1063194.0	14557.0	0	0.0	2270291.0	1135	0.01	0.05	36.99	839879.0	2735.0	351526	0.64
5317STDY7887734	46.26	358647.0	1674.0	1.26	1.58	22.99	147.3	0.01	0.39	150.0	70.0	357719.0	354736.0	1077465.0	5328.0	0	0.0	2329037.0	466	0.01	0.02	30.5	710318.0	2167.0	535460	0.23
5317STDY7887735	48.3	263767.0	1961.0	1.24	1.5	15.41	147.29	0.01	0.4	150.0	200.0	262749.0	259173.0	973351.0	8204.0	0	0.0	2015363.0	1410	0.01	0.07	35.82	721917.0	2433.0	310481	0.41
5317STDY7887736	40.19	125752.0	658.0	1.23	1.59	17.6	146.38	0.01	0.42	150.0	3.0	125214.0	123306.0	600919.0	5017.0	0	0.0	1495044.0	747	0.01	0.05	41.82	625262.0	1785.0	263099	0.34
5317STDY7887737	53.81	330999.0	1642.0	1.24	1.54	16.08	147.05	0.01	0.41	150.0	52.0	330009.0	326152.0	1137525.0	6105.0	0	0.0	2113973.0	1057	0.01	0.05	29.78	629482.0	3153.0	339804	0.29
5317STDY7887738	52.12	211390.0	2076.0	1.23	1.63	19.02	147.18	0.01	0.42	150.0	551.0	210610.0	206234.0	992852.0	5502.0	0	0.0	1905004.0	1524	0.01	0.08	28.5	542872.0	2529.0	362254	0.29
5317STDY7887739	47.46	164757.0	1119.0	1.24	1.51	17.9	146.46	0.01	0.43	150.0	141.0	163986.0	161884.0	672445.0	5557.0	0	0.0	1416987.0	567	0.01	0.04	34.21	484754.0	1613.0	253664	0.39
5317STDY7887740	45.54	213800.0	1363.0	1.26	1.51	14.27	146.71	0.01	0.39	150.0	214.0	213216.0	209772.0	793660.0	6919.0	0	0.0	1742598.0	871	0.01	0.05	39.74	692495.0	2451.0	248653	0.4
5317STDY7887741	43.93	190595.0	1352.0	1.38	1.61	19.89	146.84	0.01	0.41	150.0	72.0	190009.0	187600.0	744787.0	6330.0	0	0.0	1695585.0	848	0.01	0.05	35.76	606311.0	1571.0	337309	0.37
5317STDY7887742	44.94	104200.0	627.0	1.2	1.5	22.95	146.22	0.01	0.45	150.0	92.0	103736.0	102346.0	497948.0	2442.0	0	0.0	1108071.0	554	0.01	0.05	31.85	352878.0	1135.0	254249	0.22
5317STDY7887743	38.23	97891.0	542.0	1.27	1.52	30.01	146.36	0.01	0.45	150.0	44.0	97392.0	95448.0	634014.0	4529.0	0	0.0	1658554.0	1824	0.01	0.11	31.39	520563.0	1857.0	497624	0.27
5317STDY7887744	47.75	101494.0	761.0	1.25	1.5	15.34	146.51	0.01	0.44	150.0	63.0	101002.0	99854.0	407174.0	2950.0	0	0.0	852747.0	256	0.01	0.03	36.54	311575.0	816.0	130792	0.35
5317STDY7887745	36.76	137924.0	955.0	1.22	1.54	23.62	146.51	0.01	0.43	150.0	33.0	137391.0	135630.0	604093.0	6560.0	0	0.0	1643440.0	657	0.01	0.04	39.18	643917.0	1306.0	388213	0.4
5317STDY7887746	38.24	145588.0	660.0	1.17	1.55	19.19	146.9	0.01	0.38	150.0	38.0	144606.0	143445.0	612671.0	2791.0	0	0.0	1602161.0	641	0.01	0.04	42.36	678652.0	1445.0	307406	0.17
5317STDY7887747	50.15	205863.0	1234.0	1.27	1.61	18.16	146.87	0.01	0.42	150.0	164.0	205232.0	202776.0	790084.0	7555.0	0	0.0	1575507.0	788	0.01	0.05	31.16	490986.0	1689.0	286094	0.48
5317STDY7887748	9.01	10644.0	431.0	1.2	1.38	88.78	144.82	0.01	0.63	150.0	174.0	9972.0	4132.0	211986.0	1785.0	0	0.0	2353094.0	2588	0.02	0.11	2.03	47667.0	5907.0	2089068	0.08
5317STDY7887749	38.27	205074.0	1014.0	1.24	1.57	21.77	146.5	0.01	0.44	150.0	183.0	204485.0	202362.0	693492.0	8695.0	0	0.0	1812105.0	544	0.01	0.03	39.45	714815.0	1515.0	394559	0.48
5317STDY7887750	40.37	143574.0	803.0	1.26	1.49	19.05	146.16	0.01	0.44	150.0	95.0	142949.0	141321.0	571009.0	4852.0	0	0.0	1414325.0	424	0.01	0.03	40.21	568634.0	1355.0	269406	0.34
5317STDY7887751	35.32	144278.0	823.0	1.26	1.59	24.41	146.47	0.01	0.44	150.0	259.0	143642.0	141755.0	585781.0	5731.0	0	0.0	1658450.0	663	0.01	0.04	39.88	661420.0	1441.0	404855	0.35
5317STDY7887752	5.32	3196.0	14.0	1.43	1.35	92.73	144.19	0.01	0.52	150.0	2.0	2996.0	1398.0	70091.0	992.0	0	0.0	1316603.0	1711	0.03	0.13	1.75	22996.0	1782.0	1220813	0.08
5317STDY7887753	46.78	240365.0	1504.0	1.23	1.56	17.95	147.01	0.01	0.42	150.0	344.0	239659.0	235799.0	803347.0	8748.0	0	0.0	1717450.0	859	0.01	0.05	34.71	596162.0	2718.0	308334	0.51
5317STDY7887754	46.74	195098.0	1377.0	1.25	1.57	16.08	146.83	0.01	0.43	150.0	107.0	194309.0	191873.0	770217.0	7374.0	0	0.0	1647951.0	824	0.01	0.05	36.68	604458.0	1741.0	265078	0.45
5317STDY7887755	25.73	84485.0	426.0	1.3	1.47	32.77	145.82	0.02	0.46	150.0	125.0	84095.0	83104.0	382690.0	5126.0	0	0.0	1487342.0	744	0.01	0.05	41.11	611386.0	830.0	487396	0.34
5317STDY7887756	34.99	99841.0	719.0	1.21	1.45	28.38	146.7	0.01	0.43	150.0	13.0	99346.0	98298.0	450691.0	4699.0	0	0.0	1288063.0	773	0.01	0.06	36.21	466376.0	811.0	365524	0.36
5317STDY7887757	42.76	214202.0	1042.0	1.25	1.41	15.67	146.63	0.01	0.4	150.0	95.0	213615.0	211482.0	682838.0	6863.0	0	0.0	1596928.0	479	0.01	0.03	41.12	656587.0	1583.0	250161	0.43
5317STDY7887758	42.6	149123.0	1811.0	1.24	1.6	20.45	146.69	0.01	0.43	150.0	29.0	148366.0	145536.0	711558.0	9440.0	0	0.0	1670243.0	1002	0.01	0.06	36.33	606741.0	1747.0	341502	0.57
5317STDY7887759	42.75	183645.0	1057.0	1.21	1.51	18.64	146.7	0.01	0.42	150.0	190.0	183031.0	181173.0	685913.0	7436.0	0	0.0	1604297.0	1123	0.01	0.07	38.07	610781.0	1225.0	299044	0.46
5317STDY7887760	3.78	3361.0	159.0	1.14	2.28	94.54	143.34	0.01	0.71	150.0	4.0	2985.0	1556.0	71670.0	922.0	0	0.0	1897434.0	2466	0.02	0.13	1.51	28715.0	1642.0	1793661	0.05
5317STDY7887761	32.58	156569.0	1438.0	1.25	1.58	29.61	146.47	0.01	0.44	150.0	310.0	155744.0	153158.0	674066.0	11031.0	0	0.0	2068890.0	1242	0.01	0.06	37.21	769841.0	1663.0	612710	0.53
5317STDY7887762	30.16	87171.0	712.0	1.28	1.58	27.02	145.89	0.01	0.48	150.0	97.0	86531.0	84331.0	446990.0	6219.0	0	0.0	1482149.0	445	0.02	0.03	42.37	628020.0	2031.0	400475	0.42
5317STDY7887763	41.98	202890.0	1206.0	1.29	1.58	17.93	146.88	0.01	0.43	150.0	49.0	202328.0	200142.0	674057.0	6168.0	0	0.0	1605599.0	803	0.01	0.05	39.65	636662.0	1493.0	287909	0.38
5317STDY7887764	35.62	82482.0	815.0	1.34	1.6	35.27	146.24	0.01	0.44	150.0	1.0	81986.0	80233.0	550972.0	3512.0	0	0.0	1546873.0	1237	0.01	0.08	28.81	445601.0	1433.0	545551	0.23
5317STDY7887765	48.47	144523.0	1576.0	1.23	1.56	17.82	146.62	0.01	0.43	150.0	28.0	143868.0	141610.0	698348.0	5700.0	0	0.0	1440882.0	1009	0.01	0.07	33.25	479043.0	1309.0	256782	0.4
5317STDY7887766	52.78	221888.0	1371.0	1.29	1.48	11.99	146.44	0.01	0.42	150.0	75.0	221173.0	219179.0	737316.0	4542.0	0	0.0	1396882.0	559	0.01	0.04	34.87	487054.0	1263.0	167411	0.33
5317STDY7887767	33.83	112570.0	843.0	1.25	1.77	34.22	146.02	0.02	0.44	150.0	101.0	111969.0	109836.0	556481.0	6614.0	0	0.0	1645162.0	987	0.01	0.06	31.49	518045.0	1790.0	563035	0.4
5317STDY7887768	42.51	149599.0	1204.0	1.21	1.49	18.37	146.33	0.01	0.41	150.0	65.0	149162.0	147426.0	569900.0	5019.0	0	0.0	1340516.0	536	0.01	0.04	38.7	518736.0	904.0	246325	0.37
5317STDY7887769	49.39	307772.0	1964.0	1.26	1.52	11.64	146.88	0.01	0.38	150.0	76.0	307019.0	304513.0	981822.0	5424.0	0	0.0	1987713.0	199	0.01	0.01	38.68	768934.0	1219.0	231334	0.27
5317STDY7887770	44.43	160141.0	696.0	1.27	1.43	20.5	146.42	0.01	0.42	150.0	34.0	159633.0	158264.0	696575.0	6624.0	0	0.0	1567813.0	784	0.01	0.05	34.6	542409.0	1147.0	321421	0.42
5317STDY7887771	34.7	122442.0	775.0	1.24	1.47	22.79	146.02	0.01	0.46	150.0	83.0	121735.0	120477.0	395726.0	3757.0	0	0.0	1140326.0	456	0.02	0.04	42.13	480458.0	1107.0	259929	0.33
5317STDY7887772	4.76	1709.0	70.0	1.26	1.6	94.32	143.75	0.01	0.48	150.0	7.0	1523.0	1101.0	77083.0	617.0	0	0.0	1620448.0	810	0.02	0.05	0.84	13625.0	531.0	1528313	0.04
5317STDY7887773	41.12	176307.0	1074.0	1.26	1.55	17.68	146.28	0.01	0.44	150.0	167.0	175432.0	173421.0	658280.0	5618.0	0	0.0	1601050.0	800	0.01	0.05	40.81	653367.0	1645.0	282985	0.35
5317STDY7887774	26.61	640.0	2.0	1.07	1.68	44.32	146.52	0.01	0.56	150.0	0.0	634.0	633.0	2452.0	17.0	0	0.0	9213.0	6	0.01	0.07	28.82	2655.0	5.0	4083	0.18
5317STDY7887775	51.02	194576.0	1041.0	1.23	1.57	14.08	146.63	0.01	0.42	150.0	164.0	193780.0	191852.0	744707.0	6585.0	0	0.0	1459648.0	876	0.01	0.06	34.38	501857.0	1519.0	205623	0.45
5317STDY7887776	51.69	13569.0	406.0	1.17	1.32	40.01	146.0	0.01	0.66	150.0	1.0	13055.0	12177.0	663671.0	1115.0	0	0.0	1283944.0	642	0.01	0.05	8.16	104781.0	985.0	513735	0.09
5317STDY7887777	48.51	156463.0	748.0	1.22	1.55	14.86	146.42	0.01	0.42	150.0	140.0	155936.0	154596.0	556514.0	5188.0	0	0.0	1147224.0	688	0.01	0.06	36.12	414365.0	979.0	170469	0.45
5317STDY7887778	40.81	130279.0	807.0	1.21	1.46	20.42	146.24	0.01	0.44	150.0	142.0	129741.0	128017.0	490452.0	4336.0	0	0.0	1201750.0	721	0.01	0.06	38.35	460887.0	1313.0	245354	0.36
5317STDY7887779	41.97	203228.0	1090.0	1.2	1.53	19.19	146.88	0.01	0.42	150.0	214.0	202484.0	200289.0	683227.0	7476.0	0	0.0	1627721.0	977	0.01	0.06	38.32	623717.0	1635.0	312324	0.46
5317STDY7887780	31.72	42523.0	895.0	1.23	1.47	18.32	145.62	0.01	0.55	150.0	49.0	41119.0	37144.0	506007.0	8479.0	0	0.0	1595299.0	2232	0.01	0.14	49.3	786454.0	4435.0	292127	0.53
5317STDY7887781	52.74	178684.0	1169.0	1.3	1.64	14.62	146.95	0.01	0.43	150.0	169.0	178199.0	176241.0	608602.0	4325.0	0	0.0	1154006.0	693	0.01	0.06	32.2	371642.0	1105.0	168744	0.37
5317STDY7887782	59.3	286077.0	1771.0	1.28	1.54	11.43	147.21	0.01	0.42	150.0	141.0	285259.0	282209.0	976137.0	5787.0	0	0.0	1646200.0	988	0.01	0.06	28.86	475102.0	1956.0	188186	0.35
5317STDY7887783	49.5	150667.0	789.0	1.26	1.58	15.85	146.5	0.01	0.42	150.0	51.0	150185.0	148637.0	643722.0	3747.0	0	0.0	1300423.0	650	0.01	0.05	34.31	446174.0	1190.0	206130	0.29
5317STDY7887784	62.87	379080.0	2318.0	1.26	1.49	9.34	147.5	0.01	0.41	150.0	369.0	378158.0	374356.0	1005934.0	3942.0	0	0.0	1599913.0	800	0.01	0.05	27.49	439849.0	2037.0	149388	0.25
5317STDY7887785	47.83	93676.0	600.0	1.25	1.54	10.65	146.62	0.01	0.42	150.0	45.0	93215.0	92392.0	318519.0	1701.0	0	0.0	665995.0	333	0.01	0.05	41.22	274535.0	639.0	70907	0.26
5317STDY7887786	29.72	506.0	7.0	1.77	1.88	38.72	146.28	0.01	0.57	150.0	0.0	503.0	496.0	2074.0	23.0	0	0.0	6978.0	1	0.02	0.01	31.21	2178.0	3.0	2702	0.33
5317STDY7887787	42.96	159763.0	816.0	1.29	1.56	18.86	146.66	0.01	0.41	150.0	82.0	159261.0	157707.0	567041.0	4036.0	0	0.0	1320075.0	792	0.01	0.06	37.81	499142.0	1158.0	249064	0.31
5317STDY7887788	38.83	143984.0	620.0	1.18	1.51	18.35	146.51	0.01	0.43	150.0	222.0	143508.0	142238.0	423866.0	3573.0	0	0.0	1091734.0	218	0.01	0.02	42.48	463732.0	904.0	200345	0.33
5317STDY7887789	30.2	747.0	3.0	1.08	1.17	35.37	146.19	0.01	0.55	150.0	0.0	742.0	741.0	2833.0	25.0	0	0.0	9381.0	9	0.01	0.1	34.07	3196.0	3.0	3318	0.27
5317STDY7887790	28.89	640.0	9.0	1.34	1.25	36.5	145.86	0.01	0.57	150.0	1.0	637.0	627.0	2269.0	36.0	0	0.0	7855.0	4	0.01	0.05	34.11	2679.0	3.0	2867	0.46
5317STDY7887791	28.37	838.0	7.0	1.09	1.43	43.51	146.37	0.01	0.54	150.0	0.0	832.0	826.0	2935.0	27.0	0	0.0	10346.0	3	0.01	0.03	27.83	2879.0	5.0	4502	0.26
5317STDY7887792	15.69	1196.0	8.0	1.33	1.72	72.51	145.43	0.01	0.49	150.0	1.0	1188.0	1145.0	4611.0	24.0	0	0.0	29393.0	12	0.01	0.04	11.68	3433.0	42.0	21313	0.08
5317STDY7887793	21.17	34086.0	307.0	1.36	1.56	69.82	145.49	0.01	0.37	150.0	12.0	33852.0	32620.0	147411.0	496.0	0	0.0	696181.0	209	0.01	0.03	8.9	61934.0	1147.0	486131	0.07
5317STDY7887794	28.64	97944.0	550.0	1.14	1.3	45.04	145.75	0.01	0.38	150.0	65.0	97543.0	95934.0	440508.0	2665.0	0	0.0	1538036.0	615	0.01	0.04	26.1	401493.0	1395.0	692755	0.17
5317STDY7887795	30.25	124585.0	851.0	1.22	1.43	28.6	145.73	0.01	0.41	150.0	90.0	123991.0	122448.0	476467.0	4711.0	0	0.0	1574956.0	1102	0.01	0.07	40.78	642312.0	1196.0	450364	0.3
5317STDY7887796	14.43	38165.0	437.0	1.22	1.32	46.85	145.03	0.01	0.48	150.0	7.0	37690.0	35891.0	188791.0	4882.0	0	0.0	1308494.0	654	0.02	0.05	38.29	501075.0	1830.0	613092	0.37
5317STDY7887797	25.23	772.0	7.0	1.24	1.47	35.93	146.2	0.01	0.6	150.0	1.0	762.0	757.0	2846.0	47.0	0	0.0	11279.0	10	0.01	0.09	38.33	4323.0	7.0	4053	0.42
5317STDY7887798	24.06	48249.0	438.0	1.26	1.54	38.29	145.71	0.01	0.49	150.0	54.0	47587.0	46321.0	339831.0	5432.0	0	0.0	1412486.0	847	0.01	0.06	37.21	525571.0	1436.0	540805	0.38
5317STDY7887799	27.64	922.0	9.0	1.17	1.62	38.0	145.9	0.01	0.58	150.0	0.0	916.0	909.0	3310.0	37.0	0	0.0	11976.0	6	0.01	0.05	34.0	4072.0	4.0	4551	0.31
5317STDY7887800	27.77	82178.0	581.0	1.24	1.47	27.17	146.14	0.01	0.48	150.0	35.0	81771.0	80532.0	355832.0	7273.0	0	0.0	1281466.0	384	0.01	0.03	44.46	569778.0	1030.0	348199	0.57
5317STDY7887801	32.44	143349.0	482.0	1.28	1.61	21.78	146.41	0.01	0.44	150.0	94.0	142907.0	141384.0	539264.0	6973.0	0	0.0	1662583.0	1164	0.01	0.07	45.29	753027.0	1389.0	362155	0.42
5317STDY7887802	41.99	86472.0	783.0	1.29	1.44	17.79	146.03	0.01	0.46	150.0	29.0	85995.0	84701.0	448846.0	4160.0	0	0.0	1068905.0	962	0.01	0.09	39.74	424818.0	959.0	190119	0.39
5317STDY7887803	37.85	122592.0	878.0	1.24	1.42	26.14	146.32	0.01	0.45	150.0	116.0	121952.0	120112.0	588883.0	8323.0	0	0.0	1555928.0	1089	0.01	0.07	35.4	550860.0	1486.0	406773	0.53
5317STDY7887804	50.96	183586.0	1156.0	1.27	1.49	12.09	146.77	0.01	0.43	150.0	111.0	182787.0	180950.0	688554.0	4353.0	0	0.0	1351286.0	676	0.01	0.05	36.58	494254.0	1369.0	163449	0.32
5317STDY7887805	52.61	122257.0	846.0	1.26	1.55	13.33	146.73	0.01	0.45	150.0	111.0	121609.0	120090.0	594792.0	4649.0	0	0.0	1130596.0	565	0.01	0.05	33.6	379852.0	1210.0	150738	0.41
5317STDY7887806	43.37	117867.0	689.0	1.27	1.43	23.59	146.03	0.01	0.45	150.0	98.0	117268.0	115968.0	494912.0	3155.0	0	0.0	1141173.0	799	0.01	0.07	32.69	373100.0	1112.0	269207	0.28
5317STDY7887807	28.75	326.0	1.0	1.11	1.44	40.74	145.68	0.01	0.57	150.0	0.0	324.0	323.0	1701.0	26.0	0	0.0	5916.0	0	0.02	0.0	30.07	1779.0	2.0	2410	0.44
5317STDY7887808	31.76	91914.0	653.0	1.22	1.48	21.09	146.09	0.01	0.47	150.0	86.0	91228.0	90045.0	501794.0	5849.0	0	0.0	1580045.0	632	0.01	0.04	46.74	738523.0	1130.0	333247	0.37
5317STDY7887809	45.44	147197.0	965.0	1.22	1.5	14.08	146.43	0.01	0.47	150.0	63.0	146579.0	145047.0	681978.0	5193.0	0	0.0	1500817.0	900	0.01	0.06	40.07	601431.0	1122.0	211315	0.35
5317STDY7887810	48.15	126027.0	984.0	1.26	1.55	15.04	146.64	0.01	0.45	150.0	80.0	125422.0	123621.0	723370.0	4539.0	0	0.0	1502174.0	902	0.01	0.06	36.44	547340.0	1342.0	226023	0.3
5317STDY7887811	45.27	187521.0	2628.0	1.22	1.58	21.81	146.8	0.01	0.45	150.0	100.0	186639.0	182079.0	998579.0	5175.0	0	0.0	2205821.0	1323	0.01	0.06	32.63	719751.0	2714.0	480993	0.23
5317STDY7887812	42.39	217108.0	2036.0	1.27	1.66	23.52	146.62	0.01	0.43	150.0	105.0	216403.0	212671.0	851958.0	7204.0	0	0.0	2010035.0	804	0.01	0.04	33.69	677168.0	2296.0	472901	0.36
5317STDY7887813	42.19	165031.0	1221.0	1.32	1.44	23.24	146.38	0.01	0.45	150.0	8.0	164396.0	161920.0	956287.0	6847.0	0	0.0	2266573.0	1586	0.01	0.07	34.2	775281.0	1882.0	526572	0.3
5317STDY7887814	51.47	192374.0	1178.0	1.27	1.46	14.77	146.58	0.01	0.43	150.0	96.0	191610.0	189433.0	798884.0	3730.0	0	0.0	1552048.0	1241	0.01	0.08	33.44	519021.0	1667.0	229172	0.24
5317STDY7887815	58.99	236861.0	1560.0	1.24	1.55	10.33	146.86	0.01	0.46	150.0	275.0	235934.0	233548.0	826381.0	4274.0	0	0.0	1400892.0	840	0.01	0.06	30.32	424718.0	1478.0	144679	0.31
5317STDY7887816	53.11	251291.0	1790.0	1.25	1.51	14.54	146.52	0.01	0.43	150.0	106.0	250505.0	247679.0	980192.0	5127.0	0	0.0	1845519.0	1292	0.01	0.07	32.0	590593.0	1716.0	268315	0.28
5317STDY7887817	42.55	134.0	0.0	1.0	1.5	18.81	145.59	0.01	0.41	150.0	0.0	134.0	134.0	337.0	2.0	0	0.0	792.0	0	0.01	0.0	38.38	304.0	0.0	149	0.25
5317STDY7887818	26.87	1209.0	8.0	1.18	1.2	25.57	146.48	0.01	0.59	150.0	0.0	1203.0	1197.0	3840.0	49.0	0	0.0	14293.0	6	0.01	0.04	47.18	6743.0	4.0	3655	0.34
5317STDY7887819	26.46	1312.0	7.0	1.25	1.52	19.57	146.15	0.01	0.6	150.0	2.0	1299.0	1291.0	4090.0	45.0	0	0.0	15458.0	6	0.01	0.04	53.64	8292.0	12.0	3025	0.29
5317STDY7887820	27.96	1349.0	7.0	1.12	1.62	17.22	145.6	0.01	0.68	150.0	2.0	1338.0	1329.0	4103.0	45.0	0	0.0	14674.0	4	0.01	0.03	54.48	7994.0	11.0	2528	0.31
5317STDY7887821	14.25	767.0	1.0	1.2	1.92	29.33	145.72	0.02	0.62	150.0	2.0	764.0	762.0	3951.0	82.0	0	0.0	27720.0	6	0.01	0.02	56.11	15553.0	2.0	8128	0.3
5317STDY7887822	22.1	1765.0	14.0	1.24	1.31	40.45	146.06	0.01	0.58	150.0	0.0	1750.0	1739.0	5424.0	72.0	0	0.0	24545.0	5	0.01	0.02	37.14	9115.0	12.0	9929	0.29
5317STDY7887823	23.51	3129.0	21.0	1.25	1.5	42.57	145.62	0.01	0.5	150.0	1.0	3097.0	3073.0	8020.0	90.0	0	0.0	34120.0	7	0.01	0.02	33.64	11478.0	34.0	14525	0.26
5317STDY7887824	35.67	14281.0	78.0	1.3	1.37	33.88	146.06	0.01	0.44	150.0	6.0	14218.0	14139.0	27166.0	155.0	0	0.0	76167.0	38	0.01	0.05	30.2	23001.0	58.0	25807	0.2
5317STDY7887825	35.72	19902.0	146.0	1.4	1.61	38.31	146.85	0.01	0.42	150.0	7.0	19785.0	19627.0	39631.0	227.0	0	0.0	110959.0	22	0.01	0.02	25.75	28567.0	122.0	42512	0.2
5317STDY7887826	43.52	18626.0	97.0	1.3	1.4	27.86	146.63	0.01	0.41	150.0	19.0	18547.0	18435.0	33867.0	128.0	0	0.0	77813.0	23	0.0	0.03	28.42	22115.0	75.0	21680	0.16
5317STDY7887827	29.21	548.0	0.0	1.43	1.26	30.54	146.23	0.01	0.57	150.0	0.0	540.0	542.0	2045.0	23.0	0	0.0	7000.0	3	0.01	0.04	39.87	2791.0	6.0	2138	0.33
5317STDY7887828	31.86	200.0	0.0	1.17	1.0	30.12	146.16	0.0	0.42	150.0	0.0	200.0	200.0	440.0	5.0	0	0.0	1381.0	0	0.01	0.0	37.65	520.0	0.0	416	0.36
5317STDY7887829	40.89	122.0	0.0	1.0	1.0	29.69	145.92	0.01	0.42	150.0	0.0	121.0	121.0	314.0	0.0	0	0.0	768.0	1	0.02	0.13	29.3	225.0	1.0	228	0.0
5317STDY7887830	44.02	10673.0	53.0	1.06	1.47	30.76	146.63	0.01	0.45	150.0	8.0	10618.0	10562.0	18191.0	85.0	0	0.0	41322.0	4	0.0	0.01	25.0	10330.0	50.0	12712	0.21
5317STDY7887831	36.65	28767.0	167.0	1.31	1.4	25.68	146.66	0.01	0.48	150.0	14.0	28671.0	28432.0	56088.0	308.0	0	0.0	153035.0	107	0.0	0.07	37.4	57233.0	154.0	39299	0.2
5317STDY7887832	34.46	24780.0	198.0	1.31	1.56	27.88	146.71	0.01	0.56	150.0	8.0	24650.0	24361.0	56297.0	286.0	0	0.0	163358.0	49	0.01	0.03	37.45	61171.0	213.0	45555	0.18
5317STDY7887833	54.51	75146.0	602.0	1.25	1.49	12.53	147.05	0.01	0.7	150.0	50.0	74794.0	74121.0	196740.0	1470.0	0	0.0	360954.0	72	0.01	0.02	32.54	117457.0	373.0	45215	0.41
5317STDY7887834	49.17	27449.0	261.0	1.26	1.6	20.08	147.37	0.01	0.64	150.0	26.0	27255.0	26878.0	117278.0	1015.0	0	0.0	238518.0	72	0.01	0.03	30.29	72236.0	284.0	47917	0.43
5317STDY7887835	25.39	12784.0	85.0	1.3	1.43	43.92	146.64	0.01	0.72	150.0	4.0	12659.0	12585.0	48549.0	759.0	0	0.0	191178.0	19	0.01	0.01	30.28	57887.0	110.0	83964	0.4
5317STDY7887836	51.95	43968.0	310.0	1.27	1.6	15.25	147.11	0.01	0.81	150.0	58.0	43756.0	43344.0	150856.0	1518.0	0	0.0	290398.0	145	0.01	0.05	32.23	93591.0	256.0	44288	0.52
5317STDY7887837	49.61	26114.0	154.0	1.25	1.58	16.53	146.9	0.01	0.69	150.0	20.0	25925.0	25755.0	95617.0	1004.0	0	0.0	192729.0	58	0.01	0.03	33.31	64203.0	185.0	31847	0.52
5317STDY7887838	47.36	20765.0	181.0	1.25	1.62	17.35	147.29	0.01	0.67	150.0	21.0	20623.0	20410.0	69782.0	815.0	0	0.0	147338.0	59	0.01	0.04	34.69	51112.0	153.0	25570	0.55
5317STDY7887839	46.94	77681.0	630.0	1.22	1.49	16.43	147.43	0.01	0.59	150.0	67.0	77349.0	76491.0	255472.0	2736.0	0	0.0	544212.0	326	0.01	0.06	36.07	196291.0	493.0	89387	0.5
5317STDY7887840	34.3	275.0	3.0	1.33	1.14	29.08	145.51	0.01	0.46	150.0	0.0	274.0	272.0	618.0	5.0	0	0.0	1802.0	0	0.0	0.0	36.35	655.0	0.0	524	0.28
5317STDY7887841	25.4	934.0	8.0	1.22	1.46	16.95	145.03	0.01	0.58	150.0	1.0	928.0	919.0	2668.0	29.0	0	0.0	10502.0	6	0.01	0.06	57.31	6019.0	6.0	1780	0.28
5317STDY7887842	38.65	478118.0	4377.0	1.33	1.52	18.45	147.21	0.01	0.52	150.0	286.0	476439.0	470294.0	1053185.0	5583.0	0	0.0	2724613.0	817	0.01	0.03	42.66	1162398.0	3161.0	502630	0.2
5317STDY7887843	45.17	618972.0	4652.0	1.24	1.5	19.69	147.37	0.01	0.49	150.0	574.0	616902.0	608893.0	1681335.0	7165.0	0	0.0	3722368.0	2605	0.01	0.07	34.89	1298590.0	4853.0	732673	0.19
5317STDY7887844	24.93	4598.0	41.0	1.15	1.27	67.26	147.31	0.01	0.73	150.0	0.0	3926.0	2620.0	1028527.0	1511.0	0	0.0	4126246.0	1238	0.01	0.03	7.75	319734.0	1937.0	2775236	0.04
5317STDY7887845	49.75	881600.0	7216.0	1.23	1.47	11.91	147.72	0.01	0.53	150.0	1005.0	879265.0	868184.0	2389383.0	18082.0	0	0.0	4803100.0	2401	0.01	0.05	37.92	1821278.0	5195.0	571956	0.38
5317STDY7887846	53.93	737201.0	5632.0	1.26	1.52	11.3	147.27	0.01	0.55	150.0	571.0	734863.0	726114.0	2091178.0	13871.0	0	0.0	3877796.0	1163	0.01	0.03	34.39	1333542.0	4884.0	438042	0.36
5317STDY7887847	42.48	500882.0	4119.0	1.25	1.58	18.37	147.33	0.01	0.52	150.0	409.0	498915.0	491579.0	1615771.0	10315.0	0	0.0	3803601.0	1902	0.01	0.05	38.83	1476900.0	4775.0	698713	0.27
5317STDY7887848	52.74	658514.0	5369.0	1.22	1.48	11.13	147.27	0.01	0.53	150.0	507.0	656578.0	648173.0	1809984.0	9504.0	0	0.0	3432084.0	2059	0.01	0.06	35.8	1228552.0	4465.0	381985	0.28
5317STDY7887849	28.23	182422.0	1518.0	1.21	1.53	18.84	147.0	0.01	0.56	150.0	91.0	181648.0	179083.0	883593.0	18272.0	0	0.0	3129917.0	1252	0.01	0.04	52.3	1637102.0	1730.0	589698	0.58
5317STDY7887850	35.65	291839.0	2731.0	1.25	1.51	35.63	147.66	0.01	0.52	150.0	86.0	290760.0	286411.0	1004424.0	6304.0	0	0.0	2817728.0	1127	0.01	0.04	28.46	801913.0	2611.0	1003960	0.22
5317STDY7887851	28.25	403971.0	3173.0	1.21	1.47	39.08	146.86	0.01	0.47	150.0	298.0	402394.0	397482.0	1143792.0	8987.0	0	0.0	4048314.0	2429	0.01	0.06	32.38	1310983.0	3018.0	1582123	0.22
5317STDY7887852	30.31	39931.0	202.0	1.19	1.34	41.48	146.61	0.01	0.37	150.0	24.0	39756.0	39509.0	72572.0	369.0	0	0.0	239417.0	24	0.01	0.01	28.04	67122.0	196.0	99330	0.15
5317STDY7887853	61.87	180851.0	1486.0	1.31	1.28	11.49	146.21	0.01	0.3	150.0	46.0	180365.0	178614.0	265850.0	590.0	0	0.0	429672.0	43	0.0	0.01	26.49	113810.0	705.0	49379	0.14
5317STDY7887854	37.54	764108.0	5661.0	1.26	1.43	24.84	146.97	0.01	0.46	150.0	501.0	761751.0	753159.0	1761647.0	12131.0	0	0.0	4692116.0	1407	0.01	0.03	37.33	1751724.0	4787.0	1165207	0.26
5317STDY7887855	48.51	653694.0	4548.0	1.19	1.48	13.23	147.37	0.01	0.5	150.0	600.0	652157.0	644527.0	1620773.0	7313.0	0	0.0	3341331.0	1003	0.01	0.03	38.01	1269950.0	4019.0	442292	0.22
5317STDY7887856	35.36	745.0	5.0	1.73	1.47	27.89	146.86	0.01	0.52	150.0	0.0	743.0	738.0	2442.0	19.0	0	0.0	6906.0	0	0.01	0.0	36.48	2519.0	2.0	1926	0.28
5317STDY7887857	48.03	468105.0	3821.0	1.23	1.45	12.46	147.06	0.01	0.71	150.0	333.0	466647.0	460824.0	1465197.0	7603.0	0	0.0	3050419.0	1220	0.01	0.04	39.22	1196249.0	3127.0	380150	0.25
5317STDY7887858	42.79	452471.0	4978.0	1.32	1.54	23.26	147.51	0.01	0.52	150.0	310.0	450800.0	442538.0	1669999.0	9627.0	0	0.0	3902933.0	1561	0.01	0.04	33.67	1314137.0	4645.0	907609	0.25
5317STDY7887859	43.14	433036.0	3258.0	1.27	1.55	18.38	147.34	0.01	0.52	150.0	352.0	431564.0	424490.0	1439543.0	8059.0	0	0.0	3336631.0	2001	0.01	0.06	38.18	1274038.0	4936.0	612990	0.24
5317STDY7887860	50.39	562945.0	3816.0	1.25	1.47	11.59	147.09	0.01	0.53	150.0	373.0	561282.0	555649.0	1466047.0	6209.0	0	0.0	2909613.0	582	0.01	0.02	37.8	1099699.0	3107.0	337076	0.21
5317STDY7887861	35.44	1142.0	16.0	1.35	1.16	22.05	146.85	0.0	0.6	150.0	0.0	1133.0	1119.0	3170.0	26.0	0	0.0	8945.0	4	0.01	0.04	42.18	3773.0	7.0	1972	0.29
5317STDY7887862	51.47	495708.0	3607.0	1.23	1.51	13.3	147.46	0.01	0.53	150.0	348.0	494242.0	488740.0	1257695.0	4921.0	0	0.0	2443388.0	733	0.01	0.03	35.0	855084.0	3013.0	324955	0.2
5317STDY7887863	40.96	1702.0	59.0	1.17	1.28	52.45	136.71	0.01	0.87	150.0	0.0	1620.0	1608.0	28795.0	225.0	0	0.0	70298.0	49	0.01	0.07	6.21	4363.0	35.0	36866	0.32
5317STDY7887864	46.42	808735.0	5558.0	1.24	1.5	13.09	147.42	0.01	0.46	150.0	737.0	806576.0	796620.0	2000712.0	11169.0	0	0.0	4310412.0	2155	0.01	0.05	40.19	1732208.0	5820.0	564168	0.26
5317STDY7887865	45.81	324114.0	3114.0	1.23	1.57	22.85	147.25	0.01	0.51	150.0	388.0	322725.0	316863.0	1403413.0	7955.0	0	0.0	3063754.0	1532	0.01	0.05	31.04	950857.0	3749.0	699997	0.26
5317STDY7887866	43.73	14369.0	92.0	1.25	1.45	21.01	147.43	0.01	0.49	150.0	11.0	14272.0	14185.0	44215.0	273.0	0	0.0	101117.0	40	0.01	0.04	34.95	35340.0	81.0	21249	0.27
5317STDY7887867	46.75	694343.0	6515.0	1.23	1.47	16.0	147.58	0.01	0.49	150.0	401.0	692136.0	683510.0	1487886.0	9206.0	0	0.0	3182625.0	1591	0.01	0.05	36.91	1174703.0	3917.0	509239	0.29
5317STDY7887868	48.13	603371.0	5022.0	1.22	1.5	14.89	147.4	0.01	0.49	150.0	526.0	601789.0	594285.0	1384588.0	5939.0	0	0.0	2876893.0	1150	0.01	0.04	36.74	1057077.0	3538.0	428139	0.21
5317STDY7887869	44.38	488960.0	4580.0	1.22	1.54	18.45	147.23	0.01	0.48	150.0	798.0	487448.0	479653.0	1350926.0	9072.0	0	0.0	3044163.0	1218	0.01	0.04	36.83	1121220.0	3929.0	561727	0.3
5317STDY7887870	38.58	268198.0	2636.0	1.32	1.55	29.75	147.27	0.01	0.55	150.0	255.0	267002.0	262067.0	904300.0	8906.0	0	0.0	2343781.0	2109	0.01	0.09	31.2	731164.0	3240.0	697302	0.38
5317STDY7887871	45.61	382510.0	2838.0	1.22	1.49	14.84	147.12	0.01	0.5	150.0	341.0	381263.0	376772.0	1060574.0	4881.0	0	0.0	2325171.0	697	0.01	0.03	39.31	914041.0	2559.0	344978	0.21
5317STDY7887872	46.0	325729.0	2220.0	1.24	1.5	14.53	147.24	0.01	0.49	150.0	196.0	324490.0	320500.0	1028182.0	8890.0	0	0.0	2235256.0	894	0.01	0.04	39.04	872533.0	2813.0	324757	0.4
5317STDY7887873	13.49	15465.0	547.0	1.15	1.3	84.03	148.36	0.01	0.64	150.0	0.0	14590.0	11575.0	409332.0	274.0	0	0.0	3034403.0	303	0.01	0.01	2.46	74496.0	3343.0	2549998	0.01
5317STDY7887874	33.07	3326.0	23.0	1.19	1.37	60.1	140.32	0.01	0.64	150.0	5.0	3282.0	3260.0	10492.0	94.0	0	0.0	31724.0	10	0.01	0.03	6.5	2061.0	38.0	19067	0.3
5317STDY7887875	12.25	214.0	3.0	1.0	1.0	81.83	141.42	0.0	0.64	150.0	0.0	212.0	209.0	774.0	7.0	0	0.0	6318.0	0	0.01	0.0	5.81	367.0	2.0	5170	0.11
5317STDY7887876	53.68	713840.0	6559.0	1.22	1.5	12.56	147.58	0.01	0.5	150.0	598.0	712035.0	702789.0	1603283.0	7894.0	0	0.0	2986612.0	1195	0.01	0.04	33.45	999136.0	3894.0	375104	0.26
5317STDY7887877	43.3	325825.0	3108.0	1.29	1.58	23.01	147.56	0.01	0.52	150.0	207.0	324557.0	319751.0	1065553.0	6763.0	0	0.0	2460873.0	1230	0.01	0.05	33.37	821102.0	2759.0	566225	0.27
5317STDY7887878	37.89	30824.0	349.0	1.23	1.55	28.03	145.58	0.01	0.58	150.0	46.0	30297.0	29373.0	338737.0	2027.0	0	0.0	893930.0	983	0.01	0.11	33.75	301682.0	1056.0	250501	0.23
5317STDY7887879	46.3	298926.0	2547.0	1.29	1.54	24.57	146.79	0.01	0.51	150.0	250.0	297381.0	292415.0	1143340.0	4633.0	0	0.0	2469473.0	1975	0.01	0.08	28.87	712873.0	3714.0	606652	0.19
5317STDY7887880	40.27	295172.0	2728.0	1.28	1.55	25.47	147.37	0.01	0.52	150.0	71.0	294053.0	288874.0	1110119.0	6183.0	0	0.0	2756698.0	827	0.01	0.03	34.0	937389.0	3499.0	702180	0.22
5317STDY7887881	45.43	331515.0	2639.0	1.26	1.55	16.74	147.27	0.01	0.49	150.0	464.0	330357.0	325958.0	888622.0	5366.0	0	0.0	1956181.0	587	0.01	0.03	37.53	734239.0	2454.0	327367	0.27
5317STDY7887882	42.91	213509.0	1946.0	1.25	1.52	27.22	147.2	0.01	0.53	150.0	41.0	212611.0	209009.0	794102.0	4301.0	0	0.0	1850769.0	555	0.01	0.03	29.62	548167.0	2513.0	503644	0.23
5317STDY7887883	29.24	296.0	6.0	1.11	1.25	29.82	146.99	0.0	0.57	150.0	1.0	291.0	286.0	1012.0	14.0	0	0.0	3461.0	2	0.01	0.06	40.48	1401.0	3.0	1032	0.4
5317STDY7887884	42.84	338944.0	3196.0	1.24	1.54	17.16	147.46	0.01	0.5	150.0	343.0	338016.0	332843.0	942227.0	6410.0	0	0.0	2199240.0	660	0.01	0.03	39.67	872540.0	2562.0	377403	0.29
5317STDY7887885	36.72	410246.0	4027.0	1.36	1.57	24.44	147.38	0.01	0.44	150.0	282.0	409035.0	402755.0	1047920.0	6446.0	0	0.0	2853765.0	1427	0.01	0.05	38.56	1100358.0	3182.0	697614	0.23
5317STDY7887886	5.86	300.0	0.0	2.09	3.09	90.65	138.26	0.05	1.07	150.0	0.0	290.0	294.0	1366.0	13.0	0	0.0	23294.0	5	0.05	0.02	3.4	793.0	6.0	21117	0.06
5317STDY7887887	32.05	226.0	3.0	1.0	1.0	41.06	145.01	0.01	0.45	150.0	0.0	222.0	221.0	484.0	1.0	0	0.0	1510.0	1	0.01	0.07	26.75	404.0	2.0	620	0.07
5317STDY7887888	33.9	324839.0	2523.0	1.28	1.45	28.92	146.87	0.01	0.45	150.0	207.0	323875.0	319666.0	830824.0	6825.0	0	0.0	2450499.0	1225	0.01	0.05	36.85	903024.0	2443.0	708601	0.28
5317STDY7887889	42.36	451752.0	3469.0	1.23	1.44	19.86	147.07	0.01	0.48	150.0	182.0	450406.0	444979.0	1048872.0	9481.0	0	0.0	2476196.0	743	0.01	0.03	37.36	925154.0	3122.0	491946	0.38
5317STDY7887890	40.18	481683.0	3760.0	1.26	1.46	22.97	147.24	0.01	0.49	150.0	442.0	480058.0	473458.0	1297172.0	6078.0	0	0.0	3228298.0	1292	0.01	0.04	36.62	1182056.0	4023.0	741700	0.19
5317STDY7887891	35.5	315818.0	2717.0	1.28	1.45	24.37	147.09	0.01	0.49	150.0	286.0	314542.0	310290.0	833897.0	3823.0	0	0.0	2349173.0	705	0.01	0.03	39.93	938075.0	2525.0	572673	0.16
5317STDY7887892	38.95	434128.0	3954.0	1.27	1.53	21.11	147.16	0.01	0.49	150.0	496.0	432670.0	424853.0	1275990.0	10272.0	0	0.0	3275619.0	1637	0.01	0.05	39.58	1296398.0	4825.0	691322	0.31
5317STDY7887893	33.9	199969.0	2131.0	1.25	1.46	24.23	147.1	0.01	0.44	150.0	256.0	199156.0	195975.0	592858.0	3444.0	0	0.0	1748696.0	875	0.01	0.05	41.61	727685.0	1607.0	423834	0.2
5317STDY7887894	36.22	344693.0	2490.0	1.27	1.59	23.52	147.27	0.01	0.49	150.0	270.0	343610.0	339331.0	958695.0	4030.0	0	0.0	2646659.0	1323	0.01	0.05	40.06	1060255.0	2602.0	622356	0.15
5317STDY7887895	24.81	263.0	1.0	1.0	1.2	29.88	146.16	0.01	0.58	150.0	0.0	261.0	261.0	1012.0	17.0	0	0.0	4079.0	2	0.0	0.05	44.84	1829.0	1.0	1219	0.42
5317STDY7887896	33.99	236502.0	2051.0	1.36	1.56	29.21	147.03	0.01	0.5	150.0	157.0	235601.0	232471.0	608019.0	3127.0	0	0.0	1788981.0	895	0.01	0.05	36.57	654301.0	1823.0	522639	0.17
5317STDY7887897	18.21	45144.0	362.0	1.48	1.49	64.1	147.0	0.01	0.39	150.0	78.0	44933.0	44338.0	86449.0	719.0	0	0.0	474725.0	47	0.0	0.01	17.53	83202.0	366.0	304308	0.15
5317STDY7887898	26.32	224.0	0.0	1.14	1.17	45.84	145.57	0.01	0.48	150.0	0.0	221.0	221.0	573.0	3.0	0	0.0	2177.0	0	0.01	0.0	27.7	603.0	3.0	998	0.14
5317STDY7887899	45.03	121.0	2.0	1.0	1.5	24.4	144.73	0.01	0.49	150.0	0.0	121.0	119.0	299.0	2.0	0	0.0	664.0	0	0.0	0.0	30.27	201.0	0.0	162	0.3
5317STDY7887900	27.65	466.0	2.0	1.21	1.12	43.12	146.12	0.01	0.54	150.0	0.0	461.0	462.0	1765.0	26.0	0	0.0	6384.0	4	0.01	0.06	28.76	1836.0	2.0	2753	0.41
5317STDY7887901	18.86	2964.0	7.0	1.33	1.56	72.92	139.82	0.01	0.59	150.0	0.0	2926.0	2916.0	8722.0	103.0	0	0.0	46239.0	28	0.01	0.06	7.94	3670.0	41.0	33716	0.22
5317STDY7887902	10.97	1855.0	12.0	1.4	1.55	59.46	143.86	0.01	0.52	150.0	0.0	1825.0	1813.0	7052.0	167.0	0	0.0	64293.0	6	0.02	0.01	29.3	18840.0	30.0	38228	0.26
5317STDY7887903	10.63	12464.0	80.0	1.25	1.45	75.72	145.35	0.01	0.44	150.0	9.0	12396.0	12262.0	30999.0	352.0	0	0.0	291642.0	58	0.01	0.02	13.51	39405.0	113.0	220828	0.12
5317STDY7887904	9.21	5400.0	40.0	1.3	1.65	70.75	144.77	0.01	0.49	150.0	1.0	5357.0	5320.0	17721.0	320.0	0	0.0	192350.0	19	0.01	0.01	19.86	38201.0	39.0	136089	0.17
5317STDY7887905	30.35	303.0	0.0	1.43	1.29	35.65	146.06	0.0	0.54	150.0	0.0	301.0	301.0	1339.0	20.0	0	0.0	4412.0	1	0.02	0.02	33.52	1479.0	2.0	1573	0.45
5317STDY7887906	30.83	289.0	3.0	1.4	1.08	33.76	146.05	0.01	0.61	150.0	0.0	286.0	282.0	1274.0	14.0	0	0.0	4132.0	3	0.02	0.07	35.0	1446.0	4.0	1395	0.34
5317STDY7887907	30.36	148.0	1.0	1.0	1.33	34.14	146.11	0.01	0.58	150.0	0.0	147.0	147.0	666.0	11.0	0	0.0	2194.0	0	0.01	0.0	35.0	768.0	0.0	749	0.5
5317STDY7887908	33.42	332.0	3.0	1.24	2.19	32.41	146.32	0.02	0.55	150.0	0.0	331.0	327.0	1428.0	14.0	0	0.0	4273.0	1	0.01	0.02	33.82	1445.0	2.0	1385	0.33
5317STDY7887909	3.2	1257.0	106.0	1.27	1.11	95.77	143.0	0.01	0.62	150.0	12.0	1078.0	362.0	47029.0	1045.0	0	0.0	1468480.0	1028	0.02	0.07	0.89	13048.0	777.0	1406330	0.07
5317STDY7887910	2.79	2350.0	4.0	1.04	1.47	96.42	144.01	0.01	0.84	150.0	128.0	2095.0	653.0	44904.0	928.0	0	0.0	1610104.0	322	0.01	0.02	0.71	11469.0	1565.0	1552481	0.06
5317STDY7887911	10.16	7183.0	74.0	1.16	1.53	28.85	143.65	0.02	0.51	150.0	10.0	6994.0	6864.0	91260.0	2757.0	0	0.0	898528.0	180	0.01	0.02	60.66	545056.0	235.0	259275	0.31
5317STDY7887912	2.25	801.0	0.0	1.35	1.22	96.99	143.97	0.02	0.65	150.0	0.0	649.0	293.0	26744.0	948.0	0	0.0	1189391.0	238	0.02	0.02	0.67	7915.0	508.0	1153546	0.08
5317STDY7887913	4.24	2478.0	13.0	1.03	1.4	95.22	143.05	0.01	0.67	150.0	0.0	2208.0	1015.0	70935.0	683.0	0	0.0	1674280.0	2846	0.01	0.17	0.33	5559.0	1450.0	1594257	0.04
5317STDY7887914	13.4	28182.0	275.0	1.13	1.36	43.94	143.83	0.02	0.42	150.0	31.0	27964.0	27124.0	119706.0	2128.0	0	0.0	893218.0	357	0.01	0.04	42.38	378506.0	752.0	392521	0.24
5317STDY7887915	12.56	69.0	0.0	1.7	2.0	67.61	144.46	0.01	0.5	150.0	0.0	69.0	69.0	477.0	7.0	0	0.0	3797.0	4	0.02	0.11	19.54	742.0	0.0	2567	0.18
5317STDY7887916	8.41	5232.0	88.0	1.21	1.3	37.66	142.26	0.01	0.43	150.0	3.0	5064.0	4847.0	72312.0	1975.0	0	0.0	859495.0	172	0.01	0.02	53.68	461344.0	294.0	323692	0.23
5317STDY7887917	2.95	1786.0	76.0	1.75	1.09	96.41	143.75	0.01	0.59	150.0	0.0	1649.0	1120.0	45124.0	847.0	0	0.0	1527522.0	1528	0.02	0.1	0.48	7317.0	590.0	1472706	0.06
5317STDY7887918	2.95	1248.0	60.0	1.1	1.36	96.42	143.89	0.01	0.7	150.0	0.0	1015.0	300.0	30947.0	558.0	0	0.0	1047593.0	419	0.01	0.04	0.54	5638.0	888.0	1010031	0.05
5317STDY7887919	3.74	1606.0	3.0	1.09	1.73	94.43	144.26	0.01	0.67	150.0	1.0	1463.0	690.0	42546.0	2924.0	0	0.0	1138447.0	1594	0.0	0.14	1.43	16305.0	912.0	1075078	0.26
5317STDY7887920	18.48	47213.0	261.0	1.2	1.45	44.62	145.25	0.01	0.4	150.0	2.0	47031.0	46620.0	195613.0	2188.0	0	0.0	1058465.0	635	0.01	0.06	36.63	387729.0	330.0	472300	0.21
5317STDY7887921	20.3	47759.0	89.0	1.26	1.41	57.17	144.56	0.01	0.4	150.0	3.0	47472.0	47142.0	184558.0	1839.0	0	0.0	909354.0	273	0.02	0.03	22.3	202821.0	525.0	519863	0.2
5317STDY7887922	12.86	77.0	0.0	1.0	1.14	69.94	145.54	0.01	0.53	150.0	0.0	76.0	77.0	470.0	12.0	0	0.0	3656.0	2	0.01	0.05	16.82	615.0	0.0	2557	0.33
5317STDY7887923	19.93	45619.0	467.0	1.18	1.4	41.63	145.7	0.01	0.48	150.0	0.0	45338.0	44027.0	263129.0	3410.0	0	0.0	1320573.0	1585	0.02	0.12	38.07	502706.0	1125.0	549743	0.26
5317STDY7887924	18.19	43.0	3.0	1.14	1.0	68.26	145.71	0.01	0.42	150.0	0.0	40.0	37.0	654.0	9.0	0	0.0	3595.0	11	0.01	0.31	12.99	467.0	3.0	2454	0.25
5317STDY7887925	4.66	4409.0	65.0	1.46	1.28	94.24	142.67	0.0	0.8	150.0	19.0	4139.0	1635.0	61510.0	4703.0	0	0.0	1318623.0	791	0.01	0.06	0.68	8962.0	2690.0	1242657	0.36
5317STDY7887926	10.82	11483.0	96.0	1.34	1.71	61.21	143.05	0.02	0.53	150.0	7.0	11172.0	10741.0	112703.0	2429.0	0	0.0	1041491.0	1042	0.01	0.1	27.63	287795.0	639.0	637522	0.23
5317STDY7887927	17.79	14879.0	246.0	1.18	1.49	63.23	144.05	0.02	0.49	150.0	0.0	14643.0	13900.0	199526.0	1750.0	0	0.0	1121832.0	561	0.01	0.05	18.78	210630.0	733.0	709365	0.16
5317STDY7887928	12.35	9664.0	32.0	1.14	1.35	20.58	144.53	0.02	0.48	150.0	20.0	9555.0	9185.0	112603.0	2083.0	0	0.0	911899.0	274	0.01	0.03	66.81	609283.0	427.0	187656	0.23
5317STDY7887929	3.86	839.0	0.0	1.2	1.5	94.93	143.42	0.01	0.61	150.0	0.0	733.0	284.0	44870.0	1742.0	0	0.0	1163192.0	349	0.02	0.03	1.03	11978.0	555.0	1104253	0.15
5317STDY7887930	4.78	3339.0	230.0	1.23	1.36	94.3	143.61	0.02	0.78	150.0	65.0	2985.0	726.0	55579.0	2805.0	0	0.0	1161700.0	813	0.02	0.07	0.61	7062.0	2318.0	1095441	0.24
5317STDY7887931	10.35	833.0	128.0	1.04	1.86	77.25	133.07	0.01	0.9	150.0	0.0	783.0	682.0	10561.0	737.0	0	0.0	102053.0	20	0.01	0.02	11.66	11895.0	23.0	78840	0.72
5317STDY7887932	3.72	2835.0	1260.0	1.11	1.47	81.69	141.79	0.01	0.67	150.0	0.0	2754.0	1222.0	26941.0	5718.0	0	0.0	723819.0	651	0.01	0.09	13.7	99174.0	353.0	591335	0.79
5317STDY7887933	3.39	1785.0	88.0	1.53	1.25	95.37	143.81	0.01	0.62	150.0	14.0	1681.0	393.0	46408.0	1586.0	0	0.0	1370762.0	411	0.02	0.03	1.1	15137.0	1290.0	1307220	0.12
5317STDY7887934	2.56	291.0	3.0	1.33	1.21	97.2	144.3	0.01	0.44	150.0	2.0	254.0	245.0	32459.0	379.0	0	0.0	1270287.0	127	0.02	0.01	0.2	2553.0	41.0	1234769	0.03
5317STDY7887935	11.81	52981.0	826.0	1.3	1.25	49.52	144.77	0.01	0.45	150.0	1.0	52619.0	49544.0	183107.0	4606.0	0	0.0	1550156.0	775	0.01	0.05	38.32	594063.0	2610.0	767605	0.3
5317STDY7887936	5.44	5842.0	135.0	1.05	1.49	57.63	143.93	0.01	0.5	150.0	0.0	5778.0	4832.0	68946.0	2553.0	0	0.0	1266390.0	253	0.01	0.02	36.71	464905.0	875.0	729733	0.2
5317STDY7887937	29.86	124105.0	320.0	1.2	1.59	38.68	145.52	0.01	0.38	150.0	1.0	123653.0	122618.0	397692.0	2785.0	0	0.0	1332029.0	400	0.01	0.03	31.23	415972.0	1166.0	515180	0.21
5317STDY7887938	3.89	1694.0	7.0	1.17	1.32	95.39	143.28	0.01	0.67	150.0	0.0	1583.0	1076.0	48172.0	1243.0	0	0.0	1239306.0	744	0.03	0.06	0.56	6892.0	611.0	1182255	0.1
5317STDY7887939	20.31	47199.0	1676.0	1.2	1.37	14.29	145.27	0.01	0.39	150.0	0.0	46967.0	45088.0	272209.0	3110.0	0	0.0	1340389.0	268	0.01	0.02	65.15	873280.0	435.0	191522	0.23
5317STDY7887940	3.52	1278.0	13.0	1.21	1.22	94.23	143.05	0.01	0.65	150.0	0.0	1086.0	507.0	41399.0	2032.0	0	0.0	1175421.0	353	0.01	0.03	2.05	24125.0	758.0	1107512	0.17
5317STDY7887941	2.77	1531.0	2.0	1.11	1.14	96.71	143.53	0.01	0.74	150.0	0.0	1409.0	391.0	40150.0	891.0	0	0.0	1447477.0	868	0.01	0.06	0.39	5707.0	1138.0	1399861	0.06
5317STDY7887942	15.41	52172.0	136.0	1.15	1.27	52.73	144.93	0.01	0.42	150.0	46.0	51947.0	51135.0	196097.0	3020.0	0	0.0	1272610.0	764	0.01	0.06	31.56	401675.0	855.0	671054	0.24
5317STDY7887943	3.18	998.0	6.0	1.27	1.73	96.36	143.33	0.02	0.66	150.0	0.0	845.0	393.0	36291.0	609.0	0	0.0	1141169.0	456	0.02	0.04	0.36	4114.0	599.0	1099699	0.05
5317STDY7887944	4.84	7554.0	10.0	1.04	1.13	70.03	145.11	0.01	0.42	150.0	0.0	7476.0	7459.0	64932.0	1354.0	0	0.0	1341055.0	268	0.01	0.02	25.01	335392.0	85.0	939109	0.1
5317STDY7887945	6.84	15574.0	49.0	1.08	1.42	71.74	145.27	0.02	0.42	150.0	0.0	15462.0	14896.0	74980.0	2337.0	0	0.0	1096737.0	110	0.02	0.01	21.2	232562.0	629.0	786748	0.21
5317STDY7887946	16.0	37712.0	88.0	1.11	1.46	54.93	145.47	0.01	0.41	150.0	0.0	37530.0	37018.0	176314.0	2723.0	0	0.0	1102200.0	772	0.01	0.07	28.76	316948.0	606.0	605443	0.25
5317STDY7887947	7.78	10694.0	59.0	1.06	1.2	42.0	143.93	0.01	0.49	150.0	0.0	10549.0	10112.0	90766.0	2496.0	0	0.0	1166676.0	117	0.01	0.01	50.0	583395.0	523.0	489902	0.21
5317STDY7887948	2.97	1968.0	90.0	1.61	1.97	96.7	144.31	0.01	0.69	150.0	0.0	1821.0	245.0	42556.0	609.0	0	0.0	1434016.0	430	0.02	0.03	0.27	3820.0	1633.0	1386601	0.04
5317STDY7887949	3.22	1849.0	21.0	1.22	1.7	96.21	142.41	0.01	0.68	150.0	2.0	1652.0	201.0	34171.0	989.0	0	0.0	1059717.0	106	0.02	0.01	0.46	4869.0	1625.0	1019582	0.09
5317STDY7887950	9.33	13154.0	159.0	1.18	1.32	62.21	144.02	0.01	0.5	150.0	0.0	13004.0	12390.0	106690.0	2378.0	0	0.0	1143332.0	915	0.02	0.08	28.17	322089.0	605.0	711260	0.21
5317STDY7887951	3.69	4164.0	728.0	1.04	1.13	93.86	141.53	0.01	1.07	150.0	20.0	3905.0	1385.0	33144.0	2667.0	0	0.0	897241.0	628	0.02	0.07	2.08	18639.0	2031.0	842163	0.3
5317STDY7887952	16.55	30566.0	52.0	1.13	1.28	55.96	144.58	0.01	0.38	150.0	0.0	30388.0	29994.0	176637.0	2112.0	0	0.0	1067359.0	534	0.02	0.05	27.24	290747.0	520.0	597329	0.2
5317STDY7887953	3.05	2788.0	87.0	1.14	1.75	95.74	142.97	0.01	0.86	150.0	14.0	2382.0	672.0	45856.0	1881.0	0	0.0	1503197.0	6464	0.01	0.43	0.66	9853.0	2015.0	1439143	0.13
5317STDY7887954	3.13	1002.0	14.0	1.12	1.37	96.24	144.11	0.01	0.67	150.0	0.0	895.0	236.0	29369.0	735.0	0	0.0	936934.0	1312	0.01	0.14	0.41	3812.0	752.0	901706	0.08
5317STDY7887955	12.87	55.0	0.0	1.14	3.0	69.9	145.85	0.02	0.61	150.0	0.0	55.0	55.0	281.0	6.0	0	0.0	2183.0	0	0.02	0.0	16.95	370.0	0.0	1526	0.27
5317STDY7887956	9.63	46.0	0.0	1.0	1.0	76.12	145.86	0.01	0.48	150.0	0.0	46.0	46.0	246.0	6.0	0	0.0	2554.0	1	0.02	0.04	13.98	357.0	0.0	1944	0.23
5317STDY7887957	9.69	29510.0	98.0	1.08	1.29	65.92	144.92	0.01	0.44	150.0	0.0	29330.0	28374.0	142438.0	1621.0	0	0.0	1470521.0	588	0.02	0.04	24.24	356475.0	1038.0	969399	0.11
5317STDY7887958	8.69	24600.0	54.0	1.31	1.16	61.06	144.67	0.01	0.45	150.0	0.0	24487.0	24148.0	109985.0	2280.0	0	0.0	1265959.0	760	0.01	0.06	30.01	379907.0	398.0	773027	0.18
5317STDY7887959	10.19	10370.0	56.0	1.55	1.96	63.67	143.97	0.02	0.67	150.0	287.0	9916.0	7736.0	80662.0	1724.0	0	0.0	791935.0	475	0.01	0.06	25.87	204883.0	2291.0	504191	0.22
5317STDY7887960	6.15	7039.0	8.0	1.12	1.48	69.42	143.75	0.01	0.55	150.0	7.0	6849.0	6534.0	63388.0	1971.0	0	0.0	1031089.0	206	0.01	0.02	24.23	249837.0	490.0	715687	0.19
5317STDY7887961	18.03	29062.0	165.0	1.34	1.78	40.4	145.53	0.01	0.44	150.0	0.0	28899.0	28659.0	175360.0	1744.0	0	0.0	972805.0	97	0.01	0.01	41.38	402594.0	238.0	393010	0.18
5317STDY7887962	2.82	2185.0	678.0	1.2	1.04	93.23	142.8	0.01	0.96	150.0	4.0	1953.0	914.0	31325.0	3309.0	0	0.0	1112317.0	222	0.02	0.02	3.63	40338.0	589.0	1037123	0.3
5317STDY7887963	6.59	1644.0	6.0	1.1	1.47	59.25	143.8	0.02	0.46	150.0	0.0	1591.0	1567.0	59503.0	1741.0	0	0.0	902866.0	361	0.01	0.04	33.93	306330.0	71.0	534931	0.19
5317STDY7887964	2.77	2185.0	32.0	1.38	1.04	96.48	145.03	0.02	0.53	150.0	0.0	2140.0	1992.0	33234.0	561.0	0	0.0	1199526.0	2279	0.0	0.19	0.51	6113.0	161.0	1157339	0.05
5317STDY7887965	20.16	120.0	1.0	1.0	2.0	62.96	145.74	0.02	0.43	150.0	0.0	118.0	117.0	978.0	18.0	0	0.0	4852.0	15	0.01	0.31	16.2	786.0	2.0	3055	0.37
5317STDY7887966	25.93	65105.0	413.0	1.15	1.48	32.33	144.76	0.01	0.35	150.0	39.0	64903.0	63990.0	201826.0	1898.0	0	0.0	778239.0	78	0.01	0.01	41.49	322859.0	663.0	251578	0.24
5317STDY7887967	21.48	23736.0	94.0	1.16	1.35	36.47	145.06	0.01	0.39	150.0	24.0	23651.0	23481.0	80687.0	862.0	0	0.0	375566.0	150	0.01	0.04	41.77	156882.0	137.0	136985	0.23
5317STDY7887968	2.94	748.0	2.0	1.1	1.17	96.62	143.67	0.02	0.65	150.0	2.0	629.0	249.0	31196.0	546.0	0	0.0	1061786.0	319	0.01	0.03	0.36	3823.0	495.0	1025902	0.05
5317STDY7887969	10.87	18893.0	147.0	1.13	1.4	60.26	144.89	0.01	0.43	150.0	1.0	18789.0	18323.0	151945.0	2453.0	0	0.0	1398070.0	559	0.01	0.04	28.66	400650.0	422.0	842463	0.18
5317STDY7887970	15.13	19563.0	113.0	1.21	1.46	63.96	143.78	0.01	0.49	150.0	2.0	19312.0	18706.0	145760.0	1489.0	0	0.0	963531.0	1156	0.02	0.12	20.63	198817.0	742.0	616309	0.15
5317STDY7887971	8.14	11080.0	100.0	1.15	1.19	29.96	143.49	0.01	0.42	150.0	0.0	11004.0	10823.0	85696.0	3585.0	0	0.0	1052939.0	211	0.01	0.02	61.54	648023.0	157.0	315424	0.34
5317STDY7887972	10.5	43.0	1.0	1.12	2.5	65.7	144.13	0.01	0.71	150.0	0.0	43.0	42.0	302.0	7.0	0	0.0	2875.0	0	0.02	0.0	23.55	677.0	0.0	1889	0.24
5317STDY7887973	3.21	1811.0	599.0	1.35	1.24	95.65	143.42	0.01	0.69	150.0	0.0	1728.0	900.0	33740.0	1697.0	0	0.0	1050217.0	735	0.03	0.07	0.9	9458.0	312.0	1004587	0.16
5317STDY7887974	8.76	23410.0	60.0	1.67	1.77	66.61	144.56	0.02	0.45	150.0	70.0	23130.0	22384.0	111928.0	1524.0	0	0.0	1278256.0	128	0.02	0.01	24.5	313157.0	896.0	851519	0.12
5317STDY7887975	2.82	2006.0	122.0	1.06	1.42	96.06	143.85	0.01	0.62	150.0	0.0	1924.0	1777.0	32032.0	1207.0	0	0.0	1136068.0	6930	0.01	0.61	0.4	4582.0	107.0	1091317	0.11
5317STDY7887976	9.56	11163.0	62.0	1.2	1.61	39.65	143.39	0.01	0.51	150.0	19.0	10957.0	10433.0	110836.0	2613.0	0	0.0	1158893.0	232	0.01	0.02	50.54	585755.0	649.0	459457	0.23
5317STDY7887977	9.12	9910.0	148.0	1.32	1.29	55.22	142.85	0.01	0.49	150.0	0.0	9693.0	9288.0	100865.0	3000.0	0	0.0	1106378.0	221	0.02	0.02	35.36	391259.0	474.0	611033	0.27
5317STDY7887978	4.23	13077.0	48.0	1.25	1.72	91.32	143.93	0.02	0.61	150.0	1.0	12776.0	11174.0	62123.0	1268.0	0	0.0	1468189.0	1909	0.01	0.13	4.24	62234.0	1854.0	1340655	0.09
5317STDY7887979	11.88	20322.0	227.0	1.31	1.51	47.77	144.29	0.02	0.41	150.0	0.0	20195.0	19853.0	112788.0	1805.0	0	0.0	949223.0	0	0.01	0.0	40.15	381130.0	242.0	453500	0.19
5317STDY7887980	3.34	473.0	64.0	1.05	1.77	95.89	143.09	0.04	0.67	150.0	0.0	398.0	206.0	27803.0	1894.0	0	0.0	833169.0	417	0.01	0.05	0.49	4081.0	203.0	798974	0.23
5317STDY7887981	24.89	108387.0	139.0	1.18	1.37	39.16	145.71	0.01	0.33	150.0	0.0	108060.0	107743.0	303397.0	2824.0	0	0.0	1219173.0	975	0.01	0.08	35.64	434566.0	505.0	477411	0.23
5317STDY7887982	16.2	36000.0	171.0	1.26	1.43	42.44	145.08	0.02	0.44	150.0	8.0	35726.0	34865.0	155613.0	2727.0	0	0.0	960667.0	96	0.01	0.01	41.07	394558.0	956.0	407673	0.28
5317STDY7887983	3.66	852.0	29.0	1.12	1.34	92.8	143.81	0.01	0.66	150.0	0.0	783.0	369.0	34966.0	2974.0	0	0.0	956114.0	574	0.02	0.06	3.17	30329.0	454.0	887271	0.31
5317STDY7887984	6.97	8980.0	499.0	1.12	1.52	74.47	143.34	0.01	0.5	150.0	0.0	8706.0	7892.0	97573.0	2254.0	0	0.0	1399515.0	140	0.01	0.01	18.38	257294.0	589.0	1042254	0.16
5317STDY7887985	14.01	25988.0	122.0	1.3	1.44	53.5	144.61	0.01	0.4	150.0	0.0	25772.0	25137.0	179929.0	2687.0	0	0.0	1283967.0	385	0.02	0.03	32.25	414031.0	729.0	686935	0.21
5317STDY7887986	6.86	14893.0	214.0	1.09	1.62	56.29	143.66	0.01	0.51	150.0	0.0	14690.0	12643.0	111832.0	2633.0	0	0.0	1629590.0	326	0.01	0.02	36.67	597633.0	2036.0	917166	0.16
5317STDY7887987	6.52	3071.0	71.0	1.24	1.14	76.09	142.48	0.01	0.68	150.0	9.0	2875.0	2025.0	67149.0	1742.0	0	0.0	1029920.0	721	0.02	0.07	17.15	176600.0	966.0	783708	0.17
5317STDY7887988	8.48	11757.0	22.0	1.32	1.48	39.92	144.43	0.01	0.44	150.0	0.0	11646.0	11558.0	98217.0	3897.0	0	0.0	1157648.0	0	0.01	0.0	51.25	593295.0	177.0	462239	0.34
5317STDY7887989	13.51	21377.0	75.0	1.14	1.74	53.73	143.32	0.01	0.4	150.0	0.0	21184.0	20746.0	116505.0	1707.0	0	0.0	862191.0	259	0.01	0.03	32.54	280525.0	556.0	463195	0.2
5317STDY7887990	7.41	8457.0	339.0	1.13	1.43	61.35	142.4	0.01	0.49	150.0	0.0	8335.0	7888.0	79668.0	2271.0	0	0.0	1074905.0	430	0.01	0.04	30.98	333011.0	230.0	659525	0.21
5317STDY7887991	2.42	387.0	4.0	1.08	1.93	96.83	144.23	0.05	0.55	150.0	0.0	376.0	189.0	25150.0	714.0	0	0.0	1039472.0	1455	0.01	0.14	0.54	5610.0	194.0	1006543	0.07
5317STDY7887992	3.29	720.0	1.0	1.62	1.17	96.21	144.52	0.01	0.71	150.0	0.0	462.0	238.0	44364.0	412.0	0	0.0	1350141.0	0	0.01	0.0	0.47	6405.0	481.0	1298960	0.03
5317STDY7887993	13.87	26176.0	260.0	1.17	1.45	50.07	144.29	0.01	0.49	150.0	0.0	25857.0	25011.0	193565.0	3832.0	0	0.0	1396027.0	419	0.01	0.03	35.76	499154.0	905.0	699057	0.27
5317STDY7887994	9.03	8341.0	721.0	1.39	1.28	88.35	144.26	0.01	0.76	150.0	31.0	7835.0	5266.0	82572.0	4639.0	0	0.0	914671.0	457	0.02	0.05	2.07	18897.0	2323.0	808106	0.51
5317STDY7887995	3.12	791.0	26.0	1.11	1.04	96.61	143.98	0.01	0.65	150.0	0.0	688.0	316.0	43357.0	375.0	0	0.0	1388388.0	417	0.01	0.03	0.21	2853.0	449.0	1341386	0.03
5317STDY7887996	2.86	2788.0	7.0	1.11	1.68	96.27	143.43	0.01	0.85	150.0	0.0	2609.0	499.0	34131.0	1591.0	0	0.0	1194589.0	0	0.01	0.0	0.73	8779.0	2282.0	1150088	0.13
5317STDY7887997	2.97	726.0	0.0	1.04	1.4	96.54	142.47	0.01	0.67	150.0	0.0	649.0	310.0	29721.0	1269.0	0	0.0	1001341.0	601	0.02	0.06	0.3	3016.0	416.0	966734	0.13
5317STDY7887998	2.47	1311.0	548.0	1.03	1.15	97.14	143.61	0.01	0.8	150.0	0.0	1153.0	235.0	30854.0	740.0	0	0.0	1247986.0	499	0.02	0.04	0.29	3613.0	528.0	1212280	0.06
